^C:\USERS\SIMONE\DOCUMENTS\LIS_PROJECT\TASK1\REGRESSION\REGRESSION\REGRESSION.CPP
C:\USERS\SIMONE\DOCUMENTS\LIS_PROJECT\TASK1\REGRESSION\REGRESSION\DEBUG\VC140.PDB
C:\USERS\SIMONE\DOCUMENTS\LIS_PROJECT\TASK1\REGRESSION\REGRESSION\DEBUG\VC140.IDB
C:\USERS\SIMONE\DOCUMENTS\LIS_PROJECT\TASK1\REGRESSION\REGRESSION\DEBUG\REGRESSION.OBJ
^C:\USERS\SIMONE\DOCUMENTS\LIS_PROJECT\TASK1\REGRESSION\REGRESSION\READER.CPP|C:\USERS\SIMONE\DOCUMENTS\LIS_PROJECT\TASK1\REGRESSION\REGRESSION\REGRESSION.CPP
C:\USERS\SIMONE\DOCUMENTS\LIS_PROJECT\TASK1\REGRESSION\REGRESSION\DEBUG\VC140.PDB
C:\USERS\SIMONE\DOCUMENTS\LIS_PROJECT\TASK1\REGRESSION\REGRESSION\DEBUG\VC140.IDB
C:\USERS\SIMONE\DOCUMENTS\LIS_PROJECT\TASK1\REGRESSION\REGRESSION\DEBUG\READER.OBJ
C:\USERS\SIMONE\DOCUMENTS\LIS_PROJECT\TASK1\REGRESSION\REGRESSION\DEBUG\REGRESSION.OBJ
^C:\USERS\SIMONE\DOCUMENTS\LIS_PROJECT\TASK1\REGRESSION\REGRESSION\READER.CPP
C:\USERS\SIMONE\DOCUMENTS\LIS_PROJECT\TASK1\REGRESSION\REGRESSION\DEBUG\VC140.PDB
C:\USERS\SIMONE\DOCUMENTS\LIS_PROJECT\TASK1\REGRESSION\REGRESSION\DEBUG\VC140.IDB
^C:\USERS\SIMONE\DOCUMENTS\LIS_PROJECT\TASK1\REGRESSION\REGRESSION\IOMANAGER.CPP|C:\USERS\SIMONE\DOCUMENTS\LIS_PROJECT\TASK1\REGRESSION\REGRESSION\READER.CPP|C:\USERS\SIMONE\DOCUMENTS\LIS_PROJECT\TASK1\REGRESSION\REGRESSION\REGRESSION.CPP
C:\USERS\SIMONE\DOCUMENTS\LIS_PROJECT\TASK1\REGRESSION\REGRESSION\DEBUG\VC140.PDB
C:\USERS\SIMONE\DOCUMENTS\LIS_PROJECT\TASK1\REGRESSION\REGRESSION\DEBUG\VC140.IDB
C:\USERS\SIMONE\DOCUMENTS\LIS_PROJECT\TASK1\REGRESSION\REGRESSION\DEBUG\IOMANAGER.OBJ
C:\USERS\SIMONE\DOCUMENTS\LIS_PROJECT\TASK1\REGRESSION\REGRESSION\DEBUG\READER.OBJ
^C:\USERS\SIMONE\DOCUMENTS\LIS_PROJECT\TASK1\REGRESSION\REGRESSION\IOMANAGER.CPP
C:\USERS\SIMONE\DOCUMENTS\LIS_PROJECT\TASK1\REGRESSION\REGRESSION\DEBUG\VC140.PDB
C:\USERS\SIMONE\DOCUMENTS\LIS_PROJECT\TASK1\REGRESSION\REGRESSION\DEBUG\VC140.IDB
C:\USERS\SIMONE\DOCUMENTS\LIS_PROJECT\TASK1\REGRESSION\REGRESSION\DEBUG\IOMANAGER.OBJ
^C:\USERS\SIMONE\DOCUMENTS\LIS_PROJECT\TASK1\REGRESSION\REGRESSION\IOMANAGER.CPP|C:\USERS\SIMONE\DOCUMENTS\LIS_PROJECT\TASK1\REGRESSION\REGRESSION\REGRESSION.CPP
C:\USERS\SIMONE\DOCUMENTS\LIS_PROJECT\TASK1\REGRESSION\REGRESSION\DEBUG\VC140.PDB
C:\USERS\SIMONE\DOCUMENTS\LIS_PROJECT\TASK1\REGRESSION\REGRESSION\DEBUG\VC140.IDB
C:\USERS\SIMONE\DOCUMENTS\LIS_PROJECT\TASK1\REGRESSION\REGRESSION\DEBUG\REGRESSION.OBJ
