^C:\USERS\SIMONE\DOCUMENTS\LIS_PROJECT\TASK1\REGRESSION\REGRESSION\DEBUG\REGRESSION.OBJ
/OUT:"C:\USERS\SIMONE\DOCUMENTS\LIS_PROJECT\TASK1\REGRESSION\DEBUG\REGRESSION.EXE" /INCREMENTAL /NOLOGO KERNEL32.LIB USER32.LIB GDI32.LIB WINSPOOL.LIB COMDLG32.LIB ADVAPI32.LIB SHELL32.LIB OLE32.LIB OLEAUT32.LIB UUID.LIB ODBC32.LIB ODBCCP32.LIB /MANIFEST /MANIFESTUAC:"level='asInvoker' uiAccess='false'" /manifest:embed /DEBUG /PDB:"C:\USERS\SIMONE\DOCUMENTS\LIS_PROJECT\TASK1\REGRESSION\DEBUG\REGRESSION.PDB" /SUBSYSTEM:CONSOLE /TLBID:1 /DYNAMICBASE /NXCOMPAT /IMPLIB:"C:\USERS\SIMONE\DOCUMENTS\LIS_PROJECT\TASK1\REGRESSION\DEBUG\REGRESSION.LIB" /MACHINE:X86 DEBUG\REGRESSION.OBJ
^C:\USERS\SIMONE\DOCUMENTS\LIS_PROJECT\TASK1\REGRESSION\REGRESSION\DEBUG\IOMANAGER.OBJ|C:\USERS\SIMONE\DOCUMENTS\LIS_PROJECT\TASK1\REGRESSION\REGRESSION\DEBUG\REGRESSION.OBJ
/OUT:"C:\USERS\SIMONE\DOCUMENTS\LIS_PROJECT\TASK1\REGRESSION\DEBUG\REGRESSION.EXE" /INCREMENTAL /NOLOGO KERNEL32.LIB USER32.LIB GDI32.LIB WINSPOOL.LIB COMDLG32.LIB ADVAPI32.LIB SHELL32.LIB OLE32.LIB OLEAUT32.LIB UUID.LIB ODBC32.LIB ODBCCP32.LIB /MANIFEST /MANIFESTUAC:"level='asInvoker' uiAccess='false'" /manifest:embed /DEBUG /PDB:"C:\USERS\SIMONE\DOCUMENTS\LIS_PROJECT\TASK1\REGRESSION\DEBUG\REGRESSION.PDB" /SUBSYSTEM:CONSOLE /TLBID:1 /DYNAMICBASE /NXCOMPAT /IMPLIB:"C:\USERS\SIMONE\DOCUMENTS\LIS_PROJECT\TASK1\REGRESSION\DEBUG\REGRESSION.LIB" /MACHINE:X86 DEBUG\IOMANAGER.OBJDEBUG\REGRESSION.OBJ
