Id,y
900,36.032182
901,9.731785
902,-1.313618
903,-0.725734
904,1.460951
905,-46.931695
906,74.732649
907,-6.586583
908,-10.567477
909,74.221232
910,41.264985
911,-67.081188
912,19.848079
913,-134.270425
914,8.563482
915,26.283818
916,-12.024097
917,-100.246243
918,30.063895
919,-28.558587
920,75.459190
921,31.535064
922,55.178916
923,72.560712
924,-9.820555
925,-0.967663
926,-18.041706
927,-0.438536
928,-12.568845
929,-25.759143
930,-18.010584
931,15.314415
932,42.231224
933,-77.006831
934,-26.516883
935,3.510516
936,-16.607903
937,34.346499
938,-62.448933
939,-12.349365
940,45.628790
941,-51.468465
942,-37.805182
943,40.338076
944,43.277007
945,-21.962894
946,44.191512
947,3.166344
948,-24.238830
949,31.380938
950,35.236542
951,9.176941
952,-2.965516
953,1.162119
954,27.556327
955,-27.401339
956,40.905679
957,-23.806652
958,-9.422773
959,-0.207506
960,-38.068508
961,-23.177033
962,25.164777
963,-37.892322
964,-38.871979
965,13.143337
966,-33.045576
967,-18.056293
968,-46.129077
969,-3.990657
970,-78.887777
971,7.438662
972,-22.994502
973,4.173634
974,49.186057
975,-77.829361
976,-44.918836
977,-21.341158
978,42.355972
979,-6.825677
980,50.084864
981,-53.720843
982,-72.747532
983,55.402365
984,3.741638
985,-32.235369
986,7.787702
987,-79.630481
988,57.016800
989,59.651139
990,-15.633965
991,-3.954405
992,-48.762260
993,2.697101
994,-18.400194
995,-43.656765
996,12.981167
997,-1.517400
998,-0.480244
999,-27.538062
1000,0.515135
1001,55.230250
1002,-57.669778
1003,-2.258241
1004,-47.285046
1005,29.648320
1006,31.510653
1007,-4.449957
1008,-80.721346
1009,-24.205381
1010,52.021432
1011,-36.351906
1012,0.617738
1013,-38.060895
1014,-46.285137
1015,79.443713
1016,-7.509850
1017,-81.319957
1018,11.565289
1019,0.017484
1020,-86.150464
1021,16.909913
1022,-20.631911
1023,25.946997
1024,-45.476035
1025,-30.443675
1026,-18.783745
1027,-4.965604
1028,58.430731
1029,7.132064
1030,-48.975831
1031,45.922741
1032,20.919997
1033,-52.488000
1034,-56.940795
1035,73.911804
1036,-16.256978
1037,35.955468
1038,-0.911778
1039,-20.442872
1040,-47.397467
1041,59.234842
1042,-16.225966
1043,-0.950065
1044,-11.638975
1045,21.909715
1046,19.410770
1047,-14.994389
1048,-26.590390
1049,-65.080610
1050,-25.956250
1051,-26.665625
1052,-28.380899
1053,17.312390
1054,-5.201961
1055,-12.693336
1056,-88.046669
1057,-19.820279
1058,-70.007829
1059,43.974770
1060,-14.038546
1061,-57.547157
1062,9.673315
1063,22.285369
1064,-25.742030
1065,-30.313598
1066,14.773684
1067,-20.958102
1068,77.562985
1069,27.282273
1070,-6.179888
1071,31.719103
1072,-14.274477
1073,99.476965
1074,-16.801423
1075,-29.391830
1076,-21.109734
1077,37.901907
1078,-47.036043
1079,-22.930263
1080,-34.382275
1081,28.611448
1082,-67.464567
1083,-13.613930
1084,37.539716
1085,45.691287
1086,39.836243
1087,-1.560596
1088,13.357767
1089,40.301718
1090,-97.642935
1091,4.078702
1092,-73.942369
1093,-87.507715
1094,-64.811085
1095,69.064245
1096,-29.449754
1097,-95.377394
1098,29.420775
1099,40.210814
1100,93.341216
1101,28.339752
1102,-11.029575
1103,-15.621824
1104,-8.163944
1105,11.871300
1106,-10.923906
1107,25.334126
1108,15.461185
1109,10.783088
1110,-31.076673
1111,-18.115199
1112,-14.650613
1113,-80.157236
1114,38.030075
1115,-50.171270
1116,-7.157314
1117,-35.638960
1118,-77.166290
1119,7.957913
1120,-26.051421
1121,32.249818
1122,3.209558
1123,-96.725253
1124,13.408647
1125,78.328879
1126,-20.811729
1127,53.039425
1128,-7.651153
1129,-9.394395
1130,-53.004200
1131,15.102821
1132,32.372553
1133,-53.269840
1134,-30.916289
1135,-12.889084
1136,-2.485696
1137,67.124531
1138,32.650187
1139,-30.324347
1140,56.851665
1141,10.293706
1142,-29.163432
1143,77.694823
1144,62.499079
1145,-34.820674
1146,-67.426143
1147,-19.127893
1148,98.635624
1149,60.006348
1150,-3.694250
1151,1.915156
1152,-3.795082
1153,25.729959
1154,14.455644
1155,14.491448
1156,22.254803
1157,7.027807
1158,-9.005160
1159,3.243819
1160,-58.877343
1161,-70.925895
1162,-22.740654
1163,-9.650046
1164,63.221026
1165,38.940976
1166,63.674147
1167,67.129296
1168,3.806490
1169,-92.813324
1170,24.861075
1171,-21.140247
1172,23.860498
1173,53.543221
1174,-100.719480
1175,-46.599784
1176,-17.432110
1177,-29.067621
1178,106.707635
1179,98.000844
1180,-94.357732
1181,24.719436
1182,-35.780144
1183,49.208182
1184,33.529204
1185,74.223260
1186,25.531266
1187,-17.092636
1188,37.465346
1189,-15.150661
1190,61.963855
1191,-9.006171
1192,30.204282
1193,22.621117
1194,-44.533442
1195,75.879572
1196,50.119393
1197,8.620843
1198,42.102658
1199,45.159211
1200,1.149801
1201,28.579148
1202,20.865360
1203,51.873381
1204,-9.500580
1205,33.916619
1206,1.757241
1207,44.078351
1208,-47.153498
1209,68.613822
1210,-110.694965
1211,-53.255780
1212,0.627124
1213,10.772968
1214,-15.620002
1215,57.603191
1216,23.434331
1217,136.916363
1218,-8.116794
1219,-14.811984
1220,20.613943
1221,6.142461
1222,52.067761
1223,-32.462253
1224,-38.724320
1225,18.391304
1226,31.390777
1227,-44.137194
1228,-21.688778
1229,59.283086
1230,1.996659
1231,-25.649653
1232,-31.089819
1233,-16.788870
1234,39.968285
1235,-79.519830
1236,-16.449217
1237,-26.746458
1238,-30.976961
1239,131.635462
1240,33.872647
1241,-53.871849
1242,-15.675608
1243,-48.181816
1244,2.409436
1245,32.849423
1246,-16.092429
1247,8.413161
1248,6.427929
1249,48.385344
1250,35.130502
1251,-78.248171
1252,-33.575444
1253,5.935592
1254,10.411221
1255,32.819823
1256,-38.250589
1257,48.214502
1258,5.340073
1259,22.721384
1260,-6.181324
1261,-24.593084
1262,-55.111372
1263,-50.260089
1264,-10.093881
1265,-33.136418
1266,-59.955424
1267,-56.161334
1268,3.845743
1269,2.041248
1270,24.378536
1271,42.131203
1272,35.339001
1273,-17.779058
1274,12.515301
1275,46.577761
1276,19.057072
1277,-46.455590
1278,8.075475
1279,-89.861934
1280,-51.568057
1281,108.816964
1282,-75.441386
1283,94.516218
1284,11.798760
1285,-7.880801
1286,-23.634598
1287,-0.543869
1288,-14.355496
1289,-56.614467
1290,26.984869
1291,53.528558
1292,12.129642
1293,-3.921568
1294,14.010862
1295,0.586772
1296,-43.411334
1297,1.703718
1298,2.760846
1299,63.679850
1300,11.406078
1301,24.277799
1302,37.701740
1303,-35.270566
1304,-15.639362
1305,-44.665466
1306,-38.518055
1307,3.232156
1308,17.439269
1309,-18.038018
1310,71.647240
1311,-56.992147
1312,64.952088
1313,-10.496506
1314,96.365084
1315,-37.687662
1316,-6.346029
1317,33.992434
1318,-9.561689
1319,-47.664525
1320,-40.506870
1321,59.997439
1322,-74.146863
1323,-48.229601
1324,83.468744
1325,-58.508569
1326,-7.006333
1327,6.602750
1328,61.912192
1329,-56.771775
1330,-29.241103
1331,17.409060
1332,9.173139
1333,-54.617251
1334,-23.912121
1335,17.599554
1336,-40.058912
1337,-32.202819
1338,-87.337770
1339,37.512304
1340,-46.925476
1341,-143.980354
1342,-10.225095
1343,104.031234
1344,-62.997120
1345,-25.633005
1346,-4.610597
1347,64.906062
1348,91.839933
1349,65.135467
1350,-114.198064
1351,6.362188
1352,18.314284
1353,9.409399
1354,-18.926484
1355,-19.092478
1356,68.837847
1357,78.688127
1358,-8.070168
1359,-24.479194
1360,-28.884048
1361,53.982622
1362,-13.775422
1363,65.034302
1364,-114.844671
1365,-98.433846
1366,-47.054645
1367,-101.025095
1368,25.739282
1369,-10.283413
1370,-19.136058
1371,91.428641
1372,21.424563
1373,-28.952377
1374,23.549961
1375,-84.853537
1376,-7.820337
1377,-101.847283
1378,-19.627884
1379,-0.092232
1380,-6.777911
1381,60.686720
1382,25.507074
1383,-0.918197
1384,86.440968
1385,-34.305838
1386,-67.540070
1387,-51.831498
1388,9.071341
1389,17.459506
1390,10.228254
1391,0.524669
1392,35.565561
1393,22.923894
1394,29.053291
1395,-29.663767
1396,74.963112
1397,78.352679
1398,10.601322
1399,-30.064138
1400,-12.365237
1401,-23.954523
1402,-60.029871
1403,3.575124
1404,14.595733
1405,57.183510
1406,16.092090
1407,-2.117764
1408,-0.032297
1409,12.348128
1410,48.247405
1411,-42.915925
1412,-54.215176
1413,33.426900
1414,55.558800
1415,1.570385
1416,7.803139
1417,-121.819131
1418,-66.279282
1419,12.199341
1420,17.614587
1421,-61.257943
1422,32.655139
1423,-101.802763
1424,-55.875439
1425,78.561296
1426,4.683990
1427,35.146398
1428,-31.725924
1429,-29.360628
1430,48.434948
1431,2.444923
1432,-69.494036
1433,0.405820
1434,56.467993
1435,-18.852840
1436,17.667149
1437,48.985198
1438,-27.022162
1439,-61.764712
1440,15.071153
1441,-6.060049
1442,-77.478102
1443,-24.009879
1444,-51.901707
1445,48.750406
1446,-72.848872
1447,-44.732088
1448,24.473105
1449,-3.216763
1450,37.256844
1451,12.920475
1452,-34.738644
1453,-4.902512
1454,-49.547841
1455,-12.886441
1456,14.615757
1457,32.136415
1458,24.632988
1459,30.673062
1460,30.426713
1461,-27.761981
1462,-41.905397
1463,-38.940596
1464,2.661818
1465,37.097411
1466,-16.379810
1467,19.708417
1468,-101.488073
1469,0.582538
1470,41.592277
1471,-25.341089
1472,-43.238236
1473,-27.436507
1474,-48.834619
1475,-32.082019
1476,93.148147
1477,-16.121723
1478,-26.378914
1479,17.459143
1480,-122.343593
1481,-10.678016
1482,-37.664656
1483,-8.456875
1484,-2.749483
1485,-9.899038
1486,-52.879244
1487,-38.229684
1488,-2.536402
1489,-6.228925
1490,11.603107
1491,8.817844
1492,-18.707917
1493,-11.050921
1494,-7.557114
1495,11.613103
1496,-10.841115
1497,-41.633490
1498,56.327658
1499,-27.079521
1500,-14.538956
1501,-93.313512
1502,29.879910
1503,51.574500
1504,-57.271307
1505,46.446478
1506,20.688437
1507,-16.349073
1508,37.555194
1509,-47.801750
1510,-34.759606
1511,63.655151
1512,1.975041
1513,-7.285550
1514,49.964731
1515,0.710445
1516,14.383589
1517,11.006670
1518,-56.112536
1519,7.385841
1520,-36.718125
1521,40.641677
1522,-38.520387
1523,-17.447895
1524,26.193601
1525,48.313342
1526,29.555581
1527,63.324793
1528,21.402505
1529,1.914335
1530,-89.763401
1531,55.967192
1532,-10.396912
1533,33.537159
1534,-10.697671
1535,-25.617248
1536,-34.086714
1537,17.894332
1538,21.445394
1539,-15.215618
1540,26.623341
1541,-21.085077
1542,-30.813937
1543,72.509572
1544,8.917063
1545,0.914678
1546,8.697877
1547,36.777114
1548,90.362639
1549,39.044302
1550,11.355433
1551,0.673028
1552,12.086285
1553,-26.444292
1554,-33.230071
1555,-37.741688
1556,28.123940
1557,-7.692160
1558,-10.451862
1559,62.082975
1560,11.560160
1561,-8.246365
1562,51.272135
1563,-51.899773
1564,-20.286831
1565,86.796682
1566,7.906698
1567,-51.844411
1568,21.945680
1569,11.662433
1570,-96.754856
1571,-24.716394
1572,-80.045277
1573,-21.715836
1574,-25.699405
1575,4.243263
1576,25.723045
1577,18.407550
1578,34.774605
1579,-35.448113
1580,-16.994474
1581,7.677751
1582,25.379214
1583,-26.252492
1584,-17.114587
1585,-48.357009
1586,48.157052
1587,65.098323
1588,-16.723542
1589,36.510419
1590,-46.726224
1591,9.894243
1592,19.029647
1593,-39.099023
1594,-1.076848
1595,-47.822251
1596,-0.104174
1597,56.389616
1598,15.065927
1599,19.279231
1600,1.984823
1601,-100.418101
1602,26.010706
1603,-11.577554
1604,73.586130
1605,-9.466514
1606,-33.356931
1607,-27.491251
1608,17.180437
1609,-88.263002
1610,2.891663
1611,19.284025
1612,11.214095
1613,-65.238603
1614,73.454011
1615,-101.430531
1616,10.487425
1617,-3.768360
1618,-107.276480
1619,35.354862
1620,-46.139240
1621,22.228877
1622,-0.080730
1623,-4.548762
1624,29.804109
1625,1.506759
1626,-65.890195
1627,-24.865492
1628,-40.289515
1629,59.723155
1630,-51.340014
1631,37.721475
1632,-55.219131
1633,-8.903570
1634,-7.604227
1635,79.398401
1636,71.385904
1637,50.570593
1638,-62.441396
1639,41.743000
1640,54.616012
1641,57.621885
1642,4.472831
1643,-23.421764
1644,-23.987598
1645,4.749124
1646,-33.514978
1647,39.021811
1648,23.613827
1649,38.655478
1650,-37.704841
1651,57.899815
1652,49.383933
1653,35.018692
1654,26.830167
1655,4.034174
1656,-11.679365
1657,-3.563422
1658,9.833103
1659,-7.572451
1660,-15.778260
1661,24.477153
1662,-39.777287
1663,0.219515
1664,64.159113
1665,-10.419306
1666,-62.827963
1667,-49.165873
1668,-0.524968
1669,18.477562
1670,-11.641527
1671,46.708377
1672,-13.458529
1673,11.912494
1674,6.906509
1675,-69.415919
1676,-9.377562
1677,52.141617
1678,-89.270771
1679,56.492210
1680,6.625282
1681,20.943737
1682,-19.296996
1683,18.287145
1684,105.371814
1685,-67.312946
1686,38.740626
1687,81.137803
1688,61.827684
1689,11.396008
1690,-54.280187
1691,-64.727590
1692,36.892021
1693,37.145584
1694,25.458363
1695,-28.833618
1696,-54.221064
1697,114.424326
1698,30.504604
1699,25.253545
1700,-40.388496
1701,30.150694
1702,29.542147
1703,-44.864622
1704,36.050811
1705,-57.683864
1706,-35.863413
1707,-71.957660
1708,-43.859073
1709,-65.932363
1710,39.498839
1711,24.103822
1712,-14.434222
1713,30.279896
1714,-21.908569
1715,13.449838
1716,-10.973439
1717,81.692851
1718,-55.889083
1719,-48.189285
1720,16.288301
1721,12.534525
1722,29.413952
1723,9.673037
1724,-80.023422
1725,-22.423724
1726,17.024826
1727,71.562617
1728,22.031795
1729,-40.474067
1730,44.266901
1731,43.466979
1732,23.356673
1733,-29.999501
1734,-1.288783
1735,-0.633708
1736,-78.491192
1737,-39.210064
1738,5.150210
1739,28.833674
1740,82.292311
1741,-51.664308
1742,-34.884141
1743,-2.063330
1744,14.660502
1745,-20.854413
1746,-79.649620
1747,-89.705632
1748,-9.619432
1749,-101.132574
1750,15.576074
1751,47.531784
1752,-51.057922
1753,-35.235456
1754,17.166372
1755,71.151140
1756,-94.699391
1757,39.880765
1758,-63.681740
1759,-43.674778
1760,7.233954
1761,-44.992753
1762,-28.175695
1763,-55.070122
1764,53.425106
1765,64.532993
1766,45.153886
1767,-6.443693
1768,0.371956
1769,-50.392831
1770,35.045979
1771,-47.015907
1772,25.387509
1773,-116.155843
1774,12.759138
1775,-59.168806
1776,16.565257
1777,-36.553549
1778,-13.152501
1779,-91.310137
1780,17.688283
1781,41.291010
1782,0.112697
1783,4.662354
1784,1.982747
1785,-115.989923
1786,48.655442
1787,-2.080349
1788,46.277086
1789,-38.582614
1790,19.900829
1791,-5.168005
1792,-61.252955
1793,-83.806666
1794,6.652944
1795,42.076112
1796,-6.391302
1797,8.969067
1798,2.057912
1799,61.276213
1800,-52.578835
1801,78.809197
1802,-5.105223
1803,-86.177810
1804,-46.035977
1805,-10.117234
1806,48.495425
1807,-9.929704
1808,50.223680
1809,-38.431896
1810,64.611923
1811,-9.331555
1812,-12.942997
1813,-80.777889
1814,4.733882
1815,-71.304038
1816,-7.295008
1817,-13.390273
1818,8.689686
1819,-4.876154
1820,-0.559195
1821,-26.488995
1822,-64.439929
1823,-24.877362
1824,-40.478747
1825,35.645717
1826,134.029836
1827,-11.392700
1828,27.157069
1829,26.957586
1830,-114.258892
1831,-82.394665
1832,1.229336
1833,38.407105
1834,-35.626351
1835,-36.474312
1836,18.228212
1837,-19.998004
1838,20.904137
1839,-8.867578
1840,18.338510
1841,-1.478536
1842,24.303791
1843,-5.026946
1844,-80.458530
1845,35.632540
1846,-11.801753
1847,60.299480
1848,-1.084209
1849,28.314626
1850,-15.440963
1851,44.547481
1852,80.512673
1853,-45.745005
1854,8.108668
1855,58.358085
1856,-7.723787
1857,-36.802866
1858,-126.605857
1859,-28.034201
1860,32.348767
1861,-127.051483
1862,-59.964046
1863,-4.759046
1864,-24.699682
1865,63.893730
1866,-75.896033
1867,-16.923223
1868,-34.912762
1869,78.395515
1870,26.002792
1871,41.185209
1872,-32.415009
1873,-25.170740
1874,10.566345
1875,-33.334677
1876,-1.466740
1877,-21.254041
1878,-25.103736
1879,51.771086
1880,30.867988
1881,-75.679846
1882,-17.171534
1883,-90.646379
1884,-63.556820
1885,14.970040
1886,62.754843
1887,25.425775
1888,29.227598
1889,-20.206317
1890,35.207147
1891,-4.410231
1892,34.126950
1893,62.594496
1894,-66.189836
1895,92.144839
1896,65.661742
1897,-86.072947
1898,-46.640829
1899,28.813847
1900,-8.482808
1901,25.963692
1902,-52.262623
1903,-26.944811
1904,41.590315
1905,-5.514422
1906,-49.294123
1907,-15.535688
1908,26.025702
1909,-82.462320
1910,-21.449686
1911,2.076905
1912,-18.541098
1913,18.785609
1914,-45.336755
1915,-16.012935
1916,-3.010464
1917,-25.887225
1918,19.768105
1919,-38.477021
1920,34.051312
1921,17.225265
1922,25.818413
1923,-68.559154
1924,-30.821136
1925,47.847537
1926,31.903720
1927,41.888973
1928,-61.483078
1929,35.594379
1930,63.441414
1931,-22.345965
1932,-46.813193
1933,-3.802554
1934,10.585582
1935,-37.866191
1936,-53.793750
1937,36.747550
1938,-61.232229
1939,32.923985
1940,5.655044
1941,55.406716
1942,-54.076455
1943,-45.277584
1944,17.091896
1945,16.102809
1946,-22.821101
1947,-58.819353
1948,-0.567420
1949,77.835068
1950,43.268097
1951,0.537309
1952,-65.627745
1953,6.811277
1954,-20.761388
1955,-15.883827
1956,-75.345192
1957,-13.760659
1958,28.790305
1959,-15.652917
1960,-80.906560
1961,-67.824979
1962,61.542879
1963,-66.400498
1964,24.451078
1965,40.489885
1966,-56.718922
1967,25.350723
1968,-44.478592
1969,-55.022862
1970,93.334412
1971,39.623809
1972,-39.247981
1973,12.832027
1974,-109.199856
1975,6.491339
1976,15.616874
1977,44.368704
1978,1.839557
1979,-55.188669
1980,65.214033
1981,11.403774
1982,-8.409201
1983,65.271988
1984,46.836340
1985,-31.266208
1986,93.474401
1987,-61.316309
1988,-20.998942
1989,-5.438579
1990,-68.557862
1991,28.218507
1992,22.597511
1993,-21.607817
1994,-93.117870
1995,36.574003
1996,-22.647077
1997,-48.399856
1998,-82.277455
1999,13.687080
2000,-61.425188
2001,82.711487
2002,-1.088049
2003,-40.241398
2004,-12.195186
2005,40.574881
2006,-23.623724
2007,13.841991
2008,-49.091055
2009,-49.930963
2010,-10.815427
2011,58.697321
2012,3.295158
2013,-77.669209
2014,-30.248768
2015,22.126519
2016,-52.306301
2017,16.895608
2018,-4.177356
2019,-48.946978
2020,-30.418004
2021,-37.995947
2022,-32.502944
2023,0.948518
2024,60.476616
2025,57.383219
2026,9.484890
2027,8.076436
2028,-93.010479
2029,-35.163570
2030,9.576171
2031,34.262055
2032,4.932058
2033,-57.074611
2034,84.439744
2035,34.647625
2036,15.121806
2037,-31.275627
2038,-9.419019
2039,-38.049662
2040,-43.694445
2041,23.280361
2042,-5.979737
2043,20.079114
2044,-25.322828
2045,43.443666
2046,-7.533446
2047,42.011416
2048,35.008182
2049,-148.926966
2050,-63.430030
2051,-0.899184
2052,-62.627500
2053,13.998078
2054,3.814191
2055,36.216867
2056,-6.180489
2057,-11.922174
2058,-5.153000
2059,3.683303
2060,17.827891
2061,-62.846287
2062,9.237479
2063,52.744678
2064,-18.008390
2065,-9.838247
2066,56.092055
2067,-66.763778
2068,60.009733
2069,-55.454256
2070,11.097569
2071,28.381700
2072,-30.187920
2073,68.525406
2074,39.272112
2075,9.992772
2076,48.802257
2077,-7.668533
2078,-2.004500
2079,68.659746
2080,-45.637017
2081,-56.887124
2082,131.922376
2083,70.023148
2084,-103.405021
2085,-0.956676
2086,25.383206
2087,-64.375710
2088,-71.291676
2089,-19.052333
2090,-14.813178
2091,46.639625
2092,-48.738869
2093,-28.646849
2094,-18.486049
2095,-8.303792
2096,-9.565215
2097,25.913487
2098,-32.071174
2099,-12.031739
2100,11.242766
2101,-69.955432
2102,-37.665897
2103,32.628513
2104,-45.583294
2105,-50.703276
2106,-15.414063
2107,-35.468552
2108,0.745833
2109,-23.519225
2110,-67.619773
2111,-21.303396
2112,11.443179
2113,-7.569623
2114,-22.835483
2115,81.119359
2116,-37.583744
2117,-81.215267
2118,66.267431
2119,-83.804233
2120,-49.721763
2121,-49.337251
2122,10.171914
2123,-54.915105
2124,-64.459061
2125,6.603042
2126,-18.728627
2127,-6.856973
2128,-36.371176
2129,-109.807235
2130,4.229266
2131,68.763382
2132,11.744846
2133,39.690494
2134,40.179843
2135,-68.819499
2136,-3.173485
2137,18.542989
2138,2.117893
2139,61.147919
2140,1.994885
2141,-61.259937
2142,28.155285
2143,-4.530032
2144,8.998859
2145,-50.113975
2146,-47.763155
2147,3.746013
2148,50.386039
2149,-87.859591
2150,-5.551582
2151,-70.093682
2152,-6.013439
2153,41.417072
2154,83.237886
2155,49.261217
2156,-22.362045
2157,44.881533
2158,20.179722
2159,-48.044377
2160,25.099605
2161,46.440441
2162,-88.464244
2163,58.006010
2164,-66.363064
2165,20.495306
2166,-39.757828
2167,61.179388
2168,-69.414316
2169,11.760477
2170,39.790266
2171,-31.660473
2172,23.370635
2173,35.082133
2174,-78.118505
2175,-11.196486
2176,61.344186
2177,-60.512519
2178,-11.093107
2179,30.728399
2180,68.080829
2181,-21.797476
2182,1.173214
2183,24.465085
2184,-24.689792
2185,-3.498543
2186,63.899879
2187,53.828294
2188,40.823932
2189,0.082946
2190,-10.971000
2191,-81.978462
2192,-32.602979
2193,-6.686474
2194,-55.258304
2195,-12.415426
2196,-79.482241
2197,-76.332644
2198,-42.934329
2199,-5.804785
2200,44.115464
2201,0.022275
2202,4.448927
2203,34.206701
2204,14.025075
2205,-12.154686
2206,-86.846731
2207,32.631525
2208,-26.309813
2209,33.390857
2210,63.006988
2211,10.818941
2212,0.006793
2213,-1.229149
2214,29.853233
2215,18.038560
2216,-8.786116
2217,3.598746
2218,0.157430
2219,11.151033
2220,-4.156875
2221,-2.729196
2222,-24.760421
2223,-33.367504
2224,12.335176
2225,-39.157338
2226,-71.218887
2227,54.930409
2228,-51.661851
2229,-36.567829
2230,28.182228
2231,18.663822
2232,-5.297312
2233,6.905261
2234,-69.420745
2235,-46.492870
2236,25.073783
2237,-51.402553
2238,-32.335320
2239,-9.971797
2240,16.997611
2241,17.345033
2242,-45.548135
2243,-12.772830
2244,-5.183660
2245,-14.544405
2246,-50.394245
2247,-20.208925
2248,4.214925
2249,-12.515721
2250,-1.666676
2251,101.090831
2252,-48.800645
2253,-103.467053
2254,32.756879
2255,83.804235
2256,-9.024405
2257,-27.731711
2258,-48.129317
2259,-78.150402
2260,51.003900
2261,-77.542514
2262,23.882749
2263,48.760639
2264,8.115947
2265,3.748955
2266,2.415939
2267,26.566944
2268,-76.321224
2269,-4.620169
2270,-27.962446
2271,-77.312327
2272,-81.548010
2273,-41.087946
2274,-17.866478
2275,-43.784219
2276,-7.983339
2277,9.879470
2278,14.036249
2279,-42.541430
2280,-122.654088
2281,-1.868525
2282,-39.399049
2283,-49.609536
2284,-2.206610
2285,-50.417966
2286,33.171882
2287,35.577401
2288,-36.923349
2289,-29.212798
2290,3.557646
2291,43.424919
2292,9.368584
2293,16.778010
2294,-69.327570
2295,-36.226277
2296,-86.319187
2297,-48.654873
2298,-98.890748
2299,-27.808439
2300,-10.911109
2301,22.674993
2302,-64.170006
2303,-0.580335
2304,-54.871385
2305,75.447571
2306,2.373456
2307,-80.182018
2308,-71.593290
2309,4.527630
2310,50.349953
2311,56.549602
2312,-19.383707
2313,22.463910
2314,-47.506900
2315,-77.940608
2316,-2.099343
2317,-101.873835
2318,56.016824
2319,-16.631764
2320,-58.926248
2321,93.239069
2322,44.337448
2323,-11.615633
2324,90.204824
2325,-42.517647
2326,3.401671
2327,51.382046
2328,-41.437464
2329,-49.163337
2330,23.024329
2331,22.467067
2332,-55.376372
2333,-86.904975
2334,-62.946363
2335,-5.308913
2336,-2.369050
2337,-25.382350
2338,41.689307
2339,-48.486198
2340,73.577699
2341,45.539396
2342,-37.079284
2343,-22.093738
2344,-77.463361
2345,0.187863
2346,-0.011920
2347,-1.706730
2348,-10.225933
2349,15.995623
2350,-4.546912
2351,-16.246369
2352,-18.550814
2353,-51.381933
2354,-75.297586
2355,-52.728849
2356,29.642816
2357,-7.064860
2358,-9.078099
2359,-29.360934
2360,27.840198
2361,55.994321
2362,-27.968199
2363,-69.849000
2364,-3.878672
2365,-55.193137
2366,75.242186
2367,-1.413149
2368,-1.829587
2369,-2.009119
2370,45.366935
2371,-21.489772
2372,82.300349
2373,58.651136
2374,-3.067498
2375,25.303838
2376,-8.126037
2377,-4.546010
2378,7.147510
2379,-76.489370
2380,-67.580762
2381,-21.901987
2382,-11.642137
2383,66.089191
2384,9.657423
2385,3.959956
2386,-0.163215
2387,-51.763022
2388,-54.888145
2389,-31.125811
2390,-65.432670
2391,10.971663
2392,74.797372
2393,9.910342
2394,-30.881620
2395,13.025589
2396,-20.414741
2397,-50.427615
2398,-23.991345
2399,1.700074
2400,64.473122
2401,-11.638534
2402,-8.714517
2403,73.904657
2404,91.120667
2405,9.066650
2406,-2.961791
2407,70.069787
2408,-9.998088
2409,4.894749
2410,-5.355442
2411,-92.897438
2412,-12.625046
2413,86.477836
2414,37.754312
2415,-43.182132
2416,45.975209
2417,-58.149260
2418,6.677448
2419,-14.671588
2420,-59.001617
2421,-67.092796
2422,22.505318
2423,-47.491116
2424,52.606039
2425,-62.545723
2426,-53.065250
2427,-43.523117
2428,-18.867034
2429,-95.686731
2430,-92.655636
2431,-6.746421
2432,68.601264
2433,93.245970
2434,-16.303329
2435,1.637989
2436,-6.464381
2437,-8.252202
2438,-22.494984
2439,-11.077426
2440,78.631245
2441,-6.172203
2442,7.543800
2443,-51.190766
2444,-75.251732
2445,80.806847
2446,-40.770679
2447,-63.069114
2448,-80.000979
2449,0.336387
2450,-44.855534
2451,-8.649118
2452,22.848327
2453,63.481222
2454,40.345574
2455,-8.801311
2456,10.817150
2457,-14.802918
2458,32.219596
2459,24.040363
2460,65.867034
2461,0.046985
2462,-21.775245
2463,-4.074184
2464,24.303530
2465,19.699442
2466,119.976512
2467,53.676885
2468,-5.332422
2469,-23.386315
2470,-42.832499
2471,16.785785
2472,92.544814
2473,2.515236
2474,-28.862590
2475,34.047440
2476,-66.614190
2477,-6.581305
2478,-66.598057
2479,-91.904048
2480,64.002514
2481,-6.079500
2482,16.409687
2483,-20.137873
2484,39.044493
2485,87.412036
2486,-102.452394
2487,-22.245229
2488,36.030125
2489,33.999825
2490,-26.608359
2491,-20.042955
2492,20.880988
2493,-1.306482
2494,30.775407
2495,10.269000
2496,6.502278
2497,2.884512
2498,-75.083739
2499,-30.971965
2500,104.556658
2501,76.060450
2502,10.459548
2503,107.328216
2504,56.043387
2505,93.743501
2506,-8.535092
2507,44.326054
2508,77.382259
2509,-47.519237
2510,31.484827
2511,-16.802114
2512,11.880977
2513,-77.919741
2514,53.883571
2515,-58.494177
2516,-49.898169
2517,-8.839387
2518,97.490607
2519,11.388806
2520,44.272916
2521,43.329435
2522,-41.897764
2523,-17.080483
2524,-43.630274
2525,56.379311
2526,11.252691
2527,-48.862625
2528,107.506512
2529,-40.843997
2530,27.402771
2531,60.323700
2532,-15.651771
2533,-19.628540
2534,36.177980
2535,71.295861
2536,7.042771
2537,42.901313
2538,-30.364175
2539,48.311975
2540,-24.055712
2541,-59.134460
2542,6.750912
2543,74.086711
2544,27.671459
2545,25.998919
2546,-18.220266
2547,-31.712758
2548,27.478016
2549,-29.845000
2550,-24.838638
2551,41.276403
2552,9.522500
2553,11.862534
2554,70.198717
2555,-51.848806
2556,32.440079
2557,-56.158623
2558,71.738844
2559,68.566526
2560,-78.791399
2561,-1.925948
2562,34.966574
2563,11.208714
2564,-12.992253
2565,28.776440
2566,-32.573590
2567,-56.045804
2568,-5.793245
2569,78.623043
2570,92.859759
2571,-17.105514
2572,-19.881005
2573,-33.971402
2574,-36.187974
2575,-46.157323
2576,-37.724729
2577,2.121983
2578,-29.009023
2579,-35.782729
2580,44.562328
2581,13.544694
2582,5.349737
2583,-79.165248
2584,-19.879758
2585,-48.074510
2586,60.916441
2587,100.769796
2588,-15.968598
2589,6.017485
2590,-9.732333
2591,55.186468
2592,-22.717283
2593,-62.406847
2594,-26.503553
2595,-57.122798
2596,-65.571858
2597,-106.900144
2598,-35.765171
2599,-23.296487
2600,65.769733
2601,49.257135
2602,-27.697145
2603,0.132933
2604,18.346424
2605,91.263480
2606,-23.729350
2607,-11.023163
2608,17.262216
2609,-36.629552
2610,-44.495479
2611,-53.324792
2612,54.390831
2613,47.593153
2614,54.447651
2615,19.751133
2616,61.984054
2617,-14.583633
2618,-15.814759
2619,-102.450909
2620,-1.938476
2621,-83.623942
2622,-39.529731
2623,-55.660357
2624,63.877726
2625,-17.174475
2626,45.405592
2627,79.836021
2628,-41.377979
2629,-47.472062
2630,-41.058132
2631,39.893495
2632,-55.488916
2633,-32.347013
2634,35.044961
2635,4.065831
2636,-17.246818
2637,36.947555
2638,-34.833532
2639,91.448633
2640,-97.686077
2641,34.961422
2642,-83.637055
2643,-38.209469
2644,79.492163
2645,3.973010
2646,57.460765
2647,-23.925309
2648,63.164479
2649,60.592183
2650,24.252849
2651,11.236835
2652,-22.255521
2653,-18.554958
2654,66.350027
2655,12.075042
2656,-3.332740
2657,43.738539
2658,-20.320640
2659,108.113194
2660,-15.011465
2661,50.262043
2662,7.096390
2663,4.663983
2664,14.750507
2665,21.718434
2666,-23.617471
2667,-35.541580
2668,23.095703
2669,11.091640
2670,64.117389
2671,3.326163
2672,-71.161697
2673,30.608735
2674,-6.675921
2675,88.731108
2676,23.816376
2677,47.970561
2678,21.662898
2679,-26.192526
2680,4.808704
2681,1.907418
2682,-1.092668
2683,22.983672
2684,21.591523
2685,-4.725470
2686,98.895966
2687,-16.783121
2688,-65.054301
2689,-4.529183
2690,17.445708
2691,27.092034
2692,70.347499
2693,-53.820011
2694,-5.357994
2695,33.429774
2696,57.554003
2697,32.238836
2698,-43.087011
2699,73.869485
2700,29.726180
2701,72.079691
2702,-70.758076
2703,-11.542795
2704,-11.386360
2705,-21.741156
2706,-21.046030
2707,-6.450935
2708,-99.193944
2709,-3.593080
2710,25.532593
2711,38.741887
2712,6.567715
2713,99.111720
2714,10.323484
2715,18.219789
2716,-5.527382
2717,-23.826063
2718,25.480022
2719,7.214865
2720,57.696745
2721,1.767338
2722,23.544539
2723,-23.847674
2724,-42.889546
2725,10.648120
2726,-16.732541
2727,-61.490194
2728,-57.605742
2729,17.885735
2730,128.748124
2731,-30.232573
2732,13.331220
2733,20.664874
2734,33.617434
2735,29.653923
2736,61.955178
2737,-67.412042
2738,-23.764967
2739,-41.376436
2740,-16.654289
2741,-5.530180
2742,-21.618772
2743,-42.327043
2744,-10.289595
2745,20.549325
2746,-23.487241
2747,-17.653915
2748,18.346060
2749,20.041178
2750,-58.718697
2751,24.034001
2752,-10.629300
2753,14.361333
2754,-9.339690
2755,22.169623
2756,-41.723774
2757,-0.257566
2758,74.343651
2759,16.343708
2760,15.623180
2761,-4.494615
2762,-28.228028
2763,-5.452842
2764,-11.804376
2765,-17.547547
2766,86.169388
2767,-38.260857
2768,-31.661199
2769,-0.007646
2770,53.395496
2771,-30.276080
2772,-8.508602
2773,-10.740508
2774,-17.225943
2775,23.870802
2776,6.225120
2777,26.897805
2778,-76.318713
2779,-117.281025
2780,-27.799812
2781,-10.186227
2782,39.462422
2783,34.190189
2784,-79.962124
2785,-39.133731
2786,8.872301
2787,42.375115
2788,-82.138425
2789,22.873608
2790,16.328417
2791,44.935875
2792,-49.302058
2793,-35.064973
2794,13.368741
2795,0.386927
2796,-48.828893
2797,74.769134
2798,54.639849
2799,50.879423
2800,-13.343307
2801,-152.390028
2802,50.867805
2803,29.767784
2804,31.838491
2805,-43.733373
2806,8.891778
2807,7.033174
2808,-25.893857
2809,21.406380
2810,66.102066
2811,-62.485342
2812,23.980227
2813,-31.671406
2814,-65.789790
2815,-10.979263
2816,-21.015811
2817,-15.820091
2818,-24.215370
2819,-21.925478
2820,-41.486264
2821,-7.379577
2822,-1.680298
2823,-26.343600
2824,78.483517
2825,-80.848266
2826,-42.282970
2827,58.730675
2828,-26.533585
2829,-27.464150
2830,-29.016282
2831,-31.122310
2832,-52.367690
2833,47.776807
2834,19.445370
2835,20.405012
2836,-37.098384
2837,18.600736
2838,-57.692766
2839,15.633077
2840,-22.233557
2841,20.844798
2842,-49.550490
2843,22.361174
2844,-18.932232
2845,31.792223
2846,30.100761
2847,4.918187
2848,10.848096
2849,17.805569
2850,12.536245
2851,22.370526
2852,-20.346856
2853,17.542166
2854,-4.911418
2855,-28.297076
2856,-20.098838
2857,72.440499
2858,8.072761
2859,4.129060
2860,-81.941657
2861,37.533291
2862,-33.649573
2863,74.925384
2864,50.956596
2865,-33.254876
2866,-37.232174
2867,50.284105
2868,4.946542
2869,26.632533
2870,53.565929
2871,24.473497
2872,2.612908
2873,15.616952
2874,13.261756
2875,-6.145036
2876,64.072901
2877,15.889241
2878,-60.734188
2879,-62.141907
2880,29.125356
2881,-44.225442
2882,-20.762429
2883,34.817284
2884,54.903644
2885,-81.584767
2886,94.467485
2887,-2.926353
2888,-17.919081
2889,0.006013
2890,-39.564852
2891,20.129741
2892,-37.927066
2893,-4.086368
2894,9.163391
2895,14.302521
2896,-83.440462
2897,40.138579
2898,37.935863
2899,11.307085
