Id,y
900,222.619964599609375
901,47.266544342041015625
902,-65.02420806884765625
903,-3.2004513740539550781
904,-51.965301513671875
905,-21.18924713134765625
906,55.943264007568359375
907,28.72362518310546875
908,-77.73748779296875
909,260.94158935546875
910,84.7068328857421875
911,-102.40940093994140625
912,0.98190534114837646484
913,-16.68309783935546875
914,-6.0632762908935546875
915,20.942388534545898438
916,-37.92031097412109375
917,-17.14107513427734375
918,42.2925872802734375
919,-2.2599935531616210938
920,97.8890380859375
921,129.0059051513671875
922,42.666355133056640625
923,25.802196502685546875
924,10.903523445129394531
925,-7.7023892402648925781
926,-25.522932052612304688
927,12.486796379089355469
928,-20.94179534912109375
929,-70.921112060546875
930,43.180385589599609375
931,39.91452789306640625
932,55.70404815673828125
933,-80.67125701904296875
934,13.158742904663085938
935,36.625705718994140625
936,-51.723178863525390625
937,1.6112701892852783203
938,-6.7991604804992675781
939,20.231748580932617188
940,52.702152252197265625
941,-20.0869140625
942,-15.401500701904296875
943,86.95088958740234375
944,3.6749138832092285156
945,-43.55329132080078125
946,32.75366973876953125
947,26.782562255859375
948,-77.26390838623046875
949,-14.459308624267578125
950,46.348140716552734375
951,-3.4763779640197753906
952,44.69872283935546875
953,9.4104290008544921875
954,79.877532958984375
955,-23.77758026123046875
956,56.197509765625
957,-23.580890655517578125
958,-55.64766693115234375
959,-3.0414745807647705078
960,-38.0529632568359375
961,-39.609615325927734375
962,27.100006103515625
963,-27.436773300170898438
964,-33.46179962158203125
965,104.55970001220703125
966,-37.11209869384765625
967,4.3759031295776367188
968,16.708393096923828125
969,21.002750396728515625
970,-56.80335235595703125
971,43.4263458251953125
972,3.0522613525390625
973,-66.76335906982421875
974,56.7840423583984375
975,-36.348262786865234375
976,-92.7368927001953125
977,-14.625002861022949219
978,27.604112625122070313
979,-44.605838775634765625
980,76.8954620361328125
981,-141.9316558837890625
982,-15.08188629150390625
983,43.46743011474609375
984,37.0611572265625
985,-18.637237548828125
986,23.1343536376953125
987,-34.97170257568359375
988,35.64312744140625
989,52.194461822509765625
990,-5.0416073799133300781
991,-23.699167251586914063
992,-39.597827911376953125
993,50.64435577392578125
994,-37.49845123291015625
995,-8.8584222793579101563
996,78.03733062744140625
997,-14.413272857666015625
998,24.221590042114257813
999,4.4197406768798828125
1000,-16.259912490844726563
1001,59.2565155029296875
1002,-47.99160003662109375
1003,-6.11853790283203125
1004,-11.200391769409179688
1005,9.4052209854125976563
1006,8.2768411636352539063
1007,30.119579315185546875
1008,-86.08275604248046875
1009,16.019771575927734375
1010,153.379547119140625
1011,-23.623495101928710938
1012,-51.153148651123046875
1013,-64.080810546875
1014,-34.340747833251953125
1015,38.597667694091796875
1016,-14.831605911254882813
1017,-93.75727081298828125
1018,-1.6943001747131347656
1019,1.4125322103500366211
1020,-58.050472259521484375
1021,-5.1689562797546386719
1022,-5.0150480270385742188
1023,-20.2506866455078125
1024,-42.562831878662109375
1025,-19.402753829956054688
1026,-55.077972412109375
1027,41.6488800048828125
1028,53.805927276611328125
1029,49.440765380859375
1030,-31.390048980712890625
1031,16.328683853149414063
1032,23.376056671142578125
1033,-50.915130615234375
1034,-75.3274688720703125
1035,7.944774627685546875
1036,23.500766754150390625
1037,-10.175522804260253906
1038,-9.5427064895629882813
1039,130.218353271484375
1040,-39.527126312255859375
1041,41.178966522216796875
1042,32.676143646240234375
1043,10.316221237182617188
1044,-37.884979248046875
1045,-9.8839311599731445313
1046,4.8614788055419921875
1047,-8.1757488250732421875
1048,-19.767549514770507813
1049,-49.168720245361328125
1050,-11.259726524353027344
1051,-40.89228057861328125
1052,-82.2945556640625
1053,11.966361045837402344
1054,21.234592437744140625
1055,-4.3244762420654296875
1056,-152.515350341796875
1057,-26.834606170654296875
1058,-57.351531982421875
1059,84.00597381591796875
1060,36.18772125244140625
1061,-31.831085205078125
1062,39.46802520751953125
1063,0.36998859047889709473
1064,5.020778656005859375
1065,-20.438764572143554688
1066,70.33315277099609375
1067,-49.83061981201171875
1068,39.565441131591796875
1069,109.07297515869140625
1070,15.645811080932617188
1071,-20.48215484619140625
1072,-43.6513519287109375
1073,174.4434814453125
1074,0.77581518888473510742
1075,51.883296966552734375
1076,-37.36956024169921875
1077,65.69483184814453125
1078,-96.6983184814453125
1079,-7.6536817550659179688
1080,-10.593259811401367188
1081,40.102428436279296875
1082,5.2297139167785644531
1083,-9.897724151611328125
1084,40.10906982421875
1085,23.210485458374023438
1086,6.2250380516052246094
1087,58.5399322509765625
1088,12.021798133850097656
1089,92.52410888671875
1090,-56.621570587158203125
1091,-14.274897575378417969
1092,-95.4835052490234375
1093,-58.669155120849609375
1094,-9.4526195526123046875
1095,71.2158050537109375
1096,-6.2201447486877441406
1097,-2.2031486034393310547
1098,20.726879119873046875
1099,19.411327362060546875
1100,78.97814178466796875
1101,36.346378326416015625
1102,-30.435045242309570313
1103,41.115039825439453125
1104,5.7864351272583007813
1105,9.0052614212036132813
1106,-5.0148415565490722656
1107,73.100921630859375
1108,-0.79118841886520385742
1109,54.854152679443359375
1110,-52.013378143310546875
1111,-30.928625106811523438
1112,-20.1158599853515625
1113,-106.58243560791015625
1114,59.860004425048828125
1115,-86.6582183837890625
1116,68.59442138671875
1117,-28.807964324951171875
1118,-33.275539398193359375
1119,-1.7043060064315795898
1120,-14.740648269653320313
1121,32.08807373046875
1122,33.107025146484375
1123,-14.55100250244140625
1124,9.7935457229614257813
1125,170.71588134765625
1126,-7.4901700019836425781
1127,56.831577301025390625
1128,-30.177610397338867188
1129,32.38625335693359375
1130,-5.1944370269775390625
1131,-43.926097869873046875
1132,28.06087493896484375
1133,-40.677677154541015625
1134,12.424864768981933594
1135,-90.199493408203125
1136,3.2467131614685058594
1137,225.8751983642578125
1138,-13.404170036315917969
1139,-52.15332794189453125
1140,93.09654998779296875
1141,65.7728118896484375
1142,-13.532964706420898438
1143,120.501800537109375
1144,6.337902069091796875
1145,-21.5299835205078125
1146,-53.388607025146484375
1147,12.886022567749023438
1148,189.9836273193359375
1149,28.73105621337890625
1150,8.7287244796752929688
1151,19.518159866333007813
1152,-20.142763137817382813
1153,65.03916168212890625
1154,-32.32904815673828125
1155,-9.4337053298950195313
1156,1.9000315666198730469
1157,85.0971832275390625
1158,-20.7540130615234375
1159,6.3223724365234375
1160,-99.22440338134765625
1161,-78.51329803466796875
1162,-7.0630331039428710938
1163,22.171464920043945313
1164,39.0406036376953125
1165,53.42478179931640625
1166,10.2675323486328125
1167,58.014110565185546875
1168,0.021838033571839332581
1169,-77.1569061279296875
1170,44.725551605224609375
1171,70.62354278564453125
1172,67.947998046875
1173,41.728496551513671875
1174,-188.400634765625
1175,25.146448135375976563
1176,-82.9390716552734375
1177,-19.089212417602539063
1178,134.5656280517578125
1179,89.46984100341796875
1180,-45.472087860107421875
1181,61.883441925048828125
1182,-24.704364776611328125
1183,50.072559356689453125
1184,28.404356002807617188
1185,109.25630950927734375
1186,5.6766324043273925781
1187,-36.03508758544921875
1188,-10.017086982727050781
1189,-58.03888702392578125
1190,131.23895263671875
1191,8.9943761825561523438
1192,7.2174563407897949219
1193,118.4787445068359375
1194,-7.5337567329406738281
1195,48.049289703369140625
1196,56.475543975830078125
1197,16.265237808227539063
1198,5.0423145294189453125
1199,115.5858001708984375
1200,19.3176116943359375
1201,12.997568130493164063
1202,18.838834762573242188
1203,5.7805676460266113281
1204,38.803073883056640625
1205,33.43373870849609375
1206,35.627079010009765625
1207,151.59930419921875
1208,-11.488710403442382813
1209,38.227935791015625
1210,-0.2976627349853515625
1211,-21.857378005981445313
1212,88.10961151123046875
1213,22.181200027465820313
1214,6.8042898178100585938
1215,67.49968719482421875
1216,100.9862518310546875
1217,336.9473876953125
1218,14.0260467529296875
1219,10.046179771423339844
1220,16.283649444580078125
1221,26.57384490966796875
1222,132.523040771484375
1223,-19.140939712524414063
1224,-49.113910675048828125
1225,62.49636077880859375
1226,43.926128387451171875
1227,-89.84424591064453125
1228,-75.15267181396484375
1229,36.8627471923828125
1230,-6.9199147224426269531
1231,-14.87511444091796875
1232,55.099124908447265625
1233,-14.266968727111816406
1234,117.66675567626953125
1235,-103.04311370849609375
1236,82.92166900634765625
1237,-10.169840812683105469
1238,-33.585048675537109375
1239,282.01202392578125
1240,103.7320709228515625
1241,-147.25970458984375
1242,32.50399017333984375
1243,-28.214052200317382813
1244,-3.0269885063171386719
1245,20.476076126098632813
1246,-5.7757043838500976563
1247,97.6512603759765625
1248,-0.70939999818801879883
1249,50.6433563232421875
1250,42.361812591552734375
1251,-55.69853973388671875
1252,-29.07442474365234375
1253,15.625683784484863281
1254,0.46649900078773498535
1255,87.9902191162109375
1256,-11.071625709533691406
1257,61.1930084228515625
1258,4.6200551986694335938
1259,53.41393280029296875
1260,-1.152563929557800293
1261,-29.088945388793945313
1262,-41.539722442626953125
1263,-24.82199859619140625
1264,-2.8775911331176757813
1265,-17.581537246704101563
1266,-37.1858062744140625
1267,-37.384838104248046875
1268,1.0726889371871948242
1269,12.569569587707519531
1270,2.3707535266876220703
1271,36.03363037109375
1272,97.72894287109375
1273,-6.9130167961120605469
1274,5.7816781997680664063
1275,-3.5031650066375732422
1276,40.150371551513671875
1277,-25.231256484985351563
1278,11.171167373657226563
1279,-46.45252227783203125
1280,-119.92822265625
1281,142.0827178955078125
1282,-21.0268402099609375
1283,96.93743896484375
1284,22.756786346435546875
1285,32.213611602783203125
1286,-41.64581298828125
1287,17.509464263916015625
1288,4.7915740013122558594
1289,19.9994354248046875
1290,9.2641763687133789063
1291,74.48236846923828125
1292,25.366239547729492188
1293,12.928902626037597656
1294,46.160228729248046875
1295,15.48383331298828125
1296,-57.368099212646484375
1297,6.3998508453369140625
1298,-6.4394016265869140625
1299,56.915493011474609375
1300,-38.3148040771484375
1301,57.619129180908203125
1302,50.650020599365234375
1303,-2.0437381267547607422
1304,-36.481624603271484375
1305,-6.8292813301086425781
1306,-88.31969451904296875
1307,3.1608471870422363281
1308,6.7231345176696777344
1309,-25.58481597900390625
1310,168.5134429931640625
1311,-34.387432098388671875
1312,103.324676513671875
1313,-3.4143939018249511719
1314,151.598358154296875
1315,-19.411794662475585938
1316,6.1721968650817871094
1317,10.924577713012695313
1318,-59.345714569091796875
1319,-21.341510772705078125
1320,-16.406841278076171875
1321,82.45700836181640625
1322,-73.600494384765625
1323,49.610027313232421875
1324,-64.32971954345703125
1325,-93.63542938232421875
1326,-6.6459288597106933594
1327,25.128221511840820313
1328,63.344226837158203125
1329,7.7548727989196777344
1330,-19.204326629638671875
1331,48.914257049560546875
1332,7.0551514625549316406
1333,-24.018564224243164063
1334,-12.440378189086914063
1335,64.22403717041015625
1336,-11.835065841674804688
1337,-79.97011566162109375
1338,-1.8741583824157714844
1339,24.761936187744140625
1340,-14.560564994812011719
1341,-35.85993194580078125
1342,37.461376190185546875
1343,128.00750732421875
1344,13.880299568176269531
1345,-3.5159029960632324219
1346,-56.200489044189453125
1347,139.47802734375
1348,137.030242919921875
1349,69.698822021484375
1350,32.574069976806640625
1351,-84.02654266357421875
1352,-7.7472600936889648438
1353,-3.0329196453094482422
1354,19.926670074462890625
1355,28.408899307250976563
1356,136.74908447265625
1357,20.13617706298828125
1358,-11.2020263671875
1359,-56.290485382080078125
1360,-11.139458656311035156
1361,67.43917083740234375
1362,-16.771898269653320313
1363,37.4754180908203125
1364,-65.6558990478515625
1365,-59.709228515625
1366,-46.636325836181640625
1367,-68.45413970947265625
1368,18.448640823364257813
1369,-5.2112984657287597656
1370,-90.4273223876953125
1371,146.8265380859375
1372,93.47803497314453125
1373,26.966085433959960938
1374,52.547679901123046875
1375,53.262454986572265625
1376,154.5444488525390625
1377,-67.89974212646484375
1378,-45.03347015380859375
1379,14.602902412414550781
1380,47.15381622314453125
1381,37.6781005859375
1382,0.67831498384475708008
1383,-23.604551315307617188
1384,125.31429290771484375
1385,-20.466053009033203125
1386,-131.241851806640625
1387,-66.7385101318359375
1388,15.789594650268554688
1389,3.7422301769256591797
1390,31.559843063354492188
1391,-5.9774775505065917969
1392,33.875827789306640625
1393,1.5257210731506347656
1394,-51.773956298828125
1395,-60.058929443359375
1396,113.3686981201171875
1397,139.7865142822265625
1398,-9.2873783111572265625
1399,-25.100078582763671875
1400,59.802387237548828125
1401,-2.1008789539337158203
1402,-80.14286041259765625
1403,-13.399141311645507813
1404,-42.18389129638671875
1405,89.48279571533203125
1406,22.9695281982421875
1407,-16.333927154541015625
1408,-35.69512939453125
1409,-0.84292417764663696289
1410,117.06040191650390625
1411,-14.553385734558105469
1412,-54.616840362548828125
1413,39.183696746826171875
1414,15.229968070983886719
1415,30.339036941528320313
1416,-22.58132171630859375
1417,-66.43064117431640625
1418,-22.369874954223632813
1419,-6.9358034133911132813
1420,12.0260467529296875
1421,-2.8128795623779296875
1422,38.323963165283203125
1423,-121.984161376953125
1424,-43.688846588134765625
1425,109.8576812744140625
1426,-51.538013458251953125
1427,147.646942138671875
1428,-0.17268253862857818604
1429,13.525503158569335938
1430,28.6749267578125
1431,-25.92076873779296875
1432,-92.30313873291015625
1433,37.10573577880859375
1434,20.814149856567382813
1435,8.178394317626953125
1436,29.249546051025390625
1437,41.348026275634765625
1438,49.02142333984375
1439,-55.505786895751953125
1440,15.473353385925292969
1441,-6.485027313232421875
1442,3.5712332725524902344
1443,-10.693165779113769531
1444,-28.526973724365234375
1445,77.71102142333984375
1446,-19.733142852783203125
1447,-9.3093156814575195313
1448,36.27111053466796875
1449,8.3372669219970703125
1450,18.818925857543945313
1451,19.563695907592773438
1452,11.724392890930175781
1453,-110.49837493896484375
1454,-17.222597122192382813
1455,26.973726272583007813
1456,52.485294342041015625
1457,91.35468292236328125
1458,24.309925079345703125
1459,58.10794830322265625
1460,62.215496063232421875
1461,-23.194202423095703125
1462,-99.35373687744140625
1463,-99.11544036865234375
1464,-17.215412139892578125
1465,15.199536323547363281
1466,-5.9368138313293457031
1467,21.678432464599609375
1468,-26.080059051513671875
1469,2.1754505634307861328
1470,66.43286895751953125
1471,-83.06607818603515625
1472,12.463955879211425781
1473,-16.31345367431640625
1474,-44.631931304931640625
1475,-172.31878662109375
1476,75.45005035400390625
1477,-37.498325347900390625
1478,-45.369190216064453125
1479,17.26279449462890625
1480,-18.3531494140625
1481,26.650058746337890625
1482,-54.159725189208984375
1483,40.686962127685546875
1484,37.356861114501953125
1485,4.2687482833862304688
1486,-21.564153671264648438
1487,-77.6719818115234375
1488,-16.100963592529296875
1489,4.9828410148620605469
1490,-44.0299530029296875
1491,22.789737701416015625
1492,-10.287335395812988281
1493,-52.028751373291015625
1494,-3.3706994056701660156
1495,20.817071914672851563
1496,6.6862540245056152344
1497,19.93524169921875
1498,101.31067657470703125
1499,-20.218294143676757813
1500,-9.498081207275390625
1501,-72.51136016845703125
1502,16.204339981079101563
1503,72.15718841552734375
1504,-27.1577911376953125
1505,50.653064727783203125
1506,-7.0353565216064453125
1507,-40.2257843017578125
1508,5.2085828781127929688
1509,-41.473606109619140625
1510,-27.226774215698242188
1511,75.48413848876953125
1512,-28.306905746459960938
1513,0.59861207008361816406
1514,111.3822174072265625
1515,10.898972511291503906
1516,27.537649154663085938
1517,60.64484405517578125
1518,-0.69339841604232788086
1519,67.98648834228515625
1520,-86.7745513916015625
1521,77.8619842529296875
1522,-48.918460845947265625
1523,-40.571628570556640625
1524,-32.773540496826171875
1525,35.069477081298828125
1526,21.0641326904296875
1527,23.709285736083984375
1528,3.8516054153442382813
1529,14.663228988647460938
1530,4.5715703964233398438
1531,193.165924072265625
1532,-14.325898170471191406
1533,-33.207988739013671875
1534,37.718414306640625
1535,-3.5262482166290283203
1536,-10.043862342834472656
1537,23.711202621459960938
1538,32.9683685302734375
1539,1.919409632682800293
1540,15.996207237243652344
1541,41.803760528564453125
1542,-22.182552337646484375
1543,52.249645233154296875
1544,-20.1595611572265625
1545,-68.96965789794921875
1546,12.401102066040039063
1547,-11.453525543212890625
1548,61.621707916259765625
1549,41.154911041259765625
1550,36.615619659423828125
1551,-30.274343490600585938
1552,65.70272064208984375
1553,-21.209148406982421875
1554,-52.470500946044921875
1555,9.1862802505493164063
1556,51.50799560546875
1557,5.7459716796875
1558,-60.509288787841796875
1559,143.841644287109375
1560,7.96419525146484375
1561,-48.253452301025390625
1562,62.0682830810546875
1563,-107.08861541748046875
1564,-15.405429840087890625
1565,80.0694580078125
1566,-4.654926300048828125
1567,-2.0121695995330810547
1568,19.094264984130859375
1569,9.2737779617309570313
1570,-10.433478355407714844
1571,-34.444149017333984375
1572,-64.5968475341796875
1573,-26.400768280029296875
1574,-23.0997314453125
1575,11.238858222961425781
1576,12.685858726501464844
1577,-37.14238739013671875
1578,13.219695091247558594
1579,-2.1112756729125976563
1580,181.4344940185546875
1581,49.309452056884765625
1582,37.950649261474609375
1583,-13.773112297058105469
1584,0.3500060737133026123
1585,-72.6360626220703125
1586,56.927082061767578125
1587,35.621368408203125
1588,-50.5536041259765625
1589,34.59381866455078125
1590,-22.117372512817382813
1591,-29.477888107299804688
1592,-2.8139204978942871094
1593,-54.327014923095703125
1594,9.1013345718383789063
1595,17.950265884399414063
1596,20.2879180908203125
1597,61.262638092041015625
1598,4.0206546783447265625
1599,-14.174677848815917969
1600,4.2730588912963867188
1601,-8.5655107498168945313
1602,10.454731941223144531
1603,-10.781813621520996094
1604,238.9985504150390625
1605,-4.5440049171447753906
1606,-15.912487030029296875
1607,-41.1027984619140625
1608,22.985662460327148438
1609,-33.557788848876953125
1610,5.7729010581970214844
1611,3.5482988357543945313
1612,46.00194549560546875
1613,15.069559097290039063
1614,167.1181640625
1615,-66.40718841552734375
1616,8.303974151611328125
1617,41.05326080322265625
1618,-77.5588226318359375
1619,104.95304107666015625
1620,18.205438613891601563
1621,54.438327789306640625
1622,10.444865226745605469
1623,-60.96076202392578125
1624,81.54621124267578125
1625,1.2573769092559814453
1626,-75.73853302001953125
1627,-63.3826751708984375
1628,-41.6273040771484375
1629,-79.61609649658203125
1630,-13.301204681396484375
1631,31.545993804931640625
1632,-27.34874725341796875
1633,-45.326923370361328125
1634,-7.7180447578430175781
1635,94.46567535400390625
1636,111.46456146240234375
1637,80.1490936279296875
1638,-90.52672576904296875
1639,3.7315807342529296875
1640,32.9371490478515625
1641,14.619489669799804688
1642,-34.78110504150390625
1643,-28.25745391845703125
1644,-8.299007415771484375
1645,15.74935150146484375
1646,-21.228055953979492188
1647,48.242565155029296875
1648,69.07314300537109375
1649,103.5120849609375
1650,-4.7597203254699707031
1651,24.980154037475585938
1652,41.010772705078125
1653,-1.766705632209777832
1654,22.872259140014648438
1655,6.6782994270324707031
1656,3.1766252517700195313
1657,-28.520452499389648438
1658,46.586658477783203125
1659,-2.6951725482940673828
1660,-8.8914937973022460938
1661,24.605745315551757813
1662,-42.82579803466796875
1663,38.927867889404296875
1664,42.756275177001953125
1665,-4.4664587974548339844
1666,-119.15651702880859375
1667,-41.91278839111328125
1668,-20.437503814697265625
1669,12.142934799194335938
1670,-0.63437265157699584961
1671,120.18129730224609375
1672,39.6289825439453125
1673,15.963975906372070313
1674,0.7034270167350769043
1675,-60.17295074462890625
1676,-10.906496047973632813
1677,22.1564178466796875
1678,-20.257648468017578125
1679,59.496433258056640625
1680,-45.8714752197265625
1681,17.906934738159179688
1682,2.2574923038482666016
1683,91.135162353515625
1684,154.4128570556640625
1685,-48.29468536376953125
1686,84.07106781005859375
1687,47.23925018310546875
1688,92.32053375244140625
1689,1.6362794637680053711
1690,-45.969333648681640625
1691,-34.135623931884765625
1692,120.74918365478515625
1693,82.27457427978515625
1694,154.9928436279296875
1695,48.980609893798828125
1696,-19.768228530883789063
1697,327.911590576171875
1698,49.749523162841796875
1699,25.6902618408203125
1700,15.203068733215332031
1701,21.2638397216796875
1702,86.2560272216796875
1703,-61.737239837646484375
1704,39.227962493896484375
1705,-6.6299715042114257813
1706,-93.616363525390625
1707,-41.847728729248046875
1708,-23.65062713623046875
1709,-53.078704833984375
1710,13.942018508911132813
1711,33.650714874267578125
1712,7.759670257568359375
1713,102.4796600341796875
1714,87.91254425048828125
1715,-0.78990715742111206055
1716,56.1410369873046875
1717,175.036224365234375
1718,6.4558062553405761719
1719,-77.1666259765625
1720,20.131549835205078125
1721,-26.508514404296875
1722,56.2576751708984375
1723,36.5948638916015625
1724,-71.916748046875
1725,20.707447052001953125
1726,74.67876434326171875
1727,36.540790557861328125
1728,12.492114067077636719
1729,-27.45040130615234375
1730,8.7340831756591796875
1731,55.46636199951171875
1732,-54.305805206298828125
1733,-56.3329925537109375
1734,5.470264434814453125
1735,11.090606689453125
1736,-105.6841583251953125
1737,-28.381841659545898438
1738,-8.8394250869750976563
1739,39.843143463134765625
1740,81.42600250244140625
1741,-81.55815887451171875
1742,-11.304703712463378906
1743,-8.1142721176147460938
1744,49.859653472900390625
1745,-33.820957183837890625
1746,-33.891387939453125
1747,-165.3027191162109375
1748,-17.2986602783203125
1749,-60.972225189208984375
1750,-103.85182952880859375
1751,23.166254043579101563
1752,-31.278406143188476563
1753,-21.188116073608398438
1754,18.283384323120117188
1755,95.95775604248046875
1756,-31.152582168579101563
1757,41.767730712890625
1758,-18.584598541259765625
1759,-8.5342111587524414063
1760,5.4584383964538574219
1761,-37.199565887451171875
1762,12.059370040893554688
1763,-47.780765533447265625
1764,24.937591552734375
1765,67.18598175048828125
1766,209.5965423583984375
1767,-56.1562347412109375
1768,-47.9007110595703125
1769,-42.02577972412109375
1770,-15.066555023193359375
1771,-74.54956817626953125
1772,18.414991378784179688
1773,-72.16277313232421875
1774,-3.6412701606750488281
1775,-20.123987197875976563
1776,1.2713011503219604492
1777,-20.080621719360351563
1778,-25.23668670654296875
1779,-68.223175048828125
1780,1.8253874778747558594
1781,53.471065521240234375
1782,-44.478763580322265625
1783,14.9289398193359375
1784,-7.2733697891235351563
1785,-254.0907135009765625
1786,-2.1355803012847900391
1787,24.844379425048828125
1788,-9.7711181640625
1789,-39.674655914306640625
1790,-3.3123700618743896484
1791,4.8947014808654785156
1792,-167.1085357666015625
1793,-2.9977154731750488281
1794,44.0139617919921875
1795,-6.0698428153991699219
1796,41.978179931640625
1797,-87.1269073486328125
1798,-30.518917083740234375
1799,69.34935760498046875
1800,-12.048031806945800781
1801,48.727264404296875
1802,-6.160671234130859375
1803,-16.996189117431640625
1804,-71.906158447265625
1805,5.0764164924621582031
1806,31.360845565795898438
1807,-2.5945925712585449219
1808,-14.534609794616699219
1809,-59.831829071044921875
1810,97.05603790283203125
1811,-1.8574721813201904297
1812,-27.51781463623046875
1813,-101.115386962890625
1814,15.975666999816894531
1815,-60.213733673095703125
1816,4.2852029800415039063
1817,-48.73681640625
1818,58.26691436767578125
1819,42.58234405517578125
1820,31.370027542114257813
1821,14.918765068054199219
1822,-40.375331878662109375
1823,-28.980428695678710938
1824,36.98284149169921875
1825,9.1261320114135742188
1826,325.83551025390625
1827,6.3771681785583496094
1828,69.586669921875
1829,25.279634475708007813
1830,-51.536895751953125
1831,-180.101470947265625
1832,24.332502365112304688
1833,29.5563201904296875
1834,-41.47802734375
1835,-31.39630889892578125
1836,2.5873458385467529297
1837,-17.83342742919921875
1838,61.607212066650390625
1839,-13.567069053649902344
1840,23.420049667358398438
1841,9.9772701263427734375
1842,31.579236984252929688
1843,-40.13518524169921875
1844,-30.888532638549804688
1845,36.028240203857421875
1846,2.6153492927551269531
1847,19.401210784912109375
1848,-4.1113643646240234375
1849,51.677520751953125
1850,2.2274003028869628906
1851,91.5005645751953125
1852,60.0131072998046875
1853,-43.255283355712890625
1854,-24.005350112915039063
1855,19.108917236328125
1856,-32.970127105712890625
1857,-38.259632110595703125
1858,-28.850267410278320313
1859,-29.481065750122070313
1860,15.963566780090332031
1861,-96.30876922607421875
1862,-15.414423942565917969
1863,3.1684789657592773438
1864,-13.306299209594726563
1865,26.7891387939453125
1866,-16.675966262817382813
1867,-40.69985198974609375
1868,-30.531124114990234375
1869,211.1257781982421875
1870,45.63318634033203125
1871,133.556915283203125
1872,-91.8563232421875
1873,-28.770483016967773438
1874,32.093067169189453125
1875,33.7540435791015625
1876,-136.3117828369140625
1877,-22.648389816284179688
1878,36.789852142333984375
1879,44.274036407470703125
1880,13.939600944519042969
1881,-42.908473968505859375
1882,-34.956798553466796875
1883,2.5810115337371826172
1884,-47.08301544189453125
1885,44.767116546630859375
1886,20.395656585693359375
1887,-1.310328364372253418
1888,17.58917999267578125
1889,-79.7368011474609375
1890,14.739526748657226563
1891,10.408993721008300781
1892,69.284271240234375
1893,128.24639892578125
1894,-173.947662353515625
1895,96.75939178466796875
1896,-17.049037933349609375
1897,-87.11302947998046875
1898,-12.935122489929199219
1899,20.898101806640625
1900,-48.824428558349609375
1901,12.379212379455566406
1902,-74.68790435791015625
1903,-32.551483154296875
1904,95.9753570556640625
1905,19.551488876342773438
1906,-41.058872222900390625
1907,-38.57820892333984375
1908,-43.98635101318359375
1909,-7.1357922554016113281
1910,15.125653266906738281
1911,60.140087127685546875
1912,-99.62091064453125
1913,21.715326309204101563
1914,6.8070998191833496094
1915,-21.169208526611328125
1916,-26.913629531860351563
1917,-79.144317626953125
1918,7.533390045166015625
1919,10.05975341796875
1920,99.83425140380859375
1921,-1.0451235771179199219
1922,-32.40183258056640625
1923,-3.3037962913513183594
1924,-15.878867149353027344
1925,146.4215545654296875
1926,31.97373199462890625
1927,21.265155792236328125
1928,-44.561695098876953125
1929,22.730154037475585938
1930,36.78900909423828125
1931,-93.79925537109375
1932,-73.38519287109375
1933,-52.547016143798828125
1934,-14.084141731262207031
1935,-19.450244903564453125
1936,30.564487457275390625
1937,27.564523696899414063
1938,-146.5379638671875
1939,14.625256538391113281
1940,47.3098297119140625
1941,47.052490234375
1942,-93.36765289306640625
1943,-52.49570465087890625
1944,31.49048614501953125
1945,3.9574441909790039063
1946,4.1738314628601074219
1947,-97.32622528076171875
1948,14.408663749694824219
1949,157.098876953125
1950,1.6196409463882446289
1951,-10.804079055786132813
1952,-56.23517608642578125
1953,3.4372777938842773438
1954,21.659639358520507813
1955,-41.035373687744140625
1956,-50.461971282958984375
1957,-24.2038726806640625
1958,64.68561553955078125
1959,-51.185085296630859375
1960,-55.05249786376953125
1961,-87.00868988037109375
1962,87.1873931884765625
1963,-89.64107513427734375
1964,25.104867935180664063
1965,-5.9172115325927734375
1966,11.049791336059570313
1967,52.49041748046875
1968,-1.7796773910522460938
1969,-73.4852447509765625
1970,128.0183563232421875
1971,-38.5818023681640625
1972,-21.262601852416992188
1973,-13.899366378784179688
1974,-53.095462799072265625
1975,-0.18547086417675018311
1976,-7.427989959716796875
1977,65.46498870849609375
1978,25.210016250610351563
1979,118.82366943359375
1980,32.91307830810546875
1981,-19.332952499389648438
1982,30.198169708251953125
1983,87.96572113037109375
1984,5.3777408599853515625
1985,-90.96633148193359375
1986,61.63311767578125
1987,-28.491455078125
1988,-17.639621734619140625
1989,-5.9281840324401855469
1990,-27.765363693237304688
1991,74.09903717041015625
1992,-21.911268234252929688
1993,-0.21528744697570800781
1994,-38.298412322998046875
1995,97.31665802001953125
1996,-7.3514204025268554688
1997,-9.4246358871459960938
1998,-24.600831985473632813
1999,19.066873550415039063
2000,-40.009761810302734375
2001,83.58455657958984375
2002,44.75792694091796875
2003,-50.80352020263671875
2004,-27.33754730224609375
2005,109.01385498046875
2006,-11.184055328369140625
2007,8.1931066513061523438
2008,-23.79453277587890625
2009,-42.641216278076171875
2010,23.135259628295898438
2011,86.58174896240234375
2012,9.333499908447265625
2013,-2.5785899162292480469
2014,-20.848163604736328125
2015,58.9997711181640625
2016,-35.328357696533203125
2017,13.35207366943359375
2018,42.25279998779296875
2019,0.028312131762504577637
2020,4.8362903594970703125
2021,-66.96279144287109375
2022,15.834444999694824219
2023,-7.9215869903564453125
2024,162.36846923828125
2025,46.950252532958984375
2026,35.87583160400390625
2027,-16.118837356567382813
2028,-113.70555877685546875
2029,-20.617692947387695313
2030,-16.771045684814453125
2031,124.0792694091796875
2032,23.381891250610351563
2033,-9.868377685546875
2034,137.7404022216796875
2035,44.0589752197265625
2036,6.3690443038940429688
2037,8.9723339080810546875
2038,11.287649154663085938
2039,66.92891693115234375
2040,-13.588761329650878906
2041,14.518808364868164063
2042,0.020825143903493881226
2043,20.870538711547851563
2044,-15.722100257873535156
2045,69.94561004638671875
2046,28.058305740356445313
2047,-17.805690765380859375
2048,13.124251365661621094
2049,-74.91373443603515625
2050,-16.8505706787109375
2051,40.36666107177734375
2052,-9.6303548812866210938
2053,-7.9002709388732910156
2054,-0.52715086936950683594
2055,17.805883407592773438
2056,68.7887725830078125
2057,77.3018646240234375
2058,-58.562442779541015625
2059,-5.642894744873046875
2060,75.38426971435546875
2061,-71.0352630615234375
2062,77.95664215087890625
2063,71.48325347900390625
2064,-52.504619598388671875
2065,7.0190348625183105469
2066,33.79184722900390625
2067,-5.3382878303527832031
2068,73.43399810791015625
2069,-41.81927490234375
2070,9.8863782882690429688
2071,-11.038079261779785156
2072,-33.9332122802734375
2073,60.42340087890625
2074,99.568115234375
2075,41.722522735595703125
2076,71.96591949462890625
2077,-78.61490631103515625
2078,23.038492202758789063
2079,161.68328857421875
2080,-255.22705078125
2081,-43.013454437255859375
2082,184.1225128173828125
2083,113.9194488525390625
2084,-101.78922271728515625
2085,-8.9592876434326171875
2086,28.557971954345703125
2087,-16.5436859130859375
2088,-56.656688690185546875
2089,3.4283025264739990234
2090,-32.39061737060546875
2091,234.1709136962890625
2092,-4.1802043914794921875
2093,14.667841911315917969
2094,-13.267359733581542969
2095,10.23320770263671875
2096,-4.855716705322265625
2097,62.530059814453125
2098,-1.3898755311965942383
2099,-8.4657106399536132813
2100,-5.2696237564086914063
2101,6.7004194259643554688
2102,-8.3007745742797851563
2103,130.8508758544921875
2104,3.0396263599395751953
2105,-36.100711822509765625
2106,-5.0019865036010742188
2107,-27.06697845458984375
2108,45.770732879638671875
2109,-10.661681175231933594
2110,-91.35114288330078125
2111,-66.81052398681640625
2112,-1.3095273971557617188
2113,27.934946060180664063
2114,-36.463901519775390625
2115,58.785430908203125
2116,-36.780467987060546875
2117,-66.25653076171875
2118,17.211015701293945313
2119,-1.7209556102752685547
2120,-65.30971527099609375
2121,-53.52243804931640625
2122,15.221966743469238281
2123,-20.297235488891601563
2124,-103.908843994140625
2125,10.127778053283691406
2126,21.105752944946289063
2127,-36.39725494384765625
2128,-3.7408292293548583984
2129,-154.1274261474609375
2130,33.964061737060546875
2131,24.436206817626953125
2132,0.91837036609649658203
2133,236.2292327880859375
2134,113.69537353515625
2135,-58.540271759033203125
2136,-5.9513363838195800781
2137,29.783985137939453125
2138,-33.508724212646484375
2139,56.802150726318359375
2140,0.98719459772109985352
2141,-37.174541473388671875
2142,28.924219131469726563
2143,-2.1759738922119140625
2144,19.561298370361328125
2145,-62.3727874755859375
2146,-28.860761642456054688
2147,69.128753662109375
2148,3.1783778667449951172
2149,-132.1532135009765625
2150,-6.0109028816223144531
2151,-75.14056396484375
2152,18.963541030883789063
2153,39.45479583740234375
2154,70.7965240478515625
2155,76.469512939453125
2156,-19.4502716064453125
2157,136.877044677734375
2158,-5.71709442138671875
2159,12.485504150390625
2160,5.8106517791748046875
2161,21.129055023193359375
2162,-55.74210357666015625
2163,75.9429473876953125
2164,-19.79998779296875
2165,-0.77988171577453613281
2166,80.88207244873046875
2167,114.978912353515625
2168,-84.3682403564453125
2169,33.87891387939453125
2170,54.412494659423828125
2171,2.4176003932952880859
2172,5.7046804428100585938
2173,52.669780731201171875
2174,-38.50543212890625
2175,-81.63668060302734375
2176,38.545501708984375
2177,11.504846572875976563
2178,-7.7019290924072265625
2179,1.4408324956893920898
2180,16.762731552124023438
2181,-27.157564163208007813
2182,40.173679351806640625
2183,0.7490952610969543457
2184,35.055698394775390625
2185,-94.20401763916015625
2186,33.41219329833984375
2187,13.209859848022460938
2188,82.24718475341796875
2189,22.42064666748046875
2190,-13.016549110412597656
2191,-89.3931732177734375
2192,-31.746713638305664063
2193,21.618177413940429688
2194,-23.70111083984375
2195,-42.648937225341796875
2196,-34.12236785888671875
2197,-64.13387298583984375
2198,-30.943235397338867188
2199,17.77309417724609375
2200,85.3480682373046875
2201,26.519893646240234375
2202,-33.068767547607421875
2203,27.033678054809570313
2204,36.980220794677734375
2205,3.2053554058074951172
2206,-21.138599395751953125
2207,48.863231658935546875
2208,33.27248382568359375
2209,26.54496002197265625
2210,95.2366790771484375
2211,12.998676300048828125
2212,40.102264404296875
2213,-6.7298574447631835938
2214,45.03189849853515625
2215,-24.834529876708984375
2216,-18.223278045654296875
2217,-0.057227235287427902222
2218,0.21057073771953582764
2219,36.01770782470703125
2220,-7.6030788421630859375
2221,24.483242034912109375
2222,-53.966400146484375
2223,72.26477813720703125
2224,14.472355842590332031
2225,-18.479619979858398438
2226,-68.98502349853515625
2227,95.6859130859375
2228,-17.514591217041015625
2229,-16.700876235961914063
2230,-21.725049972534179688
2231,-1.6751487255096435547
2232,-22.236848831176757813
2233,-35.676708221435546875
2234,26.275236129760742188
2235,-19.725389480590820313
2236,-11.651180267333984375
2237,-62.20599365234375
2238,-5.4057488441467285156
2239,42.608646392822265625
2240,36.82512664794921875
2241,22.264398574829101563
2242,-173.68389892578125
2243,0.11015921086072921753
2244,-9.1135492324829101563
2245,-2.0389215946197509766
2246,-66.18277740478515625
2247,-26.4719390869140625
2248,41.834873199462890625
2249,22.940837860107421875
2250,14.475436210632324219
2251,138.1852569580078125
2252,-86.992919921875
2253,-94.962371826171875
2254,-23.017559051513671875
2255,116.15483856201171875
2256,-23.95916748046875
2257,45.76648712158203125
2258,-33.205791473388671875
2259,-233.3663482666015625
2260,13.117900848388671875
2261,-74.84356689453125
2262,-75.47762298583984375
2263,48.43312835693359375
2264,22.426380157470703125
2265,49.028533935546875
2266,0.36053630709648132324
2267,-23.019994735717773438
2268,-237.804656982421875
2269,-11.290079116821289063
2270,-5.839626312255859375
2271,-42.4999542236328125
2272,-85.32163238525390625
2273,-70.6847076416015625
2274,-12.370849609375
2275,-37.82717132568359375
2276,38.86960601806640625
2277,-38.593883514404296875
2278,16.524257659912109375
2279,-32.7001495361328125
2280,-48.073760986328125
2281,6.9983716011047363281
2282,-207.288299560546875
2283,-32.959308624267578125
2284,40.878200531005859375
2285,8.6187772750854492188
2286,32.161540985107421875
2287,29.936779022216796875
2288,-67.08362579345703125
2289,32.6121063232421875
2290,17.9799041748046875
2291,72.811798095703125
2292,83.19687652587890625
2293,31.762407302856445313
2294,-45.3856353759765625
2295,27.83913421630859375
2296,-24.901052474975585938
2297,-37.77872467041015625
2298,-96.80800628662109375
2299,-23.665822982788085938
2300,40.86620330810546875
2301,-39.910732269287109375
2302,-40.098621368408203125
2303,15.304981231689453125
2304,-88.42075347900390625
2305,171.98565673828125
2306,-69.70206451416015625
2307,-28.0496673583984375
2308,-6.3715801239013671875
2309,-3.9053566455841064453
2310,130.7689361572265625
2311,69.0386810302734375
2312,1.2133693695068359375
2313,78.20726776123046875
2314,-31.892284393310546875
2315,29.432621002197265625
2316,-17.94176483154296875
2317,-107.302490234375
2318,49.530338287353515625
2319,8.6051301956176757813
2320,-18.133161544799804688
2321,36.532268524169921875
2322,58.86395263671875
2323,-41.94750213623046875
2324,44.988346099853515625
2325,-56.074436187744140625
2326,-68.4551544189453125
2327,249.6196136474609375
2328,-19.076036453247070313
2329,-20.221965789794921875
2330,18.340158462524414063
2331,25.672376632690429688
2332,-11.700473785400390625
2333,-73.4441680908203125
2334,-50.2701873779296875
2335,75.9515228271484375
2336,27.247667312622070313
2337,56.967075347900390625
2338,48.49267578125
2339,1.1444143056869506836
2340,108.21475982666015625
2341,112.61406707763671875
2342,-0.3319384157657623291
2343,-48.56854248046875
2344,21.294839859008789063
2345,-16.525960922241210938
2346,49.98081207275390625
2347,4.378856658935546875
2348,10.146045684814453125
2349,19.56685638427734375
2350,-18.24533843994140625
2351,-6.5442495346069335938
2352,-32.9320526123046875
2353,-98.2483673095703125
2354,-27.323431015014648438
2355,-59.392353057861328125
2356,20.537481307983398438
2357,-39.876384735107421875
2358,64.77646636962890625
2359,-21.177959442138671875
2360,44.73699951171875
2361,42.930027008056640625
2362,11.238135337829589844
2363,-32.141910552978515625
2364,-25.909429550170898438
2365,-29.6367340087890625
2366,61.221332550048828125
2367,18.550764083862304688
2368,-14.865614891052246094
2369,25.885448455810546875
2370,41.178356170654296875
2371,-35.235294342041015625
2372,26.353414535522460938
2373,42.322162628173828125
2374,-13.486985206604003906
2375,50.09998321533203125
2376,6.5404887199401855469
2377,11.167039871215820313
2378,-11.080450057983398438
2379,-14.732899665832519531
2380,-39.999164581298828125
2381,-31.199644088745117188
2382,29.212596893310546875
2383,57.70125579833984375
2384,-41.19870758056640625
2385,-12.868002891540527344
2386,55.26924896240234375
2387,-66.637359619140625
2388,-49.00740814208984375
2389,-3.3828418254852294922
2390,3.7728765010833740234
2391,51.258068084716796875
2392,160.5137939453125
2393,23.567838668823242188
2394,-49.919933319091796875
2395,21.5001068115234375
2396,-46.210418701171875
2397,-77.67261505126953125
2398,-22.063991546630859375
2399,-4.4047503471374511719
2400,89.30379486083984375
2401,70.063446044921875
2402,-5.0827178955078125
2403,7.6844096183776855469
2404,59.5393218994140625
2405,-8.3346109390258789063
2406,23.286329269409179688
2407,17.245050430297851563
2408,-8.4593000411987304688
2409,11.746693611145019531
2410,5.6767835617065429688
2411,-26.668607711791992188
2412,-29.6076507568359375
2413,87.901885986328125
2414,47.435466766357421875
2415,-121.90688323974609375
2416,95.98445892333984375
2417,-66.861083984375
2418,4.8936972618103027344
2419,-32.30196380615234375
2420,-4.2484264373779296875
2421,-108.3533172607421875
2422,40.8752288818359375
2423,-24.988630294799804688
2424,191.036834716796875
2425,-24.262210845947265625
2426,8.2125768661499023438
2427,-71.287750244140625
2428,-5.6445264816284179688
2429,2.16020965576171875
2430,-248.3124542236328125
2431,-12.113239288330078125
2432,78.3653564453125
2433,97.1084136962890625
2434,109.356719970703125
2435,-1.2868759632110595703
2436,16.668832778930664063
2437,-6.7837018966674804688
2438,-62.854541778564453125
2439,58.37969207763671875
2440,173.9685211181640625
2441,34.05767822265625
2442,42.0555572509765625
2443,-32.453830718994140625
2444,-70.7708587646484375
2445,49.0053863525390625
2446,129.55718994140625
2447,-132.32611083984375
2448,-51.638683319091796875
2449,35.46152496337890625
2450,-41.74648284912109375
2451,-1.2788263559341430664
2452,54.088165283203125
2453,26.995143890380859375
2454,57.33652496337890625
2455,18.095796585083007813
2456,13.859128952026367188
2457,30.204267501831054688
2458,20.688995361328125
2459,35.880584716796875
2460,65.42623138427734375
2461,34.335418701171875
2462,14.458703994750976563
2463,-19.293405532836914063
2464,4.6378173828125
2465,44.183322906494140625
2466,21.58269500732421875
2467,147.7883758544921875
2468,-15.405730247497558594
2469,-14.09832000732421875
2470,-0.32086694240570068359
2471,35.81169891357421875
2472,246.951629638671875
2473,-41.00000762939453125
2474,-192.5936279296875
2475,125.29404449462890625
2476,-31.465353012084960938
2477,-2.9323272705078125
2478,-25.098157882690429688
2479,-47.527683258056640625
2480,92.62364959716796875
2481,-22.486070632934570313
2482,4.5095620155334472656
2483,47.39919281005859375
2484,71.378753662109375
2485,8.609378814697265625
2486,20.36483001708984375
2487,-27.231691360473632813
2488,68.68743133544921875
2489,52.156585693359375
2490,-15.905154228210449219
2491,-7.5476536750793457031
2492,54.144329071044921875
2493,-27.421262741088867188
2494,2.75923919677734375
2495,27.780164718627929688
2496,5.4218363761901855469
2497,-6.677959442138671875
2498,-35.455036163330078125
2499,-50.9364013671875
2500,123.6488037109375
2501,109.735321044921875
2502,-117.02880859375
2503,242.36962890625
2504,42.591449737548828125
2505,124.06168365478515625
2506,0.8267542719841003418
2507,-1.5319880247116088867
2508,144.871490478515625
2509,2.8960287570953369141
2510,37.55748748779296875
2511,10.313437461853027344
2512,132.210418701171875
2513,-19.83078765869140625
2514,104.90628814697265625
2515,-84.04927825927734375
2516,2.7188146114349365234
2517,0.4087441861629486084
2518,151.934722900390625
2519,80.88849639892578125
2520,109.28142547607421875
2521,94.23900604248046875
2522,-70.225799560546875
2523,-43.313350677490234375
2524,-227.06072998046875
2525,230.8438720703125
2526,-6.6985845565795898438
2527,-36.62781524658203125
2528,231.6070556640625
2529,-9.1887521743774414063
2530,39.912235260009765625
2531,68.123382568359375
2532,24.781854629516601563
2533,-22.946535110473632813
2534,57.442325592041015625
2535,83.16371917724609375
2536,3.2729198932647705078
2537,64.55560302734375
2538,12.648725509643554688
2539,42.291416168212890625
2540,-60.89220428466796875
2541,-2.8149371147155761719
2542,-57.003345489501953125
2543,223.1770172119140625
2544,85.81320953369140625
2545,9.6929807662963867188
2546,-30.792078018188476563
2547,-21.329029083251953125
2548,23.223527908325195313
2549,-0.92521804571151733398
2550,-110.4100494384765625
2551,95.61171722412109375
2552,-8.8143100738525390625
2553,6.2652754783630371094
2554,211.593780517578125
2555,-27.88809967041015625
2556,-29.87978363037109375
2557,-51.982051849365234375
2558,117.48708343505859375
2559,2.4658145904541015625
2560,-160.4798431396484375
2561,5.7937893867492675781
2562,-2.0258877277374267578
2563,1.8315966129302978516
2564,50.02008819580078125
2565,8.2779674530029296875
2566,-13.23589324951171875
2567,-14.499837875366210938
2568,-34.528598785400390625
2569,206.441650390625
2570,161.51849365234375
2571,-1.6975632905960083008
2572,-82.4899139404296875
2573,-11.75311279296875
2574,39.08795166015625
2575,-47.740520477294921875
2576,-0.60783666372299194336
2577,70.3641510009765625
2578,-66.425628662109375
2579,-42.28907012939453125
2580,41.602947235107421875
2581,13.206509590148925781
2582,26.175050735473632813
2583,-100.46445465087890625
2584,-22.712871551513671875
2585,-52.04459381103515625
2586,75.210113525390625
2587,245.6100006103515625
2588,-61.05968475341796875
2589,0.78921216726303100586
2590,4.1614675521850585938
2591,157.031463623046875
2592,-27.49259185791015625
2593,-45.7095794677734375
2594,-21.216949462890625
2595,-21.659547805786132813
2596,-49.545711517333984375
2597,-166.515625
2598,-34.450222015380859375
2599,-34.676738739013671875
2600,103.78951263427734375
2601,88.395294189453125
2602,-8.8839616775512695313
2603,-3.1332151889801025391
2604,31.745502471923828125
2605,101.3213348388671875
2606,-26.081277847290039063
2607,6.0591521263122558594
2608,24.96878814697265625
2609,-1.4955732822418212891
2610,-6.2235870361328125
2611,-28.444683074951171875
2612,69.11212158203125
2613,16.40897369384765625
2614,96.41301727294921875
2615,39.28156280517578125
2616,46.457061767578125
2617,8.340541839599609375
2618,46.29032135009765625
2619,-77.95943450927734375
2620,16.899396896362304688
2621,-37.52747344970703125
2622,-46.118618011474609375
2623,-50.0228729248046875
2624,114.94052886962890625
2625,1.8657239675521850586
2626,38.4809417724609375
2627,83.3773193359375
2628,-20.08559417724609375
2629,-28.087764739990234375
2630,-11.817417144775390625
2631,33.394023895263671875
2632,3.8186156749725341797
2633,-10.212375640869140625
2634,39.704250335693359375
2635,7.2137537002563476563
2636,19.333446502685546875
2637,50.08282470703125
2638,-82.74517822265625
2639,82.0746002197265625
2640,-165.05596923828125
2641,-8.879451751708984375
2642,-57.5991973876953125
2643,-63.8773651123046875
2644,15.67215728759765625
2645,-2.1211605072021484375
2646,104.55144500732421875
2647,-7.874691009521484375
2648,61.478282928466796875
2649,24.505298614501953125
2650,187.8067169189453125
2651,76.138946533203125
2652,-33.375446319580078125
2653,-46.633441925048828125
2654,71.734771728515625
2655,10.767441749572753906
2656,15.719598770141601563
2657,94.67977142333984375
2658,-0.055502936244010925293
2659,244.2174072265625
2660,8.156139373779296875
2661,19.289453506469726563
2662,40.304065704345703125
2663,28.471387863159179688
2664,-20.214588165283203125
2665,-8.151355743408203125
2666,-16.207807540893554688
2667,-54.62912750244140625
2668,10.779700279235839844
2669,18.42728424072265625
2670,63.007778167724609375
2671,52.04532623291015625
2672,-36.284332275390625
2673,27.447141647338867188
2674,-1.0126004219055175781
2675,146.1641998291015625
2676,10.210274696350097656
2677,29.267904281616210938
2678,27.50113677978515625
2679,-2.5316438674926757813
2680,-18.644317626953125
2681,42.701335906982421875
2682,54.617633819580078125
2683,18.069713592529296875
2684,58.408969879150390625
2685,-18.870969772338867188
2686,134.6666259765625
2687,-16.907678604125976563
2688,-80.7758941650390625
2689,-9.4256591796875
2690,-5.1018815040588378906
2691,62.2487030029296875
2692,105.12502288818359375
2693,-73.1435546875
2694,-18.8244781494140625
2695,-11.071843147277832031
2696,142.488861083984375
2697,27.365560531616210938
2698,-1.1675668954849243164
2699,54.2618255615234375
2700,63.68019866943359375
2701,89.80701446533203125
2702,13.871718406677246094
2703,-3.5328450202941894531
2704,44.116718292236328125
2705,-2.7640755176544189453
2706,-17.089410781860351563
2707,18.047931671142578125
2708,-38.939502716064453125
2709,23.409811019897460938
2710,16.818803787231445313
2711,-25.384222030639648438
2712,33.43186187744140625
2713,166.49395751953125
2714,-108.9940948486328125
2715,61.72812652587890625
2716,-10.654267311096191406
2717,12.991044044494628906
2718,47.351665496826171875
2719,29.317831039428710938
2720,38.194248199462890625
2721,45.9880828857421875
2722,35.488033294677734375
2723,-46.687404632568359375
2724,-3.5787787437438964844
2725,19.1910552978515625
2726,73.27056121826171875
2727,-45.445430755615234375
2728,-57.413219451904296875
2729,-4.0132966041564941406
2730,156.5495147705078125
2731,-18.5956878662109375
2732,24.82889556884765625
2733,-17.912174224853515625
2734,39.046504974365234375
2735,26.811449050903320313
2736,99.0648956298828125
2737,-60.33343505859375
2738,-24.08065032958984375
2739,42.427036285400390625
2740,-16.117898941040039063
2741,14.085423469543457031
2742,-20.693943023681640625
2743,-52.95172882080078125
2744,-54.2230224609375
2745,14.460337638854980469
2746,12.994564056396484375
2747,-86.83406829833984375
2748,2.7852158546447753906
2749,-12.977655410766601563
2750,-48.0450897216796875
2751,20.117490768432617188
2752,25.975221633911132813
2753,1.612065434455871582
2754,-12.537929534912109375
2755,5.4375219345092773438
2756,-11.035039901733398438
2757,65.70072174072265625
2758,32.67476654052734375
2759,4.6025872230529785156
2760,-9.3496952056884765625
2761,-6.103565216064453125
2762,-31.203662872314453125
2763,19.384019851684570313
2764,-71.7572021484375
2765,-71.23748016357421875
2766,63.3853912353515625
2767,-74.3880462646484375
2768,103.88039398193359375
2769,85.88824462890625
2770,-21.79355621337890625
2771,-14.441461563110351563
2772,-7.5423269271850585938
2773,-45.6580047607421875
2774,11.562501907348632813
2775,46.5577545166015625
2776,-7.52164459228515625
2777,28.497547149658203125
2778,-48.356754302978515625
2779,-62.7512359619140625
2780,-11.172998428344726563
2781,-20.812585830688476563
2782,44.0437164306640625
2783,45.713348388671875
2784,-100.483489990234375
2785,-39.406764984130859375
2786,4.73726654052734375
2787,20.25946044921875
2788,-16.36391448974609375
2789,38.385223388671875
2790,19.76845550537109375
2791,16.807758331298828125
2792,-45.87023162841796875
2793,-19.17057037353515625
2794,-77.24897003173828125
2795,-56.404216766357421875
2796,-42.31848907470703125
2797,25.994066238403320313
2798,23.002023696899414063
2799,5.2239551544189453125
2800,-26.441888809204101563
2801,-162.2644195556640625
2802,27.638561248779296875
2803,-3.6321938037872314453
2804,15.296227455139160156
2805,-84.52341461181640625
2806,-3.6983442306518554688
2807,2.4057748317718505859
2808,-11.666363716125488281
2809,-16.649600982666015625
2810,-3.7052738666534423828
2811,-115.74079132080078125
2812,-16.074947357177734375
2813,23.718120574951171875
2814,-47.8028411865234375
2815,-38.0457916259765625
2816,-12.108053207397460938
2817,26.693758010864257813
2818,-23.155961990356445313
2819,-21.34337615966796875
2820,-30.06891632080078125
2821,-9.2953214645385742188
2822,10.101636886596679688
2823,-4.325382232666015625
2824,131.6125640869140625
2825,-68.6750335693359375
2826,-0.15739735960960388184
2827,84.6648406982421875
2828,32.341182708740234375
2829,-33.146419525146484375
2830,-119.345611572265625
2831,67.63091278076171875
2832,-16.224420547485351563
2833,189.140289306640625
2834,154.202239990234375
2835,21.260530471801757813
2836,-18.844148635864257813
2837,64.87538909912109375
2838,-33.09503936767578125
2839,-18.893842697143554688
2840,-1.8605554103851318359
2841,39.5923309326171875
2842,-55.28975677490234375
2843,19.078258514404296875
2844,20.948816299438476563
2845,16.336400985717773438
2846,92.606048583984375
2847,76.78424835205078125
2848,41.293155670166015625
2849,9.2621593475341796875
2850,-16.023027420043945313
2851,52.001556396484375
2852,-66.408782958984375
2853,9.7503480911254882813
2854,10.370848655700683594
2855,112.11502838134765625
2856,-21.36573028564453125
2857,99.61702728271484375
2858,61.361621856689453125
2859,11.402728080749511719
2860,-9.529872894287109375
2861,11.787283897399902344
2862,-81.03102874755859375
2863,156.5934600830078125
2864,54.537822723388671875
2865,-81.82909393310546875
2866,-23.206785202026367188
2867,38.5582733154296875
2868,9.1915607452392578125
2869,41.919658660888671875
2870,6.66997528076171875
2871,13.266737937927246094
2872,19.835550308227539063
2873,-73.53730010986328125
2874,-52.166568756103515625
2875,30.645660400390625
2876,168.9160919189453125
2877,1.5928014516830444336
2878,-36.856670379638671875
2879,-52.369503021240234375
2880,73.9316864013671875
2881,-27.91118621826171875
2882,-55.749713897705078125
2883,55.062969207763671875
2884,91.8856964111328125
2885,-106.13559722900390625
2886,126.48053741455078125
2887,5.9629049301147460938
2888,3.207798004150390625
2889,5.5289440155029296875
2890,-43.6779632568359375
2891,59.865932464599609375
2892,-3.9592640399932861328
2893,12.21303558349609375
2894,-16.77135467529296875
2895,-70.65518951416015625
2896,-165.3549041748046875
2897,-2.4060657024383544922
2898,-9.6341581344604492188
2899,-22.426586151123046875
