Id,y
10000,-66.002423490230996
10001,451.40650440115655
10002,-461.67641706030099
10003,40.501208753722153
10004,-126.74472245403642
10005,-342.53455181925108
10006,-396.55554211359026
10007,335.5412790790881
10008,-99.512420870623316
10009,304.81253980627628
10010,68.894530489785495
10011,412.36919545590769
10012,54.942371024767908
10013,-17.005550754779392
10014,-597.84995757226181
10015,443.5022887864161
10016,144.77448697804448
10017,-57.411163672536361
10018,134.38782757745969
10019,-108.98377598910881
10020,153.82482842506707
10021,611.73598360220319
10022,588.38965033842283
10023,-131.01679995802024
10024,-61.135621141230018
10025,-374.24849531697441
10026,74.157993079654148
10027,137.43837873610531
10028,420.08661179679041
10029,196.76562571344226
10030,268.44284980053163
10031,638.47491025110958
10032,127.37873138692112
10033,1.3491187584001665
10034,22.710453177409164
10035,342.23953452256569
10036,307.70396697417277
10037,348.138208700939
10038,-168.65286130735484
10039,-20.221130904616928
10040,-551.74992757311315
10041,-429.97180406674022
10042,261.89195870674507
10043,389.82042612922203
10044,-96.165622273565447
10045,-210.71080125632375
10046,278.88186878401069
10047,-427.45330103105056
10048,-172.90325291756631
10049,467.26437835578827
10050,-631.55873558743951
10051,-355.53165933818059
10052,143.17327553860446
10053,69.199202598942605
10054,275.58827397672559
10055,-263.1886122041023
10056,167.4983072324134
10057,104.57789589014305
10058,230.07008661007538
10059,20.98802664457628
10060,-4.8225812625014441
10061,-201.92294081063739
10062,560.06392656577111
10063,55.288476252449598
10064,671.30157469183644
10065,-493.74873828522925
10066,-279.35303673259295
10067,-53.712527613149177
10068,379.69819550097583
10069,315.07141085798094
10070,169.13001732614407
10071,-271.59930326901252
10072,783.80222267503495
10073,44.5773115155488
10074,57.406780054576544
10075,-161.07827414306763
10076,-220.66957847885809
10077,223.24129442929211
10078,352.66559554375385
10079,13.163291366265383
10080,-461.99414698573094
10081,305.37214669142287
10082,-230.59656173861231
10083,359.07444324254465
10084,-430.26056337592229
10085,-115.5488220554607
10086,-88.960063878673893
10087,-488.2901898080425
10088,-139.35033854713518
10089,57.338808108526791
10090,-190.33624272166469
10091,-6.5080929148246867
10092,189.29107774701845
10093,346.60367818565504
10094,871.62732064859017
10095,-147.0135373865383
10096,443.48993777943042
10097,-30.498432974436554
10098,185.46345753446062
10099,-119.91717151732927
10100,43.575238001806895
10101,58.318571552245373
10102,-197.15246829839774
10103,-70.471606788412373
10104,-342.84605328866826
10105,-29.233589873717193
10106,49.522929296104081
10107,-16.246144137913618
10108,33.775069261607129
10109,-68.883077483240982
10110,25.863399493697315
10111,-617.31428427169635
10112,-185.90441301194971
10113,323.78310610938638
10114,-35.662195722128004
10115,-733.52977116138538
10116,-240.73856264736216
10117,-381.97314662424981
10118,75.319944621695242
10119,36.61032645911925
10120,-28.756270225022689
10121,-481.16062796858819
10122,408.85023042298877
10123,-765.02174719916457
10124,178.07269651636963
10125,-7.6498793856737564
10126,134.79684623375925
10127,-477.45851421287142
10128,-248.70625301323608
10129,-361.88465722386411
10130,-18.755611748553861
10131,7.7956043744353565
10132,-109.1059897253829
10133,-63.073745242193823
10134,591.8231837349158
10135,259.61263369662737
10136,-279.86583200876811
10137,93.22535940051867
10138,-427.28731541913623
10139,84.386566330897381
10140,-311.54463064415484
10141,11.419268612562419
10142,-297.83146842358622
10143,-331.92897096864306
10144,656.01323052573173
10145,-476.66268136505363
10146,361.19404513377629
10147,-150.1852686119235
10148,299.94671902432327
10149,-191.72143219270902
10150,151.94999511612042
10151,-64.672757815763759
10152,351.24486163063381
10153,-370.63644575627347
10154,349.22498178611204
10155,273.52460961680163
10156,783.19718431968863
10157,-124.23788973574077
10158,-155.2200443299086
10159,-506.9556493864103
10160,201.693212385615
10161,-415.17405715963622
10162,-348.16510516956487
10163,-201.95224108680918
10164,-658.95044705333817
10165,179.34640168171558
10166,124.06925816168751
10167,-209.15025355201848
10168,213.70513477400635
10169,-82.117210238089569
10170,-97.110269897266818
10171,124.26800574648146
10172,50.28991565714216
10173,538.74395928133742
10174,630.017534554338
10175,217.25927782654469
10176,-491.73374132670801
10177,-131.14175113883238
10178,362.3930224172949
10179,-14.36303805540777
10180,-30.261757361676132
10181,-107.3235807672998
10182,-334.06259292967206
10183,299.50639964643318
10184,-103.47221484505293
10185,179.82049946719525
10186,122.20070887900711
10187,86.580371616905552
10188,386.48256056699256
10189,-613.36117450458255
10190,-269.81638738346356
10191,260.73145126228621
10192,-44.620161280426672
10193,-159.15717576416944
10194,-145.24559879357537
10195,447.22821487600265
10196,476.35698596959605
10197,121.79421345327205
10198,-1.5356790561054936
10199,410.7440965387828
10200,90.82809979964884
10201,150.07336956845148
10202,24.033652961547062
10203,273.88663405363184
10204,-154.52926038025117
10205,42.588901507065771
10206,617.34170631685731
10207,38.939360761429995
10208,-91.436101194905291
10209,225.35327477391147
10210,151.05827577085597
10211,-86.916647736460348
10212,-101.71788958007363
10213,161.93776502605562
10214,357.87041410354641
10215,32.145978186553776
10216,-379.14539920029284
10217,-165.94213222367301
10218,257.45392169454101
10219,-124.83850779184121
10220,47.084514722992083
10221,-67.050651389801601
10222,287.1733441341641
10223,836.26742777016398
10224,-78.733292602057446
10225,-293.00922915219314
10226,284.9163264622569
10227,377.9514320082281
10228,-473.94261958972436
10229,-538.80945497660559
10230,-372.90475040318643
10231,-83.377008899688065
10232,157.46205951911293
10233,167.50291456150973
10234,-105.69040574319641
10235,561.16168791762948
10236,-149.35531895746763
10237,196.96680512352231
10238,-33.819911727579154
10239,5.1994198823380771
10240,-121.7084229606325
10241,53.473579817379076
10242,531.29189384112681
10243,-157.60262258937519
10244,-183.77196239261187
10245,643.83224642566279
10246,17.78030601012992
10247,-92.079397194602876
10248,485.49316460507498
10249,-221.23657860793966
10250,490.60650504846217
10251,-43.677159154251399
10252,139.93322987117699
10253,207.50447442761171
10254,17.092647024360645
10255,-396.47203316052958
10256,-168.30166761529108
10257,-75.593241001244166
10258,-292.07350780077013
10259,-59.373665346633942
10260,247.36904706438497
10261,206.83112758185797
10262,17.46246446408081
10263,-181.81148500657002
10264,300.1761509454866
10265,-567.63872479558995
10266,311.59327285263419
10267,-9.9295118354911551
10268,161.40782304547824
10269,272.38559922972377
10270,55.122457419425984
10271,-15.278267412197186
10272,286.4023019429041
10273,387.88861194347601
10274,-148.57888863638803
10275,171.95235244839569
10276,-411.57059222267964
10277,213.80253827075202
10278,133.93002437371672
10279,-99.017177501241036
10280,-162.41724224558342
10281,-39.074190113479119
10282,-295.15845218324057
10283,141.32481354359481
10284,163.05983005334696
10285,-55.455401462418109
10286,-145.74067609352142
10287,16.350462436354832
10288,-364.29855848282909
10289,558.66301873767407
10290,40.05066121900802
10291,67.637345042969685
10292,559.84008465546742
10293,469.80694715741538
10294,-149.49980105452971
10295,-328.82278669969742
10296,425.77131704667488
10297,85.504662411795152
10298,-166.91553705585039
10299,-662.2984070393511
10300,50.280391653004159
10301,-11.355718332962752
10302,-451.8112644495306
10303,78.672833134131309
10304,-386.8187999173573
10305,-273.22738305237158
10306,352.01504544002296
10307,-263.84804091810253
10308,-214.73022299361318
10309,-84.881154897384135
10310,745.88327912542422
10311,-418.97510845227305
10312,739.19912516619672
10313,-469.07742635294881
10314,481.82984486567256
10315,363.20797478744186
10316,-270.25304182071943
10317,-399.5921247161325
10318,234.45728030706391
10319,-38.734693570325703
10320,238.36874871850654
10321,28.697441990182483
10322,238.23095785965199
10323,-130.00744030000169
10324,-681.29456177885163
10325,61.580652959541908
10326,-444.92985067096009
10327,-14.713208392841807
10328,680.4767823428574
10329,288.73260649376346
10330,839.97049015567347
10331,416.65747651917928
10332,167.35603728915595
10333,-86.779537867070047
10334,332.76996760043789
10335,-201.33443093425362
10336,-43.625082987841154
10337,-107.9023777960968
10338,-284.03573802517116
10339,232.60855717832536
10340,237.83315171539985
10341,74.39980567720346
10342,255.51770406364636
10343,-168.64961928561053
10344,68.563346016289756
10345,-365.44198172526148
10346,189.70649886094674
10347,-369.83324976670849
10348,-250.90024390237835
10349,76.313550196232072
10350,-344.94550923377687
10351,-187.42339326812527
10352,482.16975698252253
10353,125.75266972886044
10354,450.69194375218535
10355,216.17619018208282
10356,34.341935719304438
10357,57.511455961215191
10358,-211.41949894712815
10359,49.762491809493177
10360,76.11104020758458
10361,-29.196254490440602
10362,33.04895852873824
10363,364.56271216310046
10364,234.48280987315147
10365,-21.796554859088758
10366,-476.93787704780016
10367,43.567658993047317
10368,-310.95721366516841
10369,-46.941116226036684
10370,181.19558107133554
10371,-214.96242982007209
10372,-80.227060315220626
10373,841.20822916573616
10374,102.3567870858702
10375,37.29773804688206
10376,77.398182759602378
10377,435.79452149369331
10378,111.39479265155745
10379,-128.829224153876
10380,573.05012105839762
10381,48.60246807791043
10382,-68.554146592189682
10383,56.681624505830584
10384,-360.30993199944169
10385,131.90192283450446
10386,-264.5258976334311
10387,-378.79324972499319
10388,-190.0992925997667
10389,862.9152130409625
10390,159.57649666230986
10391,514.02046358014593
10392,61.387667803406643
10393,720.87589583265867
10394,-450.97673103980304
10395,105.89444211999751
10396,-27.532603044002258
10397,-23.435561966769491
10398,331.20599829494552
10399,-156.02456394824125
10400,0.94770183855991519
10401,17.232405165319605
10402,143.2390841702121
10403,53.226451390746305
10404,41.013349269793991
10405,-129.39255146834773
10406,430.91652104593118
10407,-427.90961965735909
10408,49.11400485209154
10409,-221.64758038918728
10410,-313.75971218685117
10411,115.24452244707021
10412,96.100972044535922
10413,-399.91598494242089
10414,-8.4114079235628054
10415,733.18413243746886
10416,-332.42676649165185
10417,83.67612042194304
10418,339.79274865544301
10419,-35.11570131451424
10420,38.204335433877873
10421,-606.1984890559329
10422,194.2728533894628
10423,155.03155116158291
10424,-111.25647787348518
10425,-63.339371636515949
10426,403.93581872896482
10427,690.91943033585972
10428,75.781299436450269
10429,-340.31540652357722
10430,-195.76159542697783
10431,40.445138708756019
10432,-137.65418796029303
10433,-95.674796589545025
10434,290.84353787250296
10435,568.46468134727957
10436,351.21865075407425
10437,194.71516658168281
10438,-312.15084208719281
10439,-518.31078687244849
10440,-80.751580480612446
10441,-109.91053830578414
10442,491.41083647519753
10443,371.48514486049424
10444,343.85664466843514
10445,114.60785397368532
10446,-315.20442190988194
10447,83.103965093071423
10448,-82.599151017739757
10449,-182.21902722527565
10450,-294.91729245130557
10451,-294.21055531487013
10452,611.54704173565335
10453,-34.756134103593467
10454,-115.04157690057832
10455,263.27933790237478
10456,346.05651209283843
10457,194.61161526910988
10458,257.3561496384948
10459,-303.20809492711521
10460,-173.19591085706043
10461,-88.539834485785732
10462,137.60161200011098
10463,337.04864927806523
10464,155.72523460362697
10465,-250.29079290523765
10466,148.0634001514357
10467,333.68218860937964
10468,-260.33639238342573
10469,340.30790922791499
10470,224.68535571269553
10471,-607.27971706193159
10472,-54.859592940919356
10473,-685.09108172584388
10474,268.25827077859509
10475,108.79743563388465
10476,-233.16761717272072
10477,115.89088157850158
10478,75.288754614984668
10479,312.58695394034254
10480,78.425907046795146
10481,-509.63079643958241
10482,142.15294578474604
10483,-567.60967445988422
10484,99.197844110131925
10485,181.76569364681012
10486,-27.407098394358744
10487,-646.8210508159749
10488,-261.6328162503001
10489,-398.87688919781658
10490,-259.41075205618353
10491,-252.05740356799171
10492,-25.64796722733054
10493,-479.35794942314328
10494,109.91068619021948
10495,161.94257969113985
10496,-436.80717423975545
10497,-66.012204422566953
10498,-73.605382654072159
10499,51.002739446194184
10500,7.6096810321632233
10501,-38.390486731082291
10502,493.59597060692852
10503,-303.44908054448706
10504,285.36305876068656
10505,236.93082121946219
10506,-112.90288738209155
10507,-104.91639705404835
10508,70.110711720151642
10509,-334.4021807746185
10510,-526.15206135133201
10511,26.695126681540472
10512,16.62507687890573
10513,-282.62391868623945
10514,-156.76438922324797
10515,-368.70385240105668
10516,87.266983883975001
10517,9.621961449394405
10518,159.3385543339501
10519,737.83543619007332
10520,-63.525614896838619
10521,253.39234540406932
10522,-195.47926226047912
10523,-233.60406275700569
10524,672.04300276033132
10525,161.0264781163406
10526,-86.923885883781367
10527,767.44993763178798
10528,300.14345470154319
10529,-264.63326212053107
10530,506.80692249836727
10531,413.73257578606251
10532,-227.95565420458558
10533,270.72182191824913
10534,166.27214538843231
10535,467.83594699530107
10536,691.01419274133377
10537,-235.19550162577605
10538,-204.49475633783823
10539,235.56549902567014
10540,481.50822898950088
10541,-404.28637162617486
10542,499.63459887902184
10543,-280.42362428356086
10544,349.63535701277584
10545,56.279218559327717
10546,377.78382419955392
10547,58.23929412508275
10548,424.29981217464865
10549,85.800412441547536
10550,-252.99288852458869
10551,172.8678449550201
10552,-190.10660020571413
10553,306.9642865236687
10554,-179.11766493342193
10555,-155.77590494004937
10556,-208.75257057910881
10557,-257.42597802041882
10558,-187.88708045784406
10559,178.95968589802948
10560,769.29942460676625
10561,131.45400495646155
10562,-86.336058477255364
10563,-440.78969412879826
10564,522.2063378416924
10565,74.260445370590276
10566,-273.34519080824708
10567,23.88548320272173
10568,-140.88619011673785
10569,337.44189332546534
10570,63.425120244029586
10571,-78.121043605640253
10572,-209.41596150610613
10573,-354.3022169957909
10574,261.54958940727317
10575,252.78475303502208
10576,415.33279349639974
10577,-341.41062177496281
10578,-101.54306561728967
10579,-82.980037344346442
10580,-146.19185945083001
10581,-400.957009508851
10582,114.6881016153084
10583,-318.40944917284116
10584,-27.128651113149658
10585,253.39206355032377
10586,-15.161597235910392
10587,490.27631015669709
10588,67.160554155160128
10589,-583.65363016066476
10590,566.82922278088381
10591,-659.78402061134307
10592,-280.34458657663248
10593,-618.48495760346555
10594,-403.08152177208274
10595,52.580795867776132
10596,154.13724781790586
10597,-187.18724588646415
10598,45.064322864018038
10599,389.86980245897649
10600,497.494427700975
10601,-172.60466145696927
10602,-199.48804830691151
10603,146.33213540458766
10604,-745.9314211823671
10605,-230.93578234679723
10606,-157.73768823510517
10607,170.55585672160868
10608,58.528195791273731
10609,21.778235377083377
10610,-33.845432388595974
10611,527.01153214501733
10612,370.35979324782068
10613,-83.7088492933662
10614,-297.86678182751825
10615,379.63004164090552
10616,-194.49981867886456
10617,-59.081154239242522
10618,-59.05074145608711
10619,-265.79533104064274
10620,-488.32421484496371
10621,-28.133316815097629
10622,-110.89724251663822
10623,642.51981987431486
10624,-25.104958245575034
10625,368.27465472014546
10626,274.79921352704184
10627,416.52612933638613
10628,110.57324867984379
10629,561.37835205216834
10630,497.14376211577763
10631,-201.60987734450902
10632,-370.05229826158916
10633,731.05737242360044
10634,-380.13707915517023
10635,-200.60251550520871
10636,272.08601189375554
10637,269.84058991076353
10638,-243.56399508534662
10639,-80.642094345869097
10640,-467.97701289855701
10641,384.10330917171245
10642,-158.51464076438364
10643,-321.14290897908074
10644,-72.307098121582342
10645,244.89650104863148
10646,-111.76687989927554
10647,-71.303541616286509
10648,-97.149005345139301
10649,387.99285294446338
10650,134.07976082545474
10651,-372.72453971834454
10652,-153.897348914107
10653,376.05572467830746
10654,-45.066999727281839
10655,29.111024201615642
10656,-164.38841371392499
10657,291.3802875570243
10658,-389.64290898924628
10659,-145.45381366072871
10660,276.5061419927257
10661,-134.09381091718885
10662,82.948111554812243
10663,143.77337061052725
10664,230.85377823040864
10665,649.89804699134856
10666,188.10011410399193
10667,170.77221614376123
10668,-533.84748447904917
10669,-516.13496882537061
10670,-356.78697467216682
10671,480.90374320564899
10672,-54.535992961674438
10673,-272.66057204038151
10674,-89.163693419768208
10675,-97.400040824958438
10676,-264.29803775062669
10677,-558.85167596104247
10678,-18.223173989822115
10679,238.68337858797881
10680,-107.49682687897777
10681,-439.73714969227376
10682,-366.08737762045081
10683,540.47440229190261
10684,-335.91922953998858
10685,128.98481364662487
10686,-360.46505927788348
10687,-211.01458656819972
10688,115.70383605399638
10689,-723.63335622477371
10690,380.89392210560902
10691,24.30096980575609
10692,-145.38761452741062
10693,-157.28295617853959
10694,134.10336003672904
10695,215.95710077116092
10696,-310.20616373438941
10697,18.01888369384298
10698,-287.16969472966088
10699,-244.82888943623868
10700,-126.15190632103054
10701,-276.85103369720196
10702,-63.902823195383576
10703,-268.29074198436706
10704,80.990606187076295
10705,135.49197649147985
10706,265.86171737073454
10707,290.15338931857525
10708,72.857507069875908
10709,-88.645018382844526
10710,-562.52380170861079
10711,-257.96859166459222
10712,-88.32818773227639
10713,-608.90489135457926
10714,16.648129846866453
10715,-117.99664144508981
10716,244.48813585825101
10717,60.961320646526993
10718,640.85047261142802
10719,15.073592658662832
10720,135.00644430477314
10721,39.523374533232186
10722,86.445605741342064
10723,20.337654615456238
10724,217.44242023198183
10725,-8.5748459902467005
10726,172.3975873173992
10727,-326.00374877328909
10728,347.5813407240388
10729,128.95803909114485
10730,-379.75008861295436
10731,-134.70695705662442
10732,153.56888514342597
10733,-72.122786088970287
10734,183.30848830572626
10735,-456.53877619137882
10736,152.2753016259972
10737,-20.658280599071361
10738,245.62232835465903
10739,776.40097282335728
10740,-320.14345296022384
10741,-479.31970828477938
10742,-69.754348602908891
10743,-372.01045319605316
10744,397.28224738180978
10745,94.972930251539822
10746,-545.87009398497844
10747,92.717330848033754
10748,456.62324679869846
10749,140.33519629203903
10750,-542.61678450344289
10751,33.256178473054675
10752,237.54555311936676
10753,-260.51478060377411
10754,-227.74117804894618
10755,-18.37420794464407
10756,357.23207935778908
10757,234.16866322379539
10758,309.04949086471652
10759,109.41620907267816
10760,297.04627719533926
10761,431.2827186897739
10762,-285.90275415168344
10763,-461.12318506056369
10764,458.84116852029371
10765,-35.132478657934257
10766,-138.96677867278021
10767,435.87811135413938
10768,-327.55173248124453
10769,-16.175842225600405
10770,32.687383150971982
10771,-143.11036093613424
10772,-82.911637968192849
10773,-26.395849579087255
10774,-295.90654248376961
10775,-300.94455130927787
10776,-157.03746176056524
10777,-444.10542517056797
10778,55.542959233744853
10779,136.0957334337383
10780,-59.93423441413816
10781,774.78693935585625
10782,-291.82146940254285
10783,449.65451335805199
10784,-231.20082491305359
10785,88.180588404051591
10786,511.68238161594462
10787,27.698913991853573
10788,69.719003430785023
10789,-684.03042867481986
10790,-181.16575418910924
10791,-592.28568353162734
10792,-326.37230449136899
10793,527.57395543133873
10794,-175.98223228892462
10795,555.32732432624937
10796,-40.062192569476707
10797,-242.90961184425754
10798,466.47500983220914
10799,209.72657821779913
10800,112.4739902863374
10801,655.95970921127355
10802,-253.67288201365628
10803,-143.14006436902713
10804,261.90903344912641
10805,-51.4305246209898
10806,-646.53437149312299
10807,-114.11730645512955
10808,126.14931118007996
10809,204.59346285899525
10810,-300.39361365831382
10811,-415.68674588954082
10812,6.4491528842809345
10813,72.801077774828471
10814,160.66087208145245
10815,249.3116892918168
10816,-248.28534524656308
10817,7.8306299226122889
10818,-466.3838270166583
10819,290.15144404460204
10820,-309.03320656334
10821,528.69166119562669
10822,372.49384793225516
10823,-328.0862663096861
10824,-94.658734077251964
10825,55.569194140457192
10826,67.343824190316553
10827,-533.66838124913238
10828,-128.10863350344863
10829,-542.99485844641868
10830,54.634639672581926
10831,182.66043483267936
10832,-41.29948573089105
10833,652.81276339173723
10834,-336.9657807378897
10835,99.962820197738466
10836,811.79001633670919
10837,-346.2521160653011
10838,103.69087960098415
10839,487.73608126333278
10840,120.89569101399134
10841,-324.32967405437159
10842,-136.41212971214998
10843,-41.924430030977106
10844,282.7029865802354
10845,345.62032897020572
10846,124.69798534752286
10847,-206.11335283373427
10848,155.93998583213988
10849,-443.76722994338735
10850,-273.34300340059542
10851,195.95033081854601
10852,-30.69004085140017
10853,86.567786598155095
10854,-312.21136188949595
10855,41.005246961458312
10856,307.67518019994924
10857,532.90594942140558
10858,260.16168056338086
10859,362.00550753373756
10860,101.3289812019695
10861,38.441296139894419
10862,20.267674753902952
10863,117.44024988074662
10864,573.6911827078568
10865,-507.59205851450093
10866,-211.76962671045661
10867,-78.399897404281433
10868,-319.57376765957378
10869,-267.44656441833484
10870,-780.85703196762518
10871,50.229980556444318
10872,-298.54901081716804
10873,23.392386523116642
10874,-76.29059741014666
10875,-257.59747046425559
10876,171.56436509796544
10877,-121.60078316249103
10878,-451.37377685543174
10879,81.135338842683069
10880,-212.55249317142565
10881,-3.5349272290961551
10882,-408.25548100018551
10883,-158.65133194465852
10884,238.39834201613036
10885,-133.03572327369588
10886,-266.0840826060645
10887,247.74270438194856
10888,347.96654428323768
10889,-511.31524281086803
10890,21.815871215019619
10891,-163.8414096422915
10892,-472.56083639704764
10893,-365.00826715123475
10894,272.43713793224003
10895,92.373763748916531
10896,491.80814568465263
10897,-200.03605813580788
10898,144.31490824987534
10899,-554.35805241999992
10900,-449.35755789415737
10901,565.01548017996095
10902,446.31875807462302
10903,309.69738818741268
10904,282.92794140774913
10905,176.19762818996855
10906,-315.14185176038228
10907,612.33779311529645
10908,274.25223124773225
10909,-19.436173058565515
10910,404.62544777052517
10911,47.266481426984797
10912,101.89624080960485
10913,98.148095627780094
10914,-231.35258244372451
10915,136.33612319164237
10916,-150.31005926795029
10917,461.19954997878853
10918,145.6901588842739
10919,-405.8237418755574
10920,-405.5525658750953
10921,213.67394365056208
10922,-204.80364027314425
10923,-118.57063791050882
10924,675.2302648290738
10925,145.16198786853573
10926,489.6870020199641
10927,-173.76557459369414
10928,89.691684652836642
10929,239.0117915423096
10930,-68.180000686599385
10931,93.666775615132764
10932,-196.55301722008889
10933,-711.75344472009363
10934,-104.15023991149073
10935,55.730039501228859
10936,74.240350584786228
10937,625.74959087690547
10938,234.98688486875551
10939,221.59294793875725
10940,61.931591756795427
10941,239.73644833443689
10942,-21.338081818318543
10943,180.1647362970927
10944,14.918627995496792
10945,-374.86568834825238
10946,-397.51492885840361
10947,114.66690843216131
10948,-269.61622879894389
10949,0.13921221449257359
10950,-34.594846760694821
10951,72.734021226682586
10952,-188.80556313903912
10953,-365.53367192345439
10954,-67.595522554269365
10955,19.501170139178583
10956,212.78259013823271
10957,170.72284688263215
10958,48.756055882018188
10959,-239.44652279164643
10960,409.73820515518099
10961,399.86800565030916
10962,18.693100459976449
10963,165.76697195984394
10964,-124.3894534967103
10965,54.994523212785793
10966,640.4320745648688
10967,7.5787927355530655
10968,-265.04763041001189
10969,1.6927330910930891
10970,18.517133621266552
10971,-248.8516393016933
10972,106.86193154650812
10973,251.63914312091012
10974,133.83773953640747
10975,-358.26696137693034
10976,426.26144731763935
10977,71.978422469740622
10978,-322.08755962522008
10979,438.84026750159467
10980,-40.132114491342051
10981,283.80356865292629
10982,-487.90619533258354
10983,-86.933028252147267
10984,-470.85015109169194
10985,73.146482773151746
10986,-688.39009894080164
10987,392.47856756604227
10988,-328.6310374955392
10989,149.39160063469359
10990,321.79311476060542
10991,584.39308704506448
10992,206.75729570024944
10993,36.548225997008366
10994,-37.778285211188518
10995,-551.0517094651367
10996,-107.85120387757001
10997,-176.8060279535301
10998,-356.88949117318271
10999,418.41458411247896
11000,-26.1334960169807
11001,-213.90951362803241
11002,246.57978881987725
11003,-32.011024949712052
11004,-126.732588495828
11005,26.914491557618703
11006,198.92197376295263
11007,-18.84355441470813
11008,-119.51484607642556
11009,-389.90376053107502
11010,-149.50928607147858
11011,-308.96203021469569
11012,-478.77716041375322
11013,-616.72914125228044
11014,-25.890829611384902
11015,-133.17659031686458
11016,-633.05872522932225
11017,-32.263294745607112
11018,28.795819581694872
11019,-290.00132364066042
11020,-168.02496539200052
11021,-173.84102001974074
11022,107.27955415166227
11023,278.32878520700115
11024,164.73665181591355
11025,596.78601995061763
11026,737.78021771712349
11027,-57.044398703888
11028,-20.381913027885808
11029,193.11140830024692
11030,150.95242220368243
11031,-340.87792585586737
11032,207.55657024653777
11033,-27.674726125893031
11034,-146.95165736571172
11035,-121.88066829612762
11036,144.47950532989
11037,333.20953167889843
11038,-452.51312096804531
11039,-208.53684674422354
11040,265.84494752360951
11041,-86.196459500500737
11042,-456.01061792236442
11043,-377.73004720142814
11044,277.55668897045257
11045,-98.288165568642768
11046,-258.67741823285132
11047,508.51302164659137
11048,-27.829466767415227
11049,-397.83822522418711
11050,27.294231548041807
11051,55.460906962914393
11052,86.524439615026523
11053,-417.71826706416931
11054,265.07469217437051
11055,126.49537980057347
11056,-731.23379989334319
11057,26.768529070431626
11058,15.17242496547513
11059,603.14917705396147
11060,-68.510369085762363
11061,-630.15884973892662
11062,391.43989504517026
11063,191.26739771271201
11064,-82.799158898046542
11065,874.27983557168318
11066,130.10220965607888
11067,24.825257629839143
11068,10.015684555530584
11069,407.55355195098491
11070,184.93372244983641
11071,699.40134035508561
11072,12.874182171249942
11073,-569.79503120547633
11074,-60.618267530270685
11075,-96.589442925860538
11076,19.660708357385005
11077,30.225969050065686
11078,-107.06858214835715
11079,-23.448153023307839
11080,-16.563489755111618
11081,18.767317998588595
11082,145.95038182220725
11083,-428.10275660092202
11084,-158.17477611037179
11085,-44.378080896788887
11086,-411.29977054483084
11087,218.4210180820246
11088,141.24530784475212
11089,316.63475597059153
11090,93.680239825355017
11091,154.1640540256565
11092,-132.92025023591097
11093,-293.87357139530798
11094,485.30634558787494
11095,-271.22948150685437
11096,373.38314717843389
11097,-359.66959875632841
11098,-459.992304450696
11099,209.0536985232813
11100,46.740083514878521
11101,-767.89654359917927
11102,-153.96946682570604
11103,-66.68289246156769
11104,-15.944035080887829
11105,16.075984344999171
11106,157.03893670157385
11107,585.65786355929231
11108,-259.63810597939175
11109,264.48646669308658
11110,171.55865069952745
11111,182.06572554508506
11112,-336.88337336089364
11113,-403.23853870315133
11114,114.57772510795407
11115,161.8364434963899
11116,-628.0447010001069
11117,242.01175305538871
11118,362.86303611765345
11119,60.713706404244014
11120,-359.31123121326061
11121,-379.08187950572881
11122,237.8377849497893
11123,-293.41750913992377
11124,-397.4513792029806
11125,159.58885605132511
11126,365.03747521359605
11127,-720.61284648973685
11128,500.16486577148487
11129,-11.265810006162269
11130,-69.35501502523897
11131,250.86562155967886
11132,-169.30678540802523
11133,120.43720692692648
11134,-39.953157825393234
11135,-520.87906599974463
11136,-631.10610534537386
11137,-189.45128724586729
11138,73.57078736644354
11139,39.638131936282221
11140,-459.83743877510568
11141,4.029071723495548
11142,-197.44889965681531
11143,62.389742569148012
11144,-186.44535236927251
11145,-133.6082201956024
11146,305.02297895286404
11147,-46.022467592149177
11148,-42.28147598500685
11149,-174.61342313978355
11150,-221.81742427816533
11151,-177.58255371476662
11152,-1.6457791602112337
11153,92.195614728929286
11154,380.63664334812563
11155,5.1762855335082776
11156,-43.264137860359625
11157,138.56909768313164
11158,-644.23733997180625
11159,-264.05264854098152
11160,388.07711133595387
11161,-314.57550396753356
11162,68.595778853699926
11163,313.90250595867201
11164,-174.13638000550017
11165,75.245060917167848
11166,-48.300496534789453
11167,366.3281349305434
11168,-300.95317522451933
11169,52.295474972806524
11170,199.76450852884739
11171,-291.45213888117769
11172,-221.25525714195257
11173,-347.63373665011511
11174,-203.16973722566161
11175,-377.92297544460587
11176,-39.059901238720414
11177,-27.657708986922529
11178,-4.8400690110816527
11179,387.6931701816701
11180,173.07521100861482
11181,932.27040167897394
11182,-79.75948934966641
11183,140.83197737225078
11184,39.684029858127396
11185,443.52420804431381
11186,342.35994872023923
11187,-137.85795258406355
11188,596.33053049117348
11189,207.64692642350732
11190,-628.744469689727
11191,498.51770649884429
11192,-157.9392487400489
11193,351.10783976574271
11194,21.711333535599934
11195,-147.85882005549379
11196,204.57246274928065
11197,29.474618249412401
11198,121.43392964124453
11199,-565.61993538656725
11200,-229.61058695852887
11201,-46.804477108740556
11202,686.99934135048261
11203,-439.37600813835638
11204,-564.30678092622873
11205,-449.44523872061234
11206,-187.01337557795412
11207,63.71447075230779
11208,226.53217961128956
11209,-238.26195886607496
11210,8.0317526679673108
11211,-360.6886941851472
11212,-123.99311613868426
11213,-388.86461946300517
11214,21.02586263144687
11215,-301.50187125630407
11216,215.87740831289733
11217,403.51021004980134
11218,435.69760335692814
11219,-107.10092088372164
11220,186.04692078373739
11221,347.56948473980697
11222,258.81395911530365
11223,-431.37566148179297
11224,-169.35938198101996
11225,106.38668004304049
11226,11.406343347780677
11227,362.59620402956494
11228,-602.20735409114911
11229,707.55591844579487
11230,202.17491878205533
11231,-50.33711976765747
11232,-170.32942345325029
11233,-33.311370903950035
11234,194.42983492011652
11235,-358.58935096740902
11236,-212.26535326917815
11237,-291.42110382226406
11238,295.55761894971158
11239,-278.97338727308562
11240,23.653653300108971
11241,-64.463610906839619
11242,-550.51306724134054
11243,541.34326975247723
11244,95.063330411307561
11245,14.598207374632477
11246,108.60883519127054
11247,-390.97470911424443
11248,358.66641966090253
11249,-656.73737135463375
11250,39.62170404065057
11251,-112.10781397641702
11252,-3.9966181836034025
11253,-399.3487785294688
11254,-189.94215830266734
11255,25.705003254618163
11256,-514.34230905089589
11257,42.903388996473964
11258,-18.932652421567703
11259,-109.32309649965819
11260,-32.899091713945865
11261,-543.81200265385439
11262,402.37108703097101
11263,36.244315379427633
11264,228.30407580009395
11265,346.38302227713831
11266,-401.2227069906852
11267,54.057197731365321
11268,6.8622333480851694
11269,-3.8120805658918897
11270,-445.45149197388838
11271,162.0875187432693
11272,176.36752501387042
11273,-516.97198192843825
11274,189.99316009349144
11275,-164.45712796519311
11276,174.20994712832865
11277,-510.02977631488523
11278,174.78488510987131
11279,-352.74632432728436
11280,-145.46097708961665
11281,456.97186117066138
11282,-463.51489067262855
11283,-363.58427640439351
11284,-157.84808228490527
11285,-195.3606096202621
11286,152.04068775685801
11287,-197.09226766881778
11288,36.480965368720149
11289,993.22487797847157
11290,-387.02879318681596
11291,-6.6165108828031407
11292,-272.06886088584088
11293,-138.59954551010978
11294,-105.03944861260013
11295,-21.529524404723304
11296,91.05719915022965
11297,-65.791197149472254
11298,164.47287710093707
11299,-17.997827027465505
11300,783.88665971391583
11301,-339.23112472431387
11302,-196.48456361783613
11303,357.21849540968196
11304,186.31062521157025
11305,138.09410368403096
11306,-11.632461477738858
11307,175.80916373420501
11308,-224.61734983236198
11309,68.855796411867544
11310,201.21113139004029
11311,257.87114287716327
11312,-432.87055951729889
11313,-893.99980081843955
11314,671.86507846585914
11315,-143.37264919121836
11316,622.23865866628398
11317,179.38442629047412
11318,553.77440889190666
11319,133.39922116403778
11320,-278.76344183166634
11321,-316.62804095298407
11322,503.41566288266824
11323,282.68713599665824
11324,-192.34979075415325
11325,-266.50621593517383
11326,28.442092691972107
11327,-502.81066448893432
11328,-284.89716781773978
11329,334.32539610270373
11330,131.85559421631467
11331,-163.06900527506502
11332,207.69781044505478
11333,84.537755355417602
11334,26.259629066103429
11335,-255.92213730636794
11336,51.282902742482861
11337,-102.04962146231112
11338,160.43430410628773
11339,285.39335595630791
11340,-58.840964521682025
11341,103.10534910665791
11342,-294.31129301873426
11343,376.9074907782786
11344,69.801866933968938
11345,866.00018852261155
11346,-39.37289658053983
11347,64.614202893318804
11348,-169.65603416906714
11349,-545.18739763200062
11350,-61.769636847537392
11351,-497.32028453380872
11352,462.29111052928874
11353,-153.26914250955627
11354,-206.00694145910236
11355,-139.67967903899896
11356,-86.316035000082877
11357,589.44394290656066
11358,213.39162365467132
11359,160.84269205249731
11360,189.14311879095419
11361,-353.62333168120347
11362,-195.46146888135303
11363,-130.97048784757055
11364,-411.89784821070839
11365,339.53611096103839
11366,278.70802857875736
11367,262.53933089099922
11368,-182.3152473785598
11369,312.59253988430658
11370,292.5069660284928
11371,-191.39812913021404
11372,97.198965890428312
11373,-323.06245196934947
11374,-641.63352368309336
11375,34.404317785941487
11376,332.61463954494008
11377,374.39429080114598
11378,79.740574436981674
11379,-175.66454148011698
11380,161.84977999054598
11381,247.70962726908013
11382,90.738582192359559
11383,406.91954278272749
11384,-128.29338404491523
11385,131.27330755535451
11386,729.30944162762626
11387,721.95165077626461
11388,-177.94000063372545
11389,709.52290201697008
11390,68.441827946275694
11391,-488.04810671370342
11392,152.74593914617796
11393,-239.25028478333377
11394,-147.28095714479605
11395,-45.208318575644455
11396,-222.12449344542696
11397,-332.61528388191857
11398,-119.36737582300348
11399,411.59761537416688
11400,165.38288375399031
11401,488.27546568672119
11402,224.14489930098824
11403,57.123193278739024
11404,264.66502019787413
11405,-126.75098294470862
11406,-376.20602059401068
11407,48.791373917784796
11408,420.1980640051425
11409,-415.5596397131103
11410,-45.072678714989507
11411,-169.48557453543191
11412,744.96332266138302
11413,-534.18457131994796
11414,-151.03112809100992
11415,577.93586546936785
11416,46.726387390607442
11417,311.55408180562409
11418,357.30637658810559
11419,265.41273843984152
11420,-253.59736902535192
11421,-473.88134405003217
11422,12.688444605877692
11423,-132.56426690048826
11424,72.473819203475074
11425,217.43580522922275
11426,-335.77852011220813
11427,-262.20462447685384
11428,95.516983209102079
11429,-209.18192024535983
11430,456.63567349234302
11431,308.43056019746683
11432,-28.853731125682657
11433,-358.51784715108147
11434,128.31172677442649
11435,145.62472438146119
11436,95.667008034186125
11437,268.28354091308188
11438,-466.92441624646369
11439,-314.32094969127246
11440,344.74066488627795
11441,220.70755813671224
11442,-578.47552390124213
11443,174.80907811479406
11444,399.94148396073348
11445,732.6720966332532
11446,667.3027303329186
11447,-63.096512982720981
11448,245.9065220289225
11449,21.730193019487274
11450,-248.65264042472742
11451,-197.04075505174026
11452,-282.04647226508348
11453,-81.152389257554148
11454,52.365361603787505
11455,-2.2571267781357847
11456,-758.87561160637927
11457,213.49145912249105
11458,-169.27147826397839
11459,184.7202886520123
11460,256.56430497475259
11461,-63.248897776519001
11462,-272.71787183732636
11463,135.79446347148971
11464,455.7807433953061
11465,-129.35637652171928
11466,62.873370392220487
11467,-386.85293789480528
11468,267.22765883611146
11469,287.24118692262812
11470,-52.099728652583948
11471,76.40695664839194
11472,-138.16215089738236
11473,203.55614864230455
11474,15.488711020265825
11475,-5.9680825169682166
11476,-31.644142590969086
11477,221.5663023069273
11478,-687.00231820631791
11479,483.78422314354066
11480,958.02237908807456
11481,191.59606092931153
11482,-58.589705574534236
11483,259.46230620404322
11484,-6.316757561911345
11485,-270.28846900008949
11486,-772.4642296251177
11487,-146.46331926199946
11488,-37.781460993017092
11489,331.55195758225057
11490,570.47457411178186
11491,-182.59989627575118
11492,-356.09408660693907
11493,84.142951210364913
11494,-115.72664179916373
11495,431.89838199541106
11496,-39.027608360854401
11497,28.16338306294972
11498,-54.063853433292479
11499,-259.96553784016436
11500,157.69687820480726
11501,-451.57353618095391
11502,482.55650486877676
11503,242.55694520910041
11504,-588.11374380980226
11505,81.01709689599376
11506,325.40673944403039
11507,-22.052235150656117
11508,-296.27850419733215
11509,299.05191358614007
11510,468.26993122394845
11511,-99.607469514878403
11512,5.2780854471660064
11513,-101.94715017070774
11514,172.81543496339071
11515,-676.72075295290711
11516,-85.334585198187355
11517,117.54369571648222
11518,-83.628787388306449
11519,179.75562770163393
11520,-83.352963474527655
11521,-21.419178952216498
11522,292.12474624327666
11523,-100.16396087765307
11524,-295.44507824255652
11525,-196.19961546096263
11526,-90.403497985661176
11527,-58.114124094915098
11528,-400.37934469764627
11529,236.32717532971418
11530,-312.0048905394508
11531,448.89904737276538
11532,202.73550507695208
11533,94.928754562895762
11534,60.247307917512217
11535,-149.4366324908828
11536,406.7833814658029
11537,600.81202653643254
11538,-23.263559460762735
11539,-565.31270690564997
11540,156.44069172561154
11541,648.62154662395562
11542,405.71979646874257
11543,261.80583136930102
11544,22.356083935013658
11545,238.41247473228833
11546,164.56802375270073
11547,-83.346741148582311
11548,209.77491982449467
11549,-198.97437741530834
11550,-78.734732103375435
11551,27.732488101924986
11552,450.31679507491003
11553,-78.315205580051682
11554,-267.63890633380311
11555,348.33187445465865
11556,-404.45503917406768
11557,330.09593949369344
11558,-532.97055874359694
11559,530.16672283309845
11560,-741.05680464105535
11561,478.64952344734115
11562,164.63187921356118
11563,-449.71075314711857
11564,-412.11481107833839
11565,219.12773907510564
11566,-378.68930950300648
11567,368.73338805453579
11568,37.338426958469569
11569,396.49349500405282
11570,-29.329794718536661
11571,35.475251839091285
11572,-267.29107555681395
11573,-417.346579791311
11574,-250.30106527663878
11575,-228.95720009218809
11576,692.25134733750713
11577,-411.15737206575341
11578,482.3211788824994
11579,109.40386922308659
11580,547.62058151390079
11581,179.88426508469274
11582,-521.57931018951399
11583,-0.53667222020587246
11584,-1.3108832742796608
11585,-248.05083145629661
11586,-243.06806182013102
11587,199.56730075170287
11588,381.32404325693426
11589,-393.1688038873981
11590,138.23245276134867
11591,34.241055697987804
11592,-4.6291546141183204
11593,-151.86193128195765
11594,335.54637222709096
11595,-93.145298082705224
11596,507.75321866389629
11597,-355.46562053382354
11598,143.08978438160864
11599,137.94688403626986
11600,-151.04600604389739
11601,-19.601773692468385
11602,105.84882713406195
11603,-172.78518998126646
11604,482.12726370999911
11605,-267.53917413325502
11606,39.90555578612986
11607,-52.855796531075242
11608,-21.222446731210368
11609,155.37989346108503
11610,-96.069277835016123
11611,-163.17530409699742
11612,-180.36573977355226
11613,-264.67843452360097
11614,171.42795164643695
11615,-11.457713362942513
11616,239.99734190689782
11617,-39.849953838415743
11618,-211.74160655795748
11619,-354.16935617356569
11620,72.479462952090117
11621,306.82020444019361
11622,10.710238479162342
11623,-367.95164299727423
11624,280.99867828489931
11625,607.13427899520286
11626,226.07866695707088
11627,565.92963801468522
11628,-147.76747216989912
11629,-314.03756027490573
11630,-180.04553525208766
11631,51.270977379872342
11632,-118.81984221413362
11633,-258.26062194274806
11634,-229.83713020204382
11635,200.36475862315262
11636,-348.0714175640104
11637,-584.86086597254553
11638,-4.9298768310265046
11639,-163.44221481669805
11640,87.027519298568933
11641,41.566635043453047
11642,-494.89046377701629
11643,-60.887711202974167
11644,-173.55136971975134
11645,181.26452118021137
11646,-51.325709086770317
11647,43.950997305182376
11648,-517.98181348587968
11649,-355.55266690328551
11650,272.40216687734272
11651,490.63038344697338
11652,-37.234706867821529
11653,100.19178117715956
11654,32.264743116669521
11655,342.38399589459823
11656,-274.38399640566723
11657,-461.59948018183718
11658,399.11781881563252
11659,59.941662419267175
11660,-119.02693796298178
11661,-281.70905159749202
11662,-127.62868444831869
11663,-556.58191017782531
11664,-79.37923441222199
11665,-84.283987551749874
11666,-212.85815433361992
11667,72.298584679814311
11668,-416.45899892038244
11669,-151.39277066781864
11670,-112.94325746656926
11671,-386.99760536798402
11672,553.34971336541662
11673,-80.937834580871652
11674,265.6051645120167
11675,498.06450504154702
11676,447.88340767692461
11677,-162.95338863408949
11678,121.20351520652137
11679,106.02342845843168
11680,340.50635541497354
11681,4.3144167627827414
11682,-92.647836691653538
11683,-354.12957712883394
11684,214.00747653242581
11685,-345.69142874226139
11686,-271.80220862911642
11687,426.30907737815431
11688,-37.757507170520583
11689,-180.46345723783452
11690,-97.582310788071624
11691,347.82231323352647
11692,-237.01309080397789
11693,118.12311870118737
11694,681.47666793850169
11695,275.66334489092844
11696,185.1648163995732
11697,-13.159363367316274
11698,274.07224748719023
11699,178.7610296558849
11700,-178.98039516140656
11701,391.84251758648367
11702,-308.94994109698109
11703,-324.83621594839019
11704,262.08713574306955
11705,398.52106409404041
11706,-368.25488043296104
11707,-181.18251143785068
11708,-166.41347208747436
11709,68.987552587253106
11710,-249.49012878431523
11711,443.60337484329034
11712,13.650459883850353
11713,-212.53037852371745
11714,-27.915418712236701
11715,-240.79982184571048
11716,-142.8830914479361
11717,-285.83430439090569
11718,460.63166868009398
11719,-225.10788029950515
11720,97.826519328620918
11721,350.58725687428455
11722,378.82385166848792
11723,-3.8848455252737324
11724,-260.94828856683984
11725,-64.561586173819705
11726,-270.60328416669245
11727,-569.42074769437238
11728,142.46838399488027
11729,228.15231792746633
11730,170.90589405270771
11731,-88.733005981169867
11732,179.58514596852976
11733,176.78682556049472
11734,-56.270574348238455
11735,-185.87258729682554
11736,100.44658731097093
11737,-63.662179545584593
11738,623.20611399712345
11739,-122.16898105377922
11740,-216.57264126812615
11741,-130.98097450073647
11742,-293.82665858937611
11743,167.92384362729905
11744,9.259507593413403
11745,-587.49569626032985
11746,304.72480941847732
11747,251.46359511685287
11748,-304.06096774524246
11749,108.04336957546155
11750,-218.67189979790231
11751,-105.13018388543567
11752,121.35633108715776
11753,-302.9640413485011
11754,529.66163992858799
11755,-224.55011115095405
11756,688.85980209957927
11757,121.62140840748233
11758,495.86330963740073
11759,-104.89700800321388
11760,-39.403692827710415
11761,-218.43393840893364
11762,-242.07542923760306
11763,328.46917366165144
11764,-121.57062322437474
11765,-351.96132723645752
11766,235.89654336009059
11767,211.8433161338375
11768,581.98590838312521
11769,-187.81685176717806
11770,-88.20353056281337
11771,-121.26318282161463
11772,-682.3449315356844
11773,-61.455993571581402
11774,69.009041338983565
11775,132.89487284698998
11776,41.646820743463095
11777,-513.16982488346855
11778,216.74344092334553
11779,-533.8087878872966
11780,-467.10306503157256
11781,39.693989655145799
11782,178.84483759017942
11783,-255.91268436083223
11784,468.69097201293755
11785,-959.14586751744559
11786,201.86251191588715
11787,-282.56870707573876
11788,-392.43495156660589
11789,-219.68775779803536
11790,169.59302266781279
11791,-21.895665769337882
11792,-242.27992228725677
11793,35.588860751347106
11794,336.44033353004266
11795,-63.331520330006228
11796,-4.4460482737861184
11797,-312.31536571456081
11798,14.581415571942273
11799,-258.22351273455155
11800,725.83879133028438
11801,-303.82806462040224
11802,-726.1845220640314
11803,93.422683694412513
11804,92.797982583721051
11805,342.41232925067391
11806,856.18253943441721
11807,-54.883147062181095
11808,-213.13720641425687
11809,-365.08354888494716
11810,-733.48196200349605
11811,-206.05838193578077
11812,-418.27223526007856
11813,358.80446947095322
11814,-260.62234532467153
11815,546.23457225878508
11816,187.44948665603002
11817,-22.033982900795621
11818,88.730517023415302
11819,-243.13847978487806
11820,-41.37966627895679
11821,-543.62402412009192
11822,840.80603546696943
11823,402.82422181866548
11824,79.42070559550028
11825,473.38979426396526
11826,-57.64549004681686
11827,210.11286727244146
11828,-185.75745290109987
11829,22.769138003586566
11830,940.74683407735256
11831,-442.70666780215674
11832,-475.24478225219235
11833,-339.99428398162115
11834,541.64636473019129
11835,333.49907956467445
11836,-765.49625337927603
11837,91.193189180873048
11838,164.45073228966314
11839,274.61283312273849
11840,263.18825389803925
11841,303.62233467676504
11842,-92.189525537954779
11843,208.97371337568342
11844,-170.0341905096135
11845,41.558196358047923
11846,-670.83136510992892
11847,452.65937770406845
11848,741.81026125444669
11849,420.55241150407591
11850,400.35300244817904
11851,-181.64239575564187
11852,162.04635840200513
11853,2.7480936093336936
11854,534.69064463343193
11855,145.05936874351198
11856,245.63977352375099
11857,192.70633663604917
11858,486.57398637164664
11859,525.26999998527197
11860,172.00159142779148
11861,342.56191471401803
11862,-338.44880989512291
11863,99.971335043803407
11864,-176.9017178169037
11865,316.42601020393317
11866,-637.4632411206311
11867,74.533357363900933
11868,-319.60935418345196
11869,-234.07357196963392
11870,238.83176324556101
11871,684.29951585438062
11872,-273.39394690634401
11873,229.49387382849625
11874,-191.4280518183522
11875,591.73655090123884
11876,-357.71707695786688
11877,279.3492027993542
11878,16.385346982374724
11879,1015.2321071191636
11880,-44.247648670117613
11881,-259.12038484959936
11882,6.6863125711804798
11883,113.4176595002541
11884,164.36906042910707
11885,-219.79091064314898
11886,-50.912150165226848
11887,234.69378482921343
11888,-225.74604715601248
11889,-124.56806112022934
11890,89.330806345862982
11891,-24.039822321153942
11892,949.81385091714901
11893,21.68529324294667
11894,-333.06691562171108
11895,51.635266771127249
11896,-328.74705891806946
11897,-622.2335618237704
11898,-406.82572326736852
11899,-126.38083816156995
11900,-298.35683404440886
11901,-494.63240273285021
11902,579.02234075840011
11903,170.42489512238384
11904,160.45127278901413
11905,-127.53245750920836
11906,116.51260749164211
11907,137.24483689523171
11908,-1.235126305626892
11909,613.25081839662789
11910,435.23448086059454
11911,160.38696710023373
11912,-185.47388977035081
11913,188.64065599401187
11914,-610.56035131736269
11915,23.71465718639999
11916,-97.904691404596463
11917,-120.61345408597217
11918,353.0787173357877
11919,-18.442887505296127
11920,-120.28546893417463
11921,15.392910103858576
11922,185.80696804774482
11923,845.65276300558116
11924,349.45932877055873
11925,45.892637236966607
11926,-7.2379287510018884
11927,-164.71617083396109
11928,107.29963692985876
11929,-99.600099781149396
11930,48.616369269302581
11931,41.19970604370792
11932,661.67321709586702
11933,305.95898794977836
11934,500.41107558683331
11935,-231.16099217574458
11936,334.17773249931838
11937,-326.40234266325712
11938,-574.18061958380474
11939,148.54087270945089
11940,613.98788259128924
11941,184.52036741988329
11942,-216.10046725875512
11943,-616.0735283229883
11944,127.46984067427121
11945,-96.881554392750701
11946,-167.71203784394419
11947,-349.94699488619483
11948,6.6148671269259296
11949,543.27970640688636
11950,-362.78103146833723
11951,-330.05741949466619
11952,347.01454873631724
11953,526.43077329344783
11954,-69.342520304570755
11955,368.08942932477697
11956,381.72371964173976
11957,345.85284032808306
11958,-204.68981318862092
11959,157.89721831896412
11960,-967.383364217912
11961,527.9548197579926
11962,-338.8496057859553
11963,609.18113860175481
11964,381.11662058979823
11965,-18.351583240230696
11966,-92.242918307830251
11967,-166.08686551614514
11968,-173.93959945806253
11969,-221.13734204317694
11970,-228.3761224512869
11971,198.06160680946016
11972,-713.00647693430483
11973,-89.681864741834545
11974,-480.00457016777966
11975,-271.73339592270111
11976,565.32363993667275
11977,96.111482632328887
11978,178.61335856961304
11979,-61.174332454705493
11980,-368.69168724005903
11981,4.8477465781778228
11982,414.41382134440266
11983,-760.31831679305401
11984,84.912715326861075
11985,-251.84732552029192
11986,280.70758458951946
11987,-391.25027825107742
11988,608.49911717037548
11989,-27.808460607212226
11990,-123.41411926925565
11991,-130.82924419408505
11992,18.553068892603946
11993,-433.16537587721427
11994,-303.70912611646639
11995,464.71525498507947
11996,496.48533446727862
11997,-35.135409415795309
11998,-131.67918453438881
11999,417.26915462133496
