Id,y
10000,-66.002423490231848
10001,451.40650440115496
10002,-461.67641706029917
10003,40.501208753722665
10004,-126.74472245403689
10005,-342.53455181925096
10006,-396.55554211358913
10007,335.54127907908736
10008,-99.512420870624055
10009,304.81253980627633
10010,68.894530489785268
10011,412.36919545590632
10012,54.942371024767766
10013,-17.005550754779676
10014,-597.84995757226216
10015,443.50228878641479
10016,144.77448697804365
10017,-57.41116367253619
10018,134.38782757746071
10019,-108.98377598910895
10020,153.82482842506721
10021,611.73598360220205
10022,588.38965033842192
10023,-131.01679995801962
10024,-61.135621141229066
10025,-374.24849531697208
10026,74.157993079653181
10027,137.43837873610383
10028,420.08661179679098
10029,196.76562571344365
10030,268.44284980053101
10031,638.47491025110912
10032,127.37873138691975
10033,1.3491187584004649
10034,22.710453177408141
10035,342.23953452256444
10036,307.70396697417215
10037,348.13820870094025
10038,-168.65286130735331
10039,-20.221130904616473
10040,-551.74992757311156
10041,-429.97180406674039
10042,261.8919587067432
10043,389.8204261292214
10044,-96.165622273565191
10045,-210.710801256325
10046,278.88186878401154
10047,-427.45330103104885
10048,-172.90325291756758
10049,467.2643783557856
10050,-631.5587355874394
10051,-355.53165933817854
10052,143.17327553860349
10053,69.199202598942037
10054,275.58827397672582
10055,-263.18861220410213
10056,167.49830723241212
10057,104.57789589014229
10058,230.07008661007518
10059,20.988026644576024
10060,-4.8225812625010747
10061,-201.92294081063753
10062,560.06392656577043
10063,55.288476252448447
10064,671.30157469183462
10065,-493.7487382852288
10066,-279.35303673259193
10067,-53.712527613147742
10068,379.69819550097486
10069,315.07141085798196
10070,169.13001732614333
10071,-271.59930326901116
10072,783.80222267503495
10073,44.577311515548246
10074,57.406780054577638
10075,-161.07827414306843
10076,-220.66957847885681
10077,223.24129442929109
10078,352.66559554375402
10079,13.16329136626598
10080,-461.99414698573094
10081,305.37214669142406
10082,-230.5965617386112
10083,359.07444324254391
10084,-430.26056337592138
10085,-115.54882205546238
10086,-88.96006387867385
10087,-488.29018980804221
10088,-139.35033854713555
10089,57.338808108527218
10090,-190.33624272166418
10091,-6.5080929148240614
10092,189.29107774701845
10093,346.60367818565567
10094,871.62732064859006
10095,-147.01353738653864
10096,443.48993777942979
10097,-30.49843297443681
10098,185.4634575344592
10099,-119.91717151732742
10100,43.575238001807321
10101,58.318571552243327
10102,-197.15246829839754
10103,-70.471606788412089
10104,-342.84605328866741
10105,-29.233589873716568
10106,49.5229292961032
10107,-16.246144137913355
10108,33.775069261606873
10109,-68.883077483240925
10110,25.863399493696704
10111,-617.31428427169567
10112,-185.90441301194852
10113,323.78310610938655
10114,-35.662195722128089
10115,-733.52977116138334
10116,-240.73856264736062
10117,-381.9731466242489
10118,75.319944621694503
10119,36.610326459117999
10120,-28.756270225023215
10121,-481.16062796858802
10122,408.85023042298923
10123,-765.02174719916366
10124,178.0726965163706
10125,-7.6498793856733158
10126,134.79684623375931
10127,-477.45851421287091
10128,-248.70625301323636
10129,-361.88465722386383
10130,-18.755611748553918
10131,7.7956043744338217
10132,-109.10598972538386
10133,-63.073745242194661
10134,591.82318373491592
10135,259.61263369662777
10136,-279.86583200876743
10137,93.225359400518442
10138,-427.28731541913544
10139,84.386566330898347
10140,-311.54463064415592
10141,11.419268612561538
10142,-297.83146842358479
10143,-331.92897096864363
10144,656.01323052573116
10145,-476.66268136505414
10146,361.19404513377441
10147,-150.1852686119226
10148,299.94671902432452
10149,-191.72143219270782
10150,151.94999511611917
10151,-64.672757815764228
10152,351.24486163063381
10153,-370.63644575627234
10154,349.22498178611022
10155,273.52460961680174
10156,783.19718431968784
10157,-124.23788973573994
10158,-155.22004432990869
10159,-506.95564938641076
10160,201.69321238561542
10161,-415.17405715963685
10162,-348.16510516956453
10163,-201.95224108680978
10164,-658.95044705333669
10165,179.34640168171509
10166,124.06925816168734
10167,-209.15025355201726
10168,213.70513477400587
10169,-82.117210238089555
10170,-97.110269897268751
10171,124.26800574648041
10172,50.289915657142771
10173,538.74395928133686
10174,630.0175345543372
10175,217.25927782654418
10176,-491.73374132670813
10177,-131.1417511388324
10178,362.39302241729519
10179,-14.36303805540831
10180,-30.261757361675791
10181,-107.32358076729857
10182,-334.06259292967206
10183,299.5063996464329
10184,-103.47221484505364
10185,179.82049946719417
10186,122.2007088790071
10187,86.580371616906504
10188,386.48256056699222
10189,-613.36117450458266
10190,-269.81638738346311
10191,260.7314512622861
10192,-44.62016128042783
10193,-159.15717576416785
10194,-145.24559879357537
10195,447.22821487600118
10196,476.35698596959548
10197,121.79421345327287
10198,-1.5356790561064031
10199,410.74409653878098
10200,90.828099799647447
10201,150.07336956845103
10202,24.033652961546537
10203,273.88663405363002
10204,-154.52926038025163
10205,42.588901507066048
10206,617.34170631685652
10207,38.939360761429469
10208,-91.436101194904239
10209,225.35327477391203
10210,151.05827577085751
10211,-86.916647736459637
10212,-101.71788958007323
10213,161.93776502605476
10214,357.87041410354493
10215,32.145978186554316
10216,-379.14539920029176
10217,-165.94213222367173
10218,257.45392169454095
10219,-124.83850779184155
10220,47.084514722991457
10221,-67.050651389802169
10222,287.17334413416302
10223,836.26742777016261
10224,-78.733292602056849
10225,-293.00922915219428
10226,284.91632646225526
10227,377.95143200822753
10228,-473.94261958972231
10229,-538.80945497660309
10230,-372.90475040318682
10231,-83.377008899687667
10232,157.46205951911358
10233,167.50291456151069
10234,-105.69040574319737
10235,561.16168791762846
10236,-149.35531895746823
10237,196.96680512352287
10238,-33.819911727580504
10239,5.199419882336656
10240,-121.70842296063216
10241,53.473579817378351
10242,531.29189384112453
10243,-157.6026225893763
10244,-183.77196239261295
10245,643.83224642566302
10246,17.780306010129543
10247,-92.079397194602649
10248,485.49316460507441
10249,-221.23657860793918
10250,490.60650504846166
10251,-43.677159154249921
10252,139.93322987117671
10253,207.50447442761069
10254,17.09264702436036
10255,-396.47203316052969
10256,-168.30166761529119
10257,-75.593241001244564
10258,-292.07350780076933
10259,-59.373665346633402
10260,247.36904706438429
10261,206.83112758185621
10262,17.462464464080227
10263,-181.81148500656991
10264,300.17615094548563
10265,-567.63872479558893
10266,311.59327285263555
10267,-9.9295118354917804
10268,161.40782304547818
10269,272.38559922972365
10270,55.122457419425729
10271,-15.278267412197835
10272,286.40230194290245
10273,387.88861194347402
10274,-148.5788886363859
10275,171.95235244839665
10276,-411.57059222267895
10277,213.8025382707516
10278,133.93002437371757
10279,-99.017177501241719
10280,-162.41724224558197
10281,-39.074190113479574
10282,-295.15845218323955
10283,141.32481354359587
10284,163.05983005334551
10285,-55.455401462417584
10286,-145.7406760935219
10287,16.35046243635432
10288,-364.29855848282853
10289,558.66301873767281
10290,40.050661219007281
10291,67.637345042969343
10292,559.84008465546674
10293,469.80694715741612
10294,-149.49980105452971
10295,-328.82278669969685
10296,425.77131704667437
10297,85.504662411795493
10298,-166.91553705584948
10299,-662.29840703934985
10300,50.280391653003335
10301,-11.355718332961843
10302,-451.81126444953094
10303,78.672833134131054
10304,-386.81879991735678
10305,-273.22738305237164
10306,352.0150454400225
10307,-263.8480409181015
10308,-214.73022299361224
10309,-84.881154897384278
10310,745.8832791254224
10311,-418.9751084522739
10312,739.19912516619434
10313,-469.07742635294795
10314,481.82984486567148
10315,363.20797478744078
10316,-270.25304182071898
10317,-399.59212471613216
10318,234.4572803070642
10319,-38.734693570327124
10320,238.36874871850759
10321,28.697441990182085
10322,238.23095785965273
10323,-130.00744030000124
10324,-681.29456177884992
10325,61.580652959543329
10326,-444.92985067095918
10327,-14.713208392839618
10328,680.47678234285672
10329,288.73260649376476
10330,839.9704901556712
10331,416.65747651917928
10332,167.35603728915743
10333,-86.779537867068456
10334,332.76996760043619
10335,-201.3344309342535
10336,-43.625082987841196
10337,-107.90237779609782
10338,-284.03573802517047
10339,232.60855717832612
10340,237.83315171539945
10341,74.399805677202991
10342,255.51770406364585
10343,-168.64961928561013
10344,68.563346016290581
10345,-365.44198172526075
10346,189.70649886094651
10347,-369.83324976671037
10348,-250.90024390237789
10349,76.313550196231688
10350,-344.94550923377574
10351,-187.42339326812555
10352,482.16975698252259
10353,125.75266972886018
10354,450.69194375218558
10355,216.17619018208205
10356,34.341935719304971
10357,57.511455961215226
10358,-211.41949894712735
10359,49.762491809492694
10360,76.1110402075835
10361,-29.196254490441092
10362,33.048958528737472
10363,364.56271216310057
10364,234.48280987315073
10365,-21.796554859090435
10366,-476.93787704779959
10367,43.567658993047132
10368,-310.95721366516898
10369,-46.941116226037494
10370,181.19558107133599
10371,-214.96242982007277
10372,-80.227060315221237
10373,841.20822916573741
10374,102.35678708586973
10375,37.297738046881776
10376,77.398182759601582
10377,435.79452149369286
10378,111.39479265155725
10379,-128.82922415387571
10380,573.05012105839637
10381,48.602468077912533
10382,-68.554146592187493
10383,56.681624505829888
10384,-360.30993199943964
10385,131.90192283450409
10386,-264.52589763343127
10387,-378.79324972499239
10388,-190.09929259976644
10389,862.91521304096204
10390,159.5764966623106
10391,514.02046358014491
10392,61.387667803407034
10393,720.87589583265719
10394,-450.97673103980236
10395,105.89444211999731
10396,-27.532603044002599
10397,-23.435561966770202
10398,331.20599829494608
10399,-156.02456394824131
10400,0.94770183856025625
10401,17.232405165319697
10402,143.23908417021212
10403,53.226451390746675
10404,41.013349269794105
10405,-129.39255146834734
10406,430.91652104593038
10407,-427.90961965735664
10408,49.114004852091256
10409,-221.64758038918779
10410,-313.75971218685095
10411,115.24452244706924
10412,96.100972044535411
10413,-399.91598494242078
10414,-8.4114079235624928
10415,733.18413243746841
10416,-332.42676649165088
10417,83.676120421942912
10418,339.79274865544255
10419,-35.115701314514311
10420,38.204335433877361
10421,-606.19848905593039
10422,194.27285338946194
10423,155.03155116158214
10424,-111.25647787348404
10425,-63.339371636516361
10426,403.93581872896431
10427,690.91943033586006
10428,75.781299436449899
10429,-340.31540652357592
10430,-195.76159542697852
10431,40.44513870875528
10432,-137.65418796029263
10433,-95.674796589543746
10434,290.84353787250313
10435,568.46468134727866
10436,351.21865075407521
10437,194.71516658168207
10438,-312.15084208719406
10439,-518.31078687244781
10440,-80.751580480612901
10441,-109.91053830578463
10442,491.41083647519542
10443,371.48514486049368
10444,343.85664466843576
10445,114.60785397368436
10446,-315.2044219098828
10447,83.103965093070997
10448,-82.599151017740297
10449,-182.21902722527597
10450,-294.91729245130489
10451,-294.21055531487013
10452,611.54704173565142
10453,-34.756134103592103
10454,-115.04157690057843
10455,263.27933790237512
10456,346.05651209283735
10457,194.61161526911033
10458,257.35614963849423
10459,-303.20809492711544
10460,-173.19591085705906
10461,-88.539834485783928
10462,137.60161200011171
10463,337.04864927806443
10464,155.72523460362689
10465,-250.29079290523825
10466,148.06340015143556
10467,333.68218860937725
10468,-260.33639238342568
10469,340.30790922791459
10470,224.68535571269555
10471,-607.27971706193148
10472,-54.859592940917963
10473,-685.09108172584376
10474,268.25827077859469
10475,108.79743563388459
10476,-233.16761717272115
10477,115.8908815785018
10478,75.288754614984697
10479,312.58695394034226
10480,78.425907046794464
10481,-509.63079643958224
10482,142.15294578474629
10483,-567.60967445988456
10484,99.197844110130859
10485,181.76569364680975
10486,-27.407098394358258
10487,-646.82105081597479
10488,-261.63281625029924
10489,-398.87688919781601
10490,-259.4107520561833
10491,-252.05740356799112
10492,-25.647967227331904
10493,-479.35794942314169
10494,109.9106861902187
10495,161.94257969114014
10496,-436.80717423975574
10497,-66.01220442256745
10498,-73.605382654071889
10499,51.002739446193743
10500,7.6096810321629391
10501,-38.390486731083129
10502,493.59597060692829
10503,-303.44908054448706
10504,285.36305876068593
10505,236.93082121946139
10506,-112.90288738209168
10507,-104.91639705404643
10508,70.110711720151642
10509,-334.40218077461714
10510,-526.15206135133212
10511,26.69512668154033
10512,16.625076878907066
10513,-282.62391868623905
10514,-156.76438922324866
10515,-368.70385240105571
10516,87.266983883973438
10517,9.621961449394604
10518,159.33855433394996
10519,737.83543619007241
10520,-63.525614896837112
10521,253.39234540406727
10522,-195.47926226047883
10523,-233.60406275700609
10524,672.04300276033086
10525,161.02647811633904
10526,-86.92388588378158
10527,767.44993763178638
10528,300.14345470154331
10529,-264.63326212053062
10530,506.8069224983671
10531,413.73257578606194
10532,-227.95565420458567
10533,270.72182191824766
10534,166.27214538843157
10535,467.83594699529942
10536,691.01419274133275
10537,-235.19550162577471
10538,-204.49475633783649
10539,235.56549902567025
10540,481.50822898950207
10541,-404.28637162617395
10542,499.63459887902252
10543,-280.42362428356
10544,349.63535701277488
10545,56.27921855932604
10546,377.78382419955301
10547,58.239294125081642
10548,424.29981217464871
10549,85.800412441547252
10550,-252.99288852458949
10551,172.86784495502064
10552,-190.10660020571413
10553,306.96428652366922
10554,-179.11766493342225
10555,-155.77590494004943
10556,-208.75257057910824
10557,-257.42597802041763
10558,-187.88708045784352
10559,178.95968589803073
10560,769.29942460676682
10561,131.454004956462
10562,-86.336058477254539
10563,-440.78969412879781
10564,522.20633784169263
10565,74.260445370589125
10566,-273.34519080824856
10567,23.88548320272244
10568,-140.88619011673734
10569,337.44189332546449
10570,63.425120244031433
10571,-78.121043605639358
10572,-209.41596150610604
10573,-354.30221699579039
10574,261.54958940727226
10575,252.78475303502228
10576,415.3327934963977
10577,-341.4106217749632
10578,-101.54306561728953
10579,-82.980037344347465
10580,-146.19185945083024
10581,-400.95700950884992
10582,114.68810161530659
10583,-318.40944917284088
10584,-27.128651113149999
10585,253.39206355032269
10586,-15.161597235909596
10587,490.27631015669749
10588,67.160554155160952
10589,-583.65363016066317
10590,566.82922278088108
10591,-659.78402061134148
10592,-280.34458657663163
10593,-618.48495760346418
10594,-403.08152177208234
10595,52.580795867776786
10596,154.13724781790523
10597,-187.18724588646097
10598,45.064322864018578
10599,389.86980245897439
10600,497.49442770097363
10601,-172.60466145696984
10602,-199.48804830691174
10603,146.33213540458817
10604,-745.93142118236415
10605,-230.93578234679629
10606,-157.73768823510517
10607,170.555856721608
10608,58.528195791274186
10609,21.778235377082922
10610,-33.845432388595533
10611,527.01153214501801
10612,370.35979324782107
10613,-83.708849293366669
10614,-297.86678182751825
10615,379.63004164090563
10616,-194.49981867886459
10617,-59.08115423924005
10618,-59.050741456086143
10619,-265.79533104064188
10620,-488.32421484496371
10621,-28.133316815096748
10622,-110.89724251663928
10623,642.51981987431407
10624,-25.104958245575503
10625,368.2746547201458
10626,274.79921352704281
10627,416.52612933638545
10628,110.57324867984256
10629,561.37835205216618
10630,497.14376211577689
10631,-201.6098773445097
10632,-370.05229826158865
10633,731.05737242359851
10634,-380.13707915516898
10635,-200.60251550520846
10636,272.0860118937552
10637,269.84058991076324
10638,-243.56399508534585
10639,-80.642094345868273
10640,-467.97701289855542
10641,384.1033091717124
10642,-158.51464076438245
10643,-321.14290897908063
10644,-72.307098121583508
10645,244.89650104863034
10646,-111.76687989927564
10647,-71.303541616286395
10648,-97.149005345139642
10649,387.9928529444627
10650,134.07976082545468
10651,-372.72453971834472
10652,-153.89734891410612
10653,376.05572467830666
10654,-45.066999727281896
10655,29.111024201616928
10656,-164.38841371392408
10657,291.38028755702385
10658,-389.64290898924537
10659,-145.45381366072803
10660,276.50614199272428
10661,-134.09381091718947
10662,82.948111554811462
10663,143.77337061052685
10664,230.85377823040929
10665,649.89804699134902
10666,188.10011410399295
10667,170.77221614376123
10668,-533.84748447904872
10669,-516.13496882537083
10670,-356.78697467216551
10671,480.90374320564842
10672,-54.535992961675817
10673,-272.66057204038043
10674,-89.163693419766958
10675,-97.400040824960158
10676,-264.29803775062732
10677,-558.85167596104066
10678,-18.223173989822605
10679,238.68337858797997
10680,-107.49682687897666
10681,-439.73714969227456
10682,-366.08737762044996
10683,540.4744022919009
10684,-335.91922953998846
10685,128.98481364662408
10686,-360.46505927788405
10687,-211.01458656820051
10688,115.70383605399724
10689,-723.63335622477211
10690,380.89392210560885
10691,24.300969805755734
10692,-145.38761452740903
10693,-157.28295617853874
10694,134.1033600367297
10695,215.95710077116146
10696,-310.20616373438929
10697,18.018883693842724
10698,-287.16969472965962
10699,-244.82888943623919
10700,-126.15190632102966
10701,-276.85103369720088
10702,-63.902823195383547
10703,-268.29074198436558
10704,80.99060618707675
10705,135.49197649147894
10706,265.86171737073556
10707,290.1533893185748
10708,72.857507069875226
10709,-88.645018382843702
10710,-562.52380170861056
10711,-257.96859166459274
10712,-88.328187732276888
10713,-608.9048913545779
10714,16.648129846867505
10715,-117.99664144508844
10716,244.48813585825096
10717,60.961320646527007
10718,640.85047261142768
10719,15.073592658662676
10720,135.00644430477314
10721,39.523374533232953
10722,86.445605741342419
10723,20.337654615455584
10724,217.44242023198046
10725,-8.5748459902472689
10726,172.39758731739937
10727,-326.00374877328949
10728,347.58134072403834
10729,128.95803909114477
10730,-379.7500886129535
10731,-134.7069570566247
10732,153.56888514342413
10733,-72.122786088970983
10734,183.30848830572666
10735,-456.53877619137893
10736,152.27530162599655
10737,-20.658280599070167
10738,245.62232835465761
10739,776.40097282335614
10740,-320.14345296022486
10741,-479.31970828477847
10742,-69.754348602908337
10743,-372.01045319605157
10744,397.28224738180904
10745,94.972930251540589
10746,-545.87009398497639
10747,92.717330848033697
10748,456.62324679869744
10749,140.33519629203994
10750,-542.6167845034422
10751,33.256178473055343
10752,237.54555311936576
10753,-260.51478060377394
10754,-227.74117804894465
10755,-18.374207944645264
10756,357.23207935778998
10757,234.16866322379562
10758,309.04949086471629
10759,109.41620907267861
10760,297.04627719533823
10761,431.28271868977305
10762,-285.90275415168315
10763,-461.12318506056261
10764,458.84116852029274
10765,-35.132478657934428
10766,-138.9667786727797
10767,435.87811135413881
10768,-327.55173248124294
10769,-16.175842225600775
10770,32.687383150972778
10771,-143.11036093613353
10772,-82.911637968193247
10773,-26.395849579088463
10774,-295.90654248376882
10775,-300.94455130927724
10776,-157.03746176056347
10777,-444.10542517056717
10778,55.542959233744071
10779,136.09573343373856
10780,-59.934234414138018
10781,774.78693935585488
10782,-291.82146940254165
10783,449.65451335805267
10784,-231.20082491305237
10785,88.180588404050951
10786,511.68238161594456
10787,27.698913991854326
10788,69.719003430785449
10789,-684.03042867482009
10790,-181.16575418910725
10791,-592.285683531627
10792,-326.37230449136837
10793,527.57395543133748
10794,-175.98223228892601
10795,555.32732432624994
10796,-40.06219256947611
10797,-242.90961184425612
10798,466.47500983220891
10799,209.7265782177987
10800,112.47399028633811
10801,655.95970921127321
10802,-253.67288201365386
10803,-143.14006436902596
10804,261.90903344912454
10805,-51.430524620989011
10806,-646.53437149312185
10807,-114.11730645512905
10808,126.14931118008022
10809,204.59346285899488
10810,-300.39361365831405
10811,-415.68674588954008
10812,6.4491528842809771
10813,72.801077774828528
10814,160.6608720814522
10815,249.31168929181709
10816,-248.28534524656399
10817,7.8306299226124878
10818,-466.38382701665887
10819,290.15144404460148
10820,-309.03320656334006
10821,528.69166119562669
10822,372.4938479322542
10823,-328.08626630968496
10824,-94.658734077251665
10825,55.569194140457583
10826,67.343824190317164
10827,-533.66838124913158
10828,-128.10863350344883
10829,-542.99485844641936
10830,54.634639672580889
10831,182.66043483267885
10832,-41.299485730891021
10833,652.8127633917361
10834,-336.96578073788908
10835,99.962820197737784
10836,811.79001633670759
10837,-346.25211606530058
10838,103.69087960098312
10839,487.73608126333284
10840,120.89569101399177
10841,-324.32967405436921
10842,-136.41212971214907
10843,-41.924430030977192
10844,282.70298658023364
10845,345.62032897020504
10846,124.69798534752339
10847,-206.11335283373438
10848,155.93998583213994
10849,-443.76722994338547
10850,-273.34300340059559
10851,195.95033081854589
10852,-30.690040851399203
10853,86.567786598154868
10854,-312.21136188949646
10855,41.005246961457857
10856,307.6751801999477
10857,532.9059494214049
10858,260.16168056338057
10859,362.00550753373693
10860,101.32898120196873
10861,38.441296139893922
10862,20.267674753902782
10863,117.44024988074602
10864,573.69118270785555
10865,-507.59205851450042
10866,-211.76962671045663
10867,-78.399897404280637
10868,-319.57376765957349
10869,-267.44656441833456
10870,-780.85703196762358
10871,50.229980556443138
10872,-298.54901081716764
10873,23.392386523116059
10874,-76.290597410147683
10875,-257.59747046425457
10876,171.564365097966
10877,-121.60078316248894
10878,-451.37377685543038
10879,81.135338842681776
10880,-212.55249317142651
10881,-3.5349272290949898
10882,-408.2554810001842
10883,-158.65133194465827
10884,238.3983420161309
10885,-133.03572327369693
10886,-266.08408260606376
10887,247.74270438194679
10888,347.96654428323683
10889,-511.31524281086649
10890,21.81587121501984
10891,-163.84140964229135
10892,-472.56083639704752
10893,-365.00826715123446
10894,272.43713793224026
10895,92.373763748916588
10896,491.808145684652
10897,-200.03605813580879
10898,144.31490824987463
10899,-554.35805241999935
10900,-449.35755789415816
10901,565.0154801799597
10902,446.31875807462097
10903,309.69738818741325
10904,282.92794140775067
10905,176.19762818996767
10906,-315.14185176038097
10907,612.33779311529713
10908,274.25223124773072
10909,-19.436173058564876
10910,404.62544777052443
10911,47.266481426986445
10912,101.89624080960532
10913,98.148095627779071
10914,-231.35258244372272
10915,136.33612319164266
10916,-150.31005926794916
10917,461.19954997878824
10918,145.69015888427316
10919,-405.82374187555843
10920,-405.55256587509655
10921,213.67394365056134
10922,-204.80364027314428
10923,-118.57063791050828
10924,675.23026482907255
10925,145.16198786853397
10926,489.68700201996262
10927,-173.7655745936936
10928,89.691684652836869
10929,239.01179154231076
10930,-68.180000686601389
10931,93.666775615133275
10932,-196.55301722008653
10933,-711.75344472009328
10934,-104.15023991148905
10935,55.730039501229882
10936,74.240350584786256
10937,625.74959087690468
10938,234.98688486875514
10939,221.59294793875614
10940,61.931591756794887
10941,239.73644833443643
10942,-21.338081818318457
10943,180.16473629709222
10944,14.918627995498042
10945,-374.86568834825175
10946,-397.51492885840378
10947,114.66690843216146
10948,-269.61622879894327
10949,0.13921221449139409
10950,-34.594846760693002
10951,72.734021226681605
10952,-188.80556313903827
10953,-365.53367192345411
10954,-67.595522554267546
10955,19.501170139178697
10956,212.78259013823435
10957,170.72284688263181
10958,48.756055882017904
10959,-239.44652279164691
10960,409.73820515518003
10961,399.86800565030944
10962,18.693100459975511
10963,165.76697195984372
10964,-124.38945349671044
10965,54.994523212786078
10966,640.43207456486834
10967,7.5787927355545435
10968,-265.04763041001058
10969,1.6927330910936575
10970,18.517133621268101
10971,-248.8516393016929
10972,106.86193154650796
10973,251.63914312090952
10974,133.83773953640633
10975,-358.26696137693091
10976,426.26144731764157
10977,71.978422469740821
10978,-322.08755962522031
10979,438.84026750159342
10980,-40.132114491341994
10981,283.80356865292555
10982,-487.90619533258473
10983,-86.933028252148091
10984,-470.85015109169035
10985,73.146482773151263
10986,-688.39009894079959
10987,392.47856756604091
10988,-328.63103749553852
10989,149.39160063469251
10990,321.79311476060519
10991,584.39308704506334
10992,206.75729570024924
10993,36.548225997008061
10994,-37.778285211187722
10995,-551.05170946513704
10996,-107.85120387757053
10997,-176.80602795353039
10998,-356.88949117318282
10999,418.41458411247868
11000,-26.133496016981155
11001,-213.90951362803128
11002,246.57978881987651
11003,-32.011024949712848
11004,-126.73258849582632
11005,26.914491557619733
11006,198.92197376295192
11007,-18.843554414706382
11008,-119.51484607642396
11009,-389.90376053107371
11010,-149.50928607147887
11011,-308.96203021469466
11012,-478.77716041375226
11013,-616.72914125227999
11014,-25.890829611385044
11015,-133.17659031686384
11016,-633.05872522932066
11017,-32.263294745607865
11018,28.795819581694815
11019,-290.00132364066019
11020,-168.0249653920001
11021,-173.84102001973946
11022,107.27955415166312
11023,278.32878520699944
11024,164.73665181591321
11025,596.78601995061638
11026,737.78021771712224
11027,-57.04439870388758
11028,-20.381913027885265
11029,193.11140830024701
11030,150.95242220368186
11031,-340.87792585586715
11032,207.55657024653794
11033,-27.674726125892121
11034,-146.95165736571175
11035,-121.880668296127
11036,144.47950532989003
11037,333.20953167889684
11038,-452.51312096804583
11039,-208.53684674422345
11040,265.84494752360939
11041,-86.196459500501192
11042,-456.01061792236288
11043,-377.73004720142745
11044,277.55668897045348
11045,-98.288165568643933
11046,-258.67741823285053
11047,508.51302164659114
11048,-27.829466767415141
11049,-397.83822522418825
11050,27.294231548041765
11051,55.460906962912688
11052,86.52443961502604
11053,-417.71826706416732
11054,265.07469217437045
11055,126.49537980057322
11056,-731.23379989334239
11057,26.768529070431683
11058,15.172424965473454
11059,603.14917705396181
11060,-68.510369085760487
11061,-630.15884973892526
11062,391.43989504517094
11063,191.26739771271335
11064,-82.799158898045079
11065,874.27983557168216
11066,130.10220965607976
11067,24.825257629839541
11068,10.015684555530456
11069,407.55355195098485
11070,184.93372244983649
11071,699.40134035508538
11072,12.874182171249231
11073,-569.79503120547508
11074,-60.618267530271446
11075,-96.589442925860766
11076,19.660708357384337
11077,30.225969050066709
11078,-107.06858214835668
11079,-23.448153023308521
11080,-16.56348975511213
11081,18.767317998588254
11082,145.95038182220631
11083,-428.10275660092196
11084,-158.17477611037214
11085,-44.378080896788319
11086,-411.29977054483084
11087,218.42101808202523
11088,141.24530784475294
11089,316.63475597059062
11090,93.680239825355926
11091,154.16405402565528
11092,-132.9202502359106
11093,-293.87357139530729
11094,485.30634558787511
11095,-271.22948150685465
11096,373.383147178434
11097,-359.66959875632858
11098,-459.99230445069531
11099,209.05369852328204
11100,46.740083514877242
11101,-767.89654359917915
11102,-153.96946682570606
11103,-66.682892461568429
11104,-15.944035080886835
11105,16.07598434500062
11106,157.03893670157382
11107,585.65786355929129
11108,-259.63810597939221
11109,264.48646669308556
11110,171.5586506995275
11111,182.06572554508543
11112,-336.88337336089182
11113,-403.23853870315236
11114,114.57772510795492
11115,161.83644349638973
11116,-628.04470100010485
11117,242.011753055388
11118,362.86303611765396
11119,60.713706404244633
11120,-359.31123121325925
11121,-379.08187950572665
11122,237.8377849497889
11123,-293.41750913992558
11124,-397.45137920298231
11125,159.58885605132537
11126,365.03747521359531
11127,-720.61284648973628
11128,500.16486577148373
11129,-11.265810006162894
11130,-69.355015025238458
11131,250.86562155967741
11132,-169.30678540802455
11133,120.43720692692591
11134,-39.953157825393163
11135,-520.87906599974542
11136,-631.10610534537284
11137,-189.4512872458682
11138,73.570787366443227
11139,39.638131936282619
11140,-459.83743877510517
11141,4.0290717234962017
11142,-197.44889965681654
11143,62.389742569146932
11144,-186.44535236927186
11145,-133.60822019560192
11146,305.02297895286517
11147,-46.02246759214826
11148,-42.281475985007319
11149,-174.61342313978275
11150,-221.81742427816584
11151,-177.5825537147665
11152,-1.645779160211319
11153,92.195614728927808
11154,380.63664334812427
11155,5.1762855335081923
11156,-43.264137860360165
11157,138.56909768313264
11158,-644.23733997180511
11159,-264.0526485409801
11160,388.07711133595296
11161,-314.57550396753237
11162,68.595778853698761
11163,313.90250595867025
11164,-174.13638000550057
11165,75.245060917167095
11166,-48.300496534790263
11167,366.328134930543
11168,-300.95317522452007
11169,52.295474972807433
11170,199.76450852884625
11171,-291.45213888117792
11172,-221.25525714195146
11173,-347.63373665011392
11174,-203.16973722565993
11175,-377.92297544460405
11176,-39.059901238721181
11177,-27.657708986923808
11178,-4.8400690110828464
11179,387.6931701816701
11180,173.07521100861544
11181,932.27040167897292
11182,-79.75948934966533
11183,140.83197737225035
11184,39.684029858128056
11185,443.52420804431341
11186,342.35994872023917
11187,-137.8579525840631
11188,596.33053049117268
11189,207.64692642350815
11190,-628.74446968972688
11191,498.51770649884452
11192,-157.93924874004853
11193,351.1078397657422
11194,21.711333535600119
11195,-147.85882005549385
11196,204.57246274928082
11197,29.474618249413368
11198,121.43392964124429
11199,-565.61993538656645
11200,-229.61058695852753
11201,-46.804477108740599
11202,686.99934135048215
11203,-439.37600813835701
11204,-564.30678092622759
11205,-449.44523872061291
11206,-187.0133755779533
11207,63.714470752307989
11208,226.53217961128965
11209,-238.2619588660751
11210,8.0317526679673676
11211,-360.6886941851468
11212,-123.99311613868673
11213,-388.86461946300335
11214,21.02586263144623
11215,-301.50187125630418
11216,215.87740831289642
11217,403.51021004980078
11218,435.69760335692723
11219,-107.1009208837217
11220,186.0469207837366
11221,347.56948473980668
11222,258.81395911530535
11223,-431.37566148179314
11224,-169.35938198102002
11225,106.38668004303966
11226,11.406343347779398
11227,362.59620402956443
11228,-602.20735409114786
11229,707.5559184457943
11230,202.17491878205502
11231,-50.337119767656901
11232,-170.32942345324881
11233,-33.311370903949879
11234,194.42983492011513
11235,-358.58935096740652
11236,-212.26535326917715
11237,-291.42110382226321
11238,295.5576189497117
11239,-278.97338727308431
11240,23.653653300109767
11241,-64.463610906838937
11242,-550.51306724134065
11243,541.34326975247632
11244,95.063330411310062
11245,14.598207374632914
11246,108.60883519127047
11247,-390.97470911424296
11248,358.66641966090151
11249,-656.73737135463261
11250,39.621704040649206
11251,-112.10781397641765
11252,-3.9966181836039709
11253,-399.34877852946693
11254,-189.94215830266765
11255,25.70500325461802
11256,-514.3423090508951
11257,42.903388996472557
11258,-18.932652421566836
11259,-109.32309649965771
11260,-32.89909171394747
11261,-543.81200265385405
11262,402.37108703097044
11263,36.244315379428016
11264,228.30407580009475
11265,346.38302227713746
11266,-401.22270699068554
11267,54.057197731365065
11268,6.8622333480841462
11269,-3.8120805658922734
11270,-445.45149197388872
11271,162.08751874327021
11272,176.36752501387122
11273,-516.97198192843769
11274,189.99316009348982
11275,-164.45712796519348
11276,174.20994712832839
11277,-510.02977631488488
11278,174.78488510987137
11279,-352.74632432728436
11280,-145.4609770896169
11281,456.9718611706611
11282,-463.51489067262838
11283,-363.58427640439413
11284,-157.84808228490357
11285,-195.36060962026147
11286,152.04068775685704
11287,-197.09226766881682
11288,36.480965368719964
11289,993.22487797846861
11290,-387.02879318681528
11291,-6.6165108828038512
11292,-272.06886088584008
11293,-138.59954551011032
11294,-105.03944861259995
11295,-21.529524404723134
11296,91.057199150229195
11297,-65.791197149472652
11298,164.47287710093735
11299,-17.997827027464481
11300,783.88665971391424
11301,-339.23112472431251
11302,-196.48456361783519
11303,357.21849540968282
11304,186.31062521156986
11305,138.09410368403178
11306,-11.632461477738644
11307,175.80916373420411
11308,-224.61734983236238
11309,68.855796411867459
11310,201.21113139003961
11311,257.87114287716315
11312,-432.87055951729894
11313,-893.9998008184383
11314,671.86507846585801
11315,-143.37264919121873
11316,622.2386586662825
11317,179.3844262904725
11318,553.77440889190655
11319,133.39922116403807
11320,-278.763441831666
11321,-316.62804095298486
11322,503.41566288266728
11323,282.68713599665699
11324,-192.34979075415168
11325,-266.50621593517366
11326,28.44209269197188
11327,-502.81066448893404
11328,-284.89716781774035
11329,334.3253961027051
11330,131.85559421631234
11331,-163.0690052750671
11332,207.69781044505328
11333,84.537755355417019
11334,26.259629066102775
11335,-255.92213730636777
11336,51.282902742481895
11337,-102.04962146231102
11338,160.43430410628747
11339,285.3933559563086
11340,-58.840964521681741
11341,103.10534910665882
11342,-294.31129301873341
11343,376.90749077827547
11344,69.801866933969421
11345,866.00018852261064
11346,-39.37289658053983
11347,64.614202893318065
11348,-169.65603416906674
11349,-545.18739763200074
11350,-61.769636847537377
11351,-497.32028453380701
11352,462.29111052928818
11353,-153.26914250955568
11354,-206.00694145910282
11355,-139.67967903899969
11356,-86.316035000084042
11357,589.44394290656032
11358,213.39162365467155
11359,160.8426920524972
11360,189.14311879095447
11361,-353.62333168120404
11362,-195.46146888135172
11363,-130.97048784757072
11364,-411.89784821070958
11365,339.53611096103799
11366,278.70802857875628
11367,262.53933089099792
11368,-182.31524737855909
11369,312.59253988430578
11370,292.50696602849189
11371,-191.39812913021447
11372,97.198965890428411
11373,-323.06245196934833
11374,-641.63352368309165
11375,34.404317785941657
11376,332.61463954493968
11377,374.39429080114513
11378,79.740574436982698
11379,-175.66454148011681
11380,161.84977999054556
11381,247.70962726908016
11382,90.738582192359303
11383,406.91954278272681
11384,-128.2933840449148
11385,131.27330755535633
11386,729.30944162762569
11387,721.9516507762637
11388,-177.94000063372454
11389,709.52290201696792
11390,68.441827946277272
11391,-488.04810671370359
11392,152.74593914617608
11393,-239.25028478333411
11394,-147.28095714479571
11395,-45.208318575646175
11396,-222.12449344542679
11397,-332.615283881918
11398,-119.36737582300466
11399,411.59761537416637
11400,165.3828837539906
11401,488.27546568672017
11402,224.1448993009885
11403,57.12319327873837
11404,264.66502019787276
11405,-126.75098294470865
11406,-376.20602059400886
11407,48.791373917784398
11408,420.19806400514221
11409,-415.5596397131086
11410,-45.072678714989223
11411,-169.48557453543225
11412,744.96332266138234
11413,-534.18457131994865
11414,-151.03112809100804
11415,577.93586546936706
11416,46.726387390607329
11417,311.55408180562193
11418,357.30637658810531
11419,265.41273843984084
11420,-253.59736902535116
11421,-473.88134405003069
11422,12.688444605877123
11423,-132.56426690048806
11424,72.473819203476694
11425,217.43580522922292
11426,-335.77852011220807
11427,-262.20462447685406
11428,95.516983209102136
11429,-209.18192024536023
11430,456.63567349234319
11431,308.43056019746643
11432,-28.853731125681747
11433,-358.51784715108096
11434,128.3117267744264
11435,145.62472438146031
11436,95.667008034184832
11437,268.28354091308262
11438,-466.92441624646409
11439,-314.32094969127161
11440,344.7406648862779
11441,220.7075581367105
11442,-578.47552390123997
11443,174.80907811479497
11444,399.9414839607328
11445,732.67209663325275
11446,667.3027303329161
11447,-63.096512982721308
11448,245.90652202892204
11449,21.73019301948824
11450,-248.65264042472603
11451,-197.04075505173961
11452,-282.04647226508382
11453,-81.15238925755439
11454,52.365361603787051
11455,-2.2571267781343067
11456,-758.87561160637847
11457,213.49145912249028
11458,-169.27147826397652
11459,184.72028865201295
11460,256.56430497475276
11461,-63.248897776520067
11462,-272.71787183732488
11463,135.79446347148982
11464,455.78074339530536
11465,-129.35637652171886
11466,62.87337039221984
11467,-386.85293789480403
11468,267.22765883611055
11469,287.24118692262789
11470,-52.099728652584744
11471,76.406956648390974
11472,-138.1621508973808
11473,203.55614864230566
11474,15.488711020266472
11475,-5.9680825169687992
11476,-31.644142590968631
11477,221.56630230692627
11478,-687.0023182063178
11479,483.78422314354077
11480,958.02237908807319
11481,191.5960609293121
11482,-58.589705574535571
11483,259.46230620404322
11484,-6.3167575619121976
11485,-270.28846900008841
11486,-772.46422962511588
11487,-146.46331926199892
11488,-37.781460993016161
11489,331.55195758225045
11490,570.47457411178118
11491,-182.59989627575135
11492,-356.09408660693839
11493,84.142951210364203
11494,-115.72664179916558
11495,431.89838199540986
11496,-39.027608360855183
11497,28.163383062948668
11498,-54.063853433292678
11499,-259.96553784016385
11500,157.69687820480857
11501,-451.57353618095306
11502,482.55650486877579
11503,242.55694520909984
11504,-588.1137438098026
11505,81.01709689599312
11506,325.40673944403125
11507,-22.05223515065569
11508,-296.27850419733147
11509,299.05191358613928
11510,468.26993122394788
11511,-99.607469514878318
11512,5.2780854471666032
11513,-101.94715017070874
11514,172.81543496339029
11515,-676.72075295290676
11516,-85.334585198188222
11517,117.54369571648222
11518,-83.628787388305724
11519,179.75562770163467
11520,-83.352963474527485
11521,-21.419178952216569
11522,292.12474624327649
11523,-100.16396087765169
11524,-295.44507824255618
11525,-196.19961546096292
11526,-90.403497985659953
11527,-58.114124094914132
11528,-400.37934469764502
11529,236.32717532971526
11530,-312.00489053945063
11531,448.89904737276447
11532,202.73550507695268
11533,94.928754562896572
11534,60.247307917511648
11535,-149.43663249088428
11536,406.78338146580302
11537,600.81202653643129
11538,-23.263559460761769
11539,-565.31270690564691
11540,156.44069172561146
11541,648.62154662395494
11542,405.71979646874257
11543,261.80583136930034
11544,22.356083935016386
11545,238.41247473228896
11546,164.56802375270121
11547,-83.346741148581259
11548,209.77491982449433
11549,-198.97437741530803
11550,-78.734732103375052
11551,27.732488101924631
11552,450.31679507490992
11553,-78.31520558005144
11554,-267.63890633380197
11555,348.33187445465842
11556,-404.45503917406836
11557,330.09593949369355
11558,-532.97055874359717
11559,530.1667228330989
11560,-741.05680464105467
11561,478.64952344733973
11562,164.63187921356064
11563,-449.71075314711902
11564,-412.11481107834027
11565,219.12773907510584
11566,-378.68930950300484
11567,368.73338805453488
11568,37.338426958468304
11569,396.49349500405407
11570,-29.329794718535197
11571,35.475251839090859
11572,-267.29107555681344
11573,-417.34657979130998
11574,-250.30106527663747
11575,-228.95720009218746
11576,692.25134733750542
11577,-411.15737206575369
11578,482.32117888250042
11579,109.40386922308707
11580,547.62058151389908
11581,179.88426508469252
11582,-521.57931018951172
11583,-0.53667222020649774
11584,-1.3108832742797176
11585,-248.05083145629592
11586,-243.06806182013125
11587,199.56730075170265
11588,381.32404325693437
11589,-393.16880388739708
11590,138.23245276134895
11591,34.241055697988607
11592,-4.6291546141179793
11593,-151.86193128195836
11594,335.54637222708936
11595,-93.145298082705679
11596,507.75321866389561
11597,-355.46562053382172
11598,143.08978438160923
11599,137.94688403626918
11600,-151.04600604389688
11601,-19.601773692469067
11602,105.84882713406152
11603,-172.78518998126594
11604,482.12726370999815
11605,-267.53917413325519
11606,39.905555786129874
11607,-52.855796531074461
11608,-21.222446731210681
11609,155.37989346108407
11610,-96.069277835016408
11611,-163.17530409699745
11612,-180.36573977355067
11613,-264.67843452360029
11614,171.42795164643763
11615,-11.45771336294203
11616,239.99734190689713
11617,-39.849953838416383
11618,-211.74160655795765
11619,-354.16935617356575
11620,72.47946295208898
11621,306.82020444019361
11622,10.710238479162982
11623,-367.95164299727304
11624,280.99867828489937
11625,607.13427899520195
11626,226.07866695707
11627,565.9296380146842
11628,-147.76747216989855
11629,-314.03756027490408
11630,-180.04553525208922
11631,51.270977379871965
11632,-118.81984221413435
11633,-258.26062194274721
11634,-229.83713020204414
11635,200.36475862315191
11636,-348.07141756401069
11637,-584.86086597254518
11638,-4.929876831025652
11639,-163.44221481669854
11640,87.027519298569644
11641,41.566635043453672
11642,-494.89046377701504
11643,-60.887711202974884
11644,-173.55136971975105
11645,181.26452118021248
11646,-51.325709086770587
11647,43.950997305181467
11648,-517.98181348587832
11649,-355.55266690328648
11650,272.40216687734141
11651,490.63038344697259
11652,-37.234706867822268
11653,100.19178117715887
11654,32.264743116669621
11655,342.38399589459664
11656,-274.383996405669
11657,-461.59948018183638
11658,399.11781881563167
11659,59.941662419266294
11660,-119.02693796298146
11661,-281.70905159749026
11662,-127.62868444831824
11663,-556.58191017782497
11664,-79.37923441221929
11665,-84.283987551750727
11666,-212.85815433361995
11667,72.298584679813359
11668,-416.45899892038119
11669,-151.39277066781781
11670,-112.94325746656833
11671,-386.99760536798237
11672,553.34971336541594
11673,-80.937834580872106
11674,265.60516451201539
11675,498.06450504154589
11676,447.8834076769254
11677,-162.95338863409052
11678,121.20351520652085
11679,106.02342845843127
11680,340.50635541497218
11681,4.3144167627810077
11682,-92.647836691655129
11683,-354.12957712883457
11684,214.00747653242513
11685,-345.69142874225997
11686,-271.80220862911602
11687,426.30907737815426
11688,-37.75750717052054
11689,-180.46345723783492
11690,-97.58231078807151
11691,347.82231323352681
11692,-237.01309080397704
11693,118.12311870118691
11694,681.47666793850135
11695,275.66334489092867
11696,185.16481639957408
11697,-13.159363367315905
11698,274.07224748718994
11699,178.76102965588336
11700,-178.98039516140673
11701,391.84251758648338
11702,-308.94994109698013
11703,-324.83621594838894
11704,262.0871357430687
11705,398.52106409403973
11706,-368.2548804329607
11707,-181.18251143784977
11708,-166.41347208747436
11709,68.987552587253106
11710,-249.490128784315
11711,443.60337484329034
11712,13.650459883850012
11713,-212.5303785237177
11714,-27.915418712236139
11715,-240.79982184571054
11716,-142.88309144793737
11717,-285.83430439090512
11718,460.63166868009375
11719,-225.10788029950589
11720,97.826519328620094
11721,350.58725687428398
11722,378.82385166848786
11723,-3.8848455252727092
11724,-260.94828856683796
11725,-64.561586173818512
11726,-270.60328416669171
11727,-569.42074769437124
11728,142.46838399488001
11729,228.15231792746735
11730,170.9058940527074
11731,-88.733005981167366
11732,179.58514596852956
11733,176.78682556049299
11734,-56.270574348238142
11735,-185.87258729682554
11736,100.44658731097012
11737,-63.662179545584365
11738,623.20611399712197
11739,-122.16898105378084
11740,-216.57264126812555
11741,-130.98097450073627
11742,-293.82665858937611
11743,167.92384362730002
11744,9.2595075934136162
11745,-587.49569626032985
11746,304.72480941847658
11747,251.46359511685253
11748,-304.0609677452419
11749,108.04336957546039
11750,-218.67189979790206
11751,-105.13018388543664
11752,121.35633108715783
11753,-302.96404134850047
11754,529.6616399285881
11755,-224.55011115095425
11756,688.85980209957836
11757,121.62140840748285
11758,495.86330963739988
11759,-104.89700800321313
11760,-39.403692827711552
11761,-218.43393840893427
11762,-242.0754292376032
11763,328.46917366165098
11764,-121.5706232243737
11765,-351.96132723645684
11766,235.89654336008883
11767,211.8433161338358
11768,581.98590838312543
11769,-187.81685176717664
11770,-88.203530562813157
11771,-121.26318282161429
11772,-682.34493153568383
11773,-61.455993571582241
11774,69.009041338983252
11775,132.89487284698924
11776,41.646820743463039
11777,-513.16982488346775
11778,216.74344092334707
11779,-533.80878788729717
11780,-467.1030650315721
11781,39.693989655146069
11782,178.84483759017849
11783,-255.91268436083109
11784,468.6909720129363
11785,-959.14586751744548
11786,201.86251191588622
11787,-282.56870707573847
11788,-392.43495156660401
11789,-219.68775779803593
11790,169.59302266781276
11791,-21.895665769337256
11792,-242.27992228725688
11793,35.588860751347227
11794,336.44033353004357
11795,-63.331520330006498
11796,-4.4460482737873974
11797,-312.31536571455979
11798,14.581415571942415
11799,-258.22351273455058
11800,725.83879133028438
11801,-303.82806462040128
11802,-726.18452206403151
11803,93.422683694413308
11804,92.797982583720852
11805,342.41232925067322
11806,856.18253943441516
11807,-54.88314706218182
11808,-213.13720641425493
11809,-365.08354888494813
11810,-733.48196200349503
11811,-206.05838193577983
11812,-418.27223526007793
11813,358.80446947095322
11814,-260.62234532466954
11815,546.23457225878428
11816,187.44948665603027
11817,-22.033982900795571
11818,88.730517023414109
11819,-243.13847978487803
11820,-41.379666278956392
11821,-543.62402412009033
11822,840.80603546696852
11823,402.82422181866445
11824,79.420705595500777
11825,473.3897942639652
11826,-57.645490046815894
11827,210.1128672724418
11828,-185.75745290109967
11829,22.769138003585859
11830,940.74683407735188
11831,-442.70666780215561
11832,-475.24478225219309
11833,-339.99428398162109
11834,541.64636473019095
11835,333.49907956467393
11836,-765.49625337927648
11837,91.193189180872878
11838,164.45073228966251
11839,274.61283312273827
11840,263.18825389803789
11841,303.62233467676504
11842,-92.189525537956015
11843,208.97371337568339
11844,-170.03419050961486
11845,41.558196358047525
11846,-670.83136510992779
11847,452.65937770406958
11848,741.81026125444589
11849,420.55241150407517
11850,400.35300244817779
11851,-181.64239575564204
11852,162.04635840200564
11853,2.7480936093334662
11854,534.69064463343091
11855,145.05936874351323
11856,245.63977352375204
11857,192.70633663604974
11858,486.57398637164687
11859,525.26999998527117
11860,172.00159142779177
11861,342.56191471401797
11862,-338.44880989512211
11863,99.971335043803705
11864,-176.90171781690248
11865,316.42601020393283
11866,-637.46324112062848
11867,74.533357363902269
11868,-319.60935418345059
11869,-234.07357196963426
11870,238.83176324556257
11871,684.29951585438039
11872,-273.39394690634407
11873,229.49387382849608
11874,-191.42805181835246
11875,591.73655090123884
11876,-357.71707695786682
11877,279.34920279935255
11878,16.385346982374294
11879,1015.2321071191625
11880,-44.247648670116703
11881,-259.12038484959919
11882,6.6863125711791724
11883,113.41765950025359
11884,164.36906042910536
11885,-219.79091064314511
11886,-50.912150165226393
11887,234.69378482921357
11888,-225.74604715601248
11889,-124.56806112023014
11890,89.330806345861959
11891,-24.039822321153366
11892,949.81385091714742
11893,21.685293242947765
11894,-333.06691562171113
11895,51.635266771127704
11896,-328.7470589180698
11897,-622.23356182376983
11898,-406.82572326736727
11899,-126.38083816156953
11900,-298.35683404440908
11901,-494.63240273284998
11902,579.02234075839829
11903,170.42489512238296
11904,160.45127278901447
11905,-127.53245750920883
11906,116.51260749164069
11907,137.24483689523265
11908,-1.2351263056268351
11909,613.25081839662744
11910,435.23448086059426
11911,160.38696710023311
11912,-185.47388977035044
11913,188.64065599401101
11914,-610.56035131736132
11915,23.714657186399691
11916,-97.904691404594985
11917,-120.61345408597192
11918,353.07871733578764
11919,-18.442887505295573
11920,-120.2854689341745
11921,15.39291010385789
11922,185.80696804774465
11923,845.65276300558014
11924,349.45932877055861
11925,45.89263723696601
11926,-7.2379287510019026
11927,-164.7161708339604
11928,107.29963692985825
11929,-99.60009978114914
11930,48.616369269303405
11931,41.199706043706243
11932,661.67321709586645
11933,305.95898794977722
11934,500.41107558683211
11935,-231.16099217574441
11936,334.17773249931815
11937,-326.40234266325626
11938,-574.18061958380395
11939,148.54087270945172
11940,613.98788259128798
11941,184.5203674198838
11942,-216.10046725875532
11943,-616.07352832298773
11944,127.46984067427036
11945,-96.881554392749763
11946,-167.71203784394419
11947,-349.94699488619267
11948,6.6148671269271517
11949,543.27970640688625
11950,-362.78103146833809
11951,-330.05741949466494
11952,347.01454873631724
11953,526.43077329344737
11954,-69.342520304570201
11955,368.08942932477618
11956,381.72371964173834
11957,345.85284032808352
11958,-204.68981318861938
11959,157.89721831896424
11960,-967.38336421791098
11961,527.95481975799225
11962,-338.849605785954
11963,609.18113860175538
11964,381.11662058979857
11965,-18.351583240230013
11966,-92.242918307831161
11967,-166.08686551614511
11968,-173.93959945806213
11969,-221.13734204317615
11970,-228.37612245128588
11971,198.06160680945885
11972,-713.00647693430324
11973,-89.681864741833806
11974,-480.00457016778091
11975,-271.73339592270099
11976,565.32363993667207
11977,96.111482632329484
11978,178.61335856961415
11979,-61.174332454705166
11980,-368.69168724005942
11981,4.8477465781780502
11982,414.41382134440153
11983,-760.31831679305174
11984,84.91271532686045
11985,-251.84732552029041
11986,280.70758458952088
11987,-391.25027825107713
11988,608.49911717037492
11989,-27.808460607212268
11990,-123.41411926925599
11991,-130.8292441940832
11992,18.553068892602468
11993,-433.1653758772141
11994,-303.70912611646531
11995,464.71525498507896
11996,496.48533446727822
11997,-35.135409415795621
11998,-131.67918453438665
11999,417.26915462133383
